Number of cores/ranks per node is: 32
Bad partitioner
 Cell on rank 0 before loadbalancing: 156244
Cell on rank 1 before loadbalancing: 156257
Cell on rank 2 before loadbalancing: 156248
Cell on rank 3 before loadbalancing: 156259
Cell on rank 4 before loadbalancing: 156246
Cell on rank 5 before loadbalancing: 156248
Cell on rank 6 before loadbalancing: 156251
Cell on rank 7 before loadbalancing: 156250
Cell on rank 8 before loadbalancing: 156244
Cell on rank 9 before loadbalancing: 156254
Cell on rank 10 before loadbalancing: 156254
Cell on rank 11 before loadbalancing: 156254
Cell on rank 12 before loadbalancing: 156248
Cell on rank 13 before loadbalancing: 156246
Cell on rank 14 before loadbalancing: 156251
Cell on rank 15 before loadbalancing: 156252
Cell on rank 16 before loadbalancing: 156252
Cell on rank 17 before loadbalancing: 156255
Cell on rank 18 before loadbalancing: 156250
Cell on rank 19 before loadbalancing: 156244
Cell on rank 20 before loadbalancing: 156244
Cell on rank 21 before loadbalancing: 156241
Cell on rank 22 before loadbalancing: 156253
Cell on rank 23 before loadbalancing: 156249
Cell on rank 24 before loadbalancing: 156249
Cell on rank 25 before loadbalancing: 156259
Cell on rank 26 before loadbalancing: 156247
Cell on rank 27 before loadbalancing: 156245
Cell on rank 28 before loadbalancing: 156248
Cell on rank 29 before loadbalancing: 156243
Cell on rank 30 before loadbalancing: 156241
Cell on rank 31 before loadbalancing: 156249
Cell on rank 32 before loadbalancing: 156249
Cell on rank 33 before loadbalancing: 156240
Cell on rank 34 before loadbalancing: 156245
Cell on rank 35 before loadbalancing: 156239
Cell on rank 36 before loadbalancing: 156251
Cell on rank 37 before loadbalancing: 156246
Cell on rank 38 before loadbalancing: 156306
Cell on rank 39 before loadbalancing: 156249
Cell on rank 40 before loadbalancing: 156247
Cell on rank 41 before loadbalancing: 156252
Cell on rank 42 before loadbalancing: 156256
Cell on rank 43 before loadbalancing: 156254
Cell on rank 44 before loadbalancing: 156248
Cell on rank 45 before loadbalancing: 156245
Cell on rank 46 before loadbalancing: 156246
Cell on rank 47 before loadbalancing: 156252
Cell on rank 48 before loadbalancing: 156247
Cell on rank 49 before loadbalancing: 156265
Cell on rank 50 before loadbalancing: 156235
Cell on rank 51 before loadbalancing: 156247
Cell on rank 52 before loadbalancing: 156240
Cell on rank 53 before loadbalancing: 156252
Cell on rank 54 before loadbalancing: 156259
Cell on rank 55 before loadbalancing: 156250
Cell on rank 56 before loadbalancing: 156263
Cell on rank 57 before loadbalancing: 156250
Cell on rank 58 before loadbalancing: 156251
Cell on rank 59 before loadbalancing: 156250
Cell on rank 60 before loadbalancing: 156249
Cell on rank 61 before loadbalancing: 156251
Cell on rank 62 before loadbalancing: 156245
Cell on rank 63 before loadbalancing: 156246
Edge-cut: 594290
			Rank 0	Rank 1	Rank 2	Rank 3	Rank 4	Rank 5	Rank 6	Rank 7	Rank 8	Rank 9	Rank 10	Rank 11	Rank 12	Rank 13	Rank 14	Rank 15	Rank 16	Rank 17	Rank 18	Rank 19	Rank 20	Rank 21	Rank 22	Rank 23	Rank 24	Rank 25	Rank 26	Rank 27	Rank 28	Rank 29	Rank 30	Rank 31	Rank 32	Rank 33	Rank 34	Rank 35	Rank 36	Rank 37	Rank 38	Rank 39	Rank 40	Rank 41	Rank 42	Rank 43	Rank 44	Rank 45	Rank 46	Rank 47	Rank 48	Rank 49	Rank 50	Rank 51	Rank 52	Rank 53	Rank 54	Rank 55	Rank 56	Rank 57	Rank 58	Rank 59	Rank 60	Rank 61	Rank 62	Rank 63	
From rank 0 to: 	0	5097	0	1786	278	2338	0	597	0	0	0	0	0	0	0	0	0	0	0	1200	0	0	56	1629	0	0	0	0	0	0	0	0	0	0	0	0	0	0	0	0	0	0	0	0	0	0	0	0	0	0	0	0	0	0	0	0	0	0	0	0	0	0	0	0	
From rank 1 to: 	5077	0	982	567	1471	260	0	869	0	21	0	0	0	0	3002	2766	0	0	0	1252	0	0	775	672	0	0	153	630	0	0	0	0	0	0	0	0	0	0	0	0	0	0	0	0	0	0	0	0	0	0	0	0	0	0	0	0	0	0	0	0	0	0	0	0	
From rank 2 to: 	0	990	0	5930	0	0	0	3149	2944	2944	0	100	0	0	0	384	0	0	0	0	0	0	0	0	0	0	0	0	0	0	0	0	0	0	0	0	0	0	0	0	0	0	0	0	0	0	0	0	0	0	0	0	0	0	0	0	0	0	0	0	0	0	0	0	
From rank 3 to: 	1787	570	5928	0	0	0	0	3228	0	0	0	0	0	0	0	0	0	0	0	0	0	0	0	0	0	0	0	0	0	0	0	0	0	0	0	0	0	0	0	0	0	0	0	0	0	0	0	0	0	0	0	0	0	0	0	0	0	0	0	0	0	0	0	0	
From rank 4 to: 	265	1471	0	0	0	4527	1162	1066	0	0	0	157	3217	2585	795	9	0	0	1578	959	0	0	0	0	0	1204	34	0	0	0	0	0	0	0	0	0	0	0	0	0	0	0	0	0	0	0	0	0	0	0	0	0	0	0	0	0	0	0	0	0	0	0	0	0	
From rank 5 to: 	2314	264	0	0	4530	0	1928	1658	0	0	0	0	0	0	0	0	0	0	1634	566	0	0	0	0	0	0	0	0	0	0	0	0	0	0	0	0	0	0	0	0	0	0	0	0	0	0	0	0	0	0	0	0	0	0	0	0	0	0	0	0	0	0	0	0	
From rank 6 to: 	0	0	0	0	1164	1930	0	5089	0	0	0	3497	0	177	0	0	0	0	0	0	0	0	0	0	0	0	0	0	0	0	0	0	0	0	0	0	0	0	0	0	0	0	0	0	0	0	0	0	0	0	0	0	0	0	0	0	0	0	0	0	0	0	0	0	
From rank 7 to: 	594	890	3150	3177	1082	1656	5064	0	266	244	0	1962	0	734	16	750	0	0	0	0	0	0	0	0	0	0	0	0	0	0	0	0	0	0	0	0	0	0	0	0	0	0	0	0	0	0	0	0	0	0	0	0	0	0	0	0	0	0	0	0	0	0	0	0	
From rank 8 to: 	0	0	2930	0	0	0	0	267	0	2257	1879	1650	0	0	0	0	0	0	0	0	0	0	0	0	0	0	0	0	0	0	0	0	0	0	0	0	0	0	0	0	0	0	0	0	0	0	0	0	0	0	0	0	0	0	0	0	0	0	0	0	0	0	0	0	
From rank 9 to: 	0	25	2956	0	0	0	0	231	2250	0	1522	1463	0	0	0	3720	0	0	0	0	0	0	0	0	0	0	0	0	0	0	0	0	0	0	0	0	0	0	0	0	0	0	0	0	0	0	0	0	0	0	0	0	0	0	0	0	0	0	0	0	0	0	0	0	
From rank 10 to: 	0	0	0	0	0	0	0	0	1908	1519	0	5593	1271	823	0	168	0	0	0	0	0	0	0	0	0	0	0	0	0	0	0	0	0	0	0	0	0	0	0	0	0	0	0	0	0	0	0	0	0	0	0	0	0	0	0	0	0	0	0	0	0	0	0	0	
From rank 11 to: 	0	0	100	0	158	0	3468	1974	1635	1462	5592	0	1217	1203	0	236	0	0	0	0	0	0	0	0	0	0	0	0	0	0	0	0	0	0	0	0	0	0	0	0	0	0	0	0	0	0	0	0	0	0	0	0	0	0	0	0	0	0	0	0	0	0	0	0	
From rank 12 to: 	0	0	0	0	3217	0	0	0	0	0	1278	1229	0	4717	0	0	0	0	0	0	0	0	0	0	981	557	0	0	0	0	0	0	0	0	0	0	0	0	0	0	0	0	0	0	0	0	0	0	0	0	0	0	0	0	0	0	0	0	0	0	0	0	0	0	
From rank 13 to: 	0	0	0	0	2630	0	179	743	0	0	804	1212	4723	0	1901	3557	0	0	0	0	0	0	0	0	1264	434	0	0	0	0	0	0	0	0	0	0	0	0	0	0	0	0	0	0	0	0	0	0	0	0	0	0	0	0	0	0	0	0	0	0	0	0	0	0	
From rank 14 to: 	0	3039	0	0	841	0	0	14	0	0	0	0	0	1932	0	3333	0	0	0	0	0	0	0	0	1421	312	1607	1734	0	0	0	0	0	0	0	0	0	0	0	0	0	0	0	0	0	0	0	0	0	0	0	0	0	0	0	0	0	0	0	0	0	0	0	0	
From rank 15 to: 	0	2765	409	0	9	0	0	717	0	3715	169	238	0	3555	3325	0	0	0	0	0	0	0	0	0	0	0	0	0	0	0	0	0	0	0	0	0	0	0	0	0	0	0	0	0	0	0	0	0	0	0	0	0	0	0	0	0	0	0	0	0	0	0	0	0	
From rank 16 to: 	0	0	0	0	0	0	0	0	0	0	0	0	0	0	0	0	0	4109	1551	1125	0	0	0	0	0	877	8	0	0	3130	0	0	0	0	0	0	0	0	0	0	0	0	0	1390	0	0	0	0	0	0	0	0	0	0	0	0	0	0	0	0	0	0	0	0	
From rank 17 to: 	0	0	0	0	0	0	0	0	0	0	0	0	0	0	0	0	4121	0	0	1115	1989	1725	1319	1675	0	0	576	0	0	1509	1651	0	0	0	0	0	0	155	0	0	0	0	0	2512	0	0	0	0	0	0	0	0	0	0	0	0	0	0	0	0	0	0	0	0	
From rank 18 to: 	0	0	0	0	1578	1646	0	0	0	0	0	0	0	0	0	0	1549	0	0	3692	0	0	0	0	0	2898	0	0	0	0	0	0	0	0	0	0	0	0	0	0	0	0	0	0	0	0	0	0	0	0	0	0	0	0	0	0	0	0	0	0	0	0	0	0	
From rank 19 to: 	1212	1263	0	0	940	574	0	0	0	0	0	0	0	0	0	0	1126	1114	3675	0	0	0	1207	2440	0	1258	1937	129	0	0	0	0	0	0	0	0	0	0	0	0	0	0	0	0	0	0	0	0	0	0	0	0	0	0	0	0	0	0	0	0	0	0	0	0	
From rank 20 to: 	0	0	0	0	0	0	0	0	0	0	0	0	0	0	0	0	0	2034	0	0	0	4244	2376	0	0	0	194	380	0	0	2285	4223	0	0	967	552	0	59	0	0	0	0	0	355	0	0	1866	0	0	0	0	0	0	0	0	0	0	0	0	0	0	0	0	0	
From rank 21 to: 	0	0	0	0	0	0	0	0	0	0	0	0	0	0	0	0	0	1731	0	0	4246	0	672	1824	0	0	0	0	0	0	0	0	0	0	0	0	0	0	0	0	0	0	0	724	0	0	988	2533	0	0	0	0	0	0	0	0	0	0	0	0	0	0	0	0	
From rank 22 to: 	60	770	0	0	0	0	0	0	0	0	0	0	0	0	0	0	0	1319	0	1200	2368	678	0	5075	0	0	967	3823	0	0	0	0	0	0	0	0	0	0	0	0	0	0	0	0	0	0	0	0	0	0	0	0	0	0	0	0	0	0	0	0	0	0	0	0	
From rank 23 to: 	1631	661	0	0	0	0	0	0	0	0	0	0	0	0	0	0	0	1698	0	2502	0	1841	5071	0	0	0	0	0	0	0	0	0	0	0	0	0	0	0	0	0	0	0	0	0	0	0	0	0	0	0	0	0	0	0	0	0	0	0	0	0	0	0	0	0	
From rank 24 to: 	0	0	0	0	0	0	0	0	0	0	0	0	988	1245	1441	0	0	0	0	0	0	0	0	0	0	5418	2012	0	1664	0	8	0	0	0	0	0	0	0	0	0	0	0	0	0	0	0	0	0	0	0	0	0	0	0	0	0	0	0	0	0	0	0	0	0	
From rank 25 to: 	0	0	0	0	1189	0	0	0	0	0	0	0	569	428	312	0	877	0	2897	1192	0	0	0	0	5428	0	2409	0	482	1246	0	0	0	0	0	0	0	0	0	0	0	0	0	0	0	0	0	0	0	0	0	0	0	0	0	0	0	0	0	0	0	0	0	0	
From rank 26 to: 	0	153	0	0	34	0	0	0	0	0	0	0	0	0	1644	0	8	578	0	1948	185	0	969	0	1981	2405	0	5336	613	727	2225	339	0	0	0	0	0	0	0	0	0	0	0	0	0	0	0	0	0	0	0	0	0	0	0	0	0	0	0	0	0	0	0	0	
From rank 27 to: 	0	651	0	0	0	0	0	0	0	0	0	0	0	0	1735	0	0	0	0	156	377	0	3830	0	0	0	5329	0	0	0	0	2020	0	0	0	0	0	0	0	0	0	0	0	0	0	0	0	0	0	0	0	0	0	0	0	0	0	0	0	0	0	0	0	0	
From rank 28 to: 	0	0	0	0	0	0	0	0	0	0	0	0	0	0	0	0	0	0	0	0	0	0	0	0	1654	480	626	0	0	5233	3087	0	0	0	0	0	1270	0	0	0	0	0	0	0	0	0	0	0	0	0	0	0	0	0	0	0	0	0	0	0	0	0	0	0	
From rank 29 to: 	0	0	0	0	0	0	0	0	0	0	0	0	0	0	0	0	3147	1527	0	0	0	0	0	0	0	1254	733	0	5233	0	2751	0	0	0	0	0	292	1328	0	0	0	0	0	609	0	0	0	0	0	0	0	0	0	0	0	0	0	0	0	0	0	0	0	0	
From rank 30 to: 	0	0	0	0	0	0	0	0	0	0	0	0	0	0	0	0	0	1651	0	0	2295	0	0	0	6	0	2276	0	2980	2754	0	4320	0	0	863	0	1620	902	0	0	0	0	0	0	0	0	0	0	0	0	0	0	0	0	0	0	0	0	0	0	0	0	0	0	
From rank 31 to: 	0	0	0	0	0	0	0	0	0	0	0	0	0	0	0	0	0	0	0	0	4226	0	0	0	0	0	339	1993	0	0	4322	0	0	0	1270	1131	0	0	0	0	0	0	0	0	0	0	0	0	0	0	0	0	0	0	0	0	0	0	0	0	0	0	0	0	
From rank 32 to: 	0	0	0	0	0	0	0	0	0	0	0	0	0	0	0	0	0	0	0	0	0	0	0	0	0	0	0	0	0	0	0	0	0	5092	1005	1548	119	0	2395	851	0	0	0	0	0	0	0	0	0	0	0	0	0	0	0	0	435	2100	0	0	0	1026	0	0	
From rank 33 to: 	0	0	0	0	0	0	0	0	0	0	0	0	0	0	0	0	0	0	0	0	0	0	0	0	0	0	0	0	0	0	0	0	5116	0	981	1810	0	0	0	2585	246	571	0	0	0	5654	462	0	0	0	0	0	20	0	0	0	1747	553	0	0	0	0	0	0	
From rank 34 to: 	0	0	0	0	0	0	0	0	0	0	0	0	0	0	0	0	0	0	0	0	971	0	0	0	0	0	0	0	0	0	868	1282	1008	968	0	4541	2673	1971	0	1089	0	199	358	66	0	0	2696	0	0	0	0	0	0	0	0	0	0	0	0	0	0	0	0	0	
From rank 35 to: 	0	0	0	0	0	0	0	0	0	0	0	0	0	0	0	0	0	0	0	0	557	0	0	0	0	0	0	0	0	0	0	1125	1567	1829	4547	0	0	0	0	0	0	0	0	0	0	0	3035	0	0	0	0	0	0	0	0	0	0	0	0	0	0	0	0	0	
From rank 36 to: 	0	0	0	0	0	0	0	0	0	0	0	0	0	0	0	0	0	0	0	0	0	0	0	0	0	0	0	0	1252	288	1611	0	127	0	2692	0	0	4715	2000	611	0	0	0	0	0	0	0	0	0	0	0	0	0	0	0	0	0	0	0	0	0	0	0	0	
From rank 37 to: 	0	0	0	0	0	0	0	0	0	0	0	0	0	0	0	0	0	153	0	0	59	0	0	0	0	0	0	0	0	1341	904	0	0	0	1944	0	4717	0	285	996	0	494	3514	2064	0	0	350	0	0	0	0	0	0	0	0	0	0	0	0	0	0	0	0	0	
From rank 38 to: 	0	0	0	0	0	0	0	0	0	0	0	0	0	0	0	0	0	0	0	0	0	0	0	0	0	0	0	0	0	0	0	0	2395	0	0	0	1991	299	0	5259	0	0	0	0	0	0	0	0	0	0	0	0	0	0	0	0	0	0	0	0	672	1112	0	0	
From rank 39 to: 	0	0	0	0	0	0	0	0	0	0	0	0	0	0	0	0	0	0	0	0	0	0	0	0	0	0	0	0	0	0	0	0	900	2575	1107	0	619	1005	5225	0	3037	2779	46	0	0	0	0	0	0	0	0	0	0	0	0	0	437	0	0	0	1077	52	0	0	
From rank 40 to: 	0	0	0	0	0	0	0	0	0	0	0	0	0	0	0	0	0	0	0	0	0	0	0	0	0	0	0	0	0	0	0	0	0	223	0	0	0	0	0	3035	0	3613	0	0	1168	1349	0	0	0	2832	0	0	751	0	0	0	113	0	0	0	328	0	0	0	
From rank 41 to: 	0	0	0	0	0	0	0	0	0	0	0	0	0	0	0	0	0	0	0	0	0	0	0	0	0	0	0	0	0	0	0	0	0	577	199	0	0	491	0	2823	3628	0	3798	0	900	1332	263	0	0	0	0	0	0	0	0	0	0	0	0	0	0	0	0	0	
From rank 42 to: 	0	0	0	0	0	0	0	0	0	0	0	0	0	0	0	0	0	0	0	0	0	0	0	0	0	0	0	0	0	0	0	0	0	0	348	0	0	3533	0	46	0	3785	0	2788	144	127	2058	1863	0	0	0	0	0	0	0	0	0	0	0	0	0	0	0	0	
From rank 43 to: 	0	0	0	0	0	0	0	0	0	0	0	0	0	0	0	0	1391	2464	0	0	368	724	0	0	0	0	0	0	0	620	0	0	0	0	66	0	0	2051	0	0	0	0	2774	0	0	0	855	1297	0	0	0	0	0	0	0	0	0	0	0	0	0	0	0	0	
From rank 44 to: 	0	0	0	0	0	0	0	0	0	0	0	0	0	0	0	0	0	0	0	0	0	0	0	0	0	0	0	0	0	0	0	0	0	0	0	0	0	0	0	0	1168	899	147	0	0	6040	260	1405	0	0	0	0	503	1799	0	0	0	0	0	0	0	0	0	0	
From rank 45 to: 	0	0	0	0	0	0	0	0	0	0	0	0	0	0	0	0	0	0	0	0	0	0	0	0	0	0	0	0	0	0	0	0	0	5672	0	0	0	0	0	0	1377	1326	116	0	6042	0	1979	270	0	0	0	0	1210	963	0	0	988	0	0	0	0	0	0	0	
From rank 46 to: 	0	0	0	0	0	0	0	0	0	0	0	0	0	0	0	0	0	0	0	0	1888	979	0	0	0	0	0	0	0	0	0	0	0	466	2696	3026	0	349	0	0	0	250	2057	850	260	1962	0	5026	0	0	0	0	0	0	0	0	0	0	0	0	0	0	0	0	
From rank 47 to: 	0	0	0	0	0	0	0	0	0	0	0	0	0	0	0	0	0	0	0	0	0	2565	0	0	0	0	0	0	0	0	0	0	0	0	0	0	0	0	0	0	0	0	1865	1320	1397	262	5024	0	0	0	0	0	0	0	0	0	0	0	0	0	0	0	0	0	
From rank 48 to: 	0	0	0	0	0	0	0	0	0	0	0	0	0	0	0	0	0	0	0	0	0	0	0	0	0	0	0	0	0	0	0	0	0	0	0	0	0	0	0	0	0	0	0	0	0	0	0	0	0	2634	1341	1278	1542	0	589	912	0	0	180	0	1940	0	923	0	
From rank 49 to: 	0	0	0	0	0	0	0	0	0	0	0	0	0	0	0	0	0	0	0	0	0	0	0	0	0	0	0	0	0	0	0	0	0	0	0	0	0	0	0	0	2900	0	0	0	0	0	0	0	2656	0	0	0	3944	0	0	9	642	0	17	0	3216	0	0	0	
From rank 50 to: 	0	0	0	0	0	0	0	0	0	0	0	0	0	0	0	0	0	0	0	0	0	0	0	0	0	0	0	0	0	0	0	0	0	0	0	0	0	0	0	0	0	0	0	0	0	0	0	0	1353	0	0	5840	0	0	3015	265	0	0	0	0	0	0	0	0	
From rank 51 to: 	0	0	0	0	0	0	0	0	0	0	0	0	0	0	0	0	0	0	0	0	0	0	0	0	0	0	0	0	0	0	0	0	0	0	0	0	0	0	0	0	0	0	0	0	0	0	0	0	1283	0	5840	0	0	0	121	2474	0	0	839	0	0	0	5755	0	
From rank 52 to: 	0	0	0	0	0	0	0	0	0	0	0	0	0	0	0	0	0	0	0	0	0	0	0	0	0	0	0	0	0	0	0	0	0	20	0	0	0	0	0	0	750	0	0	0	512	1202	0	0	1542	3928	0	0	0	4699	773	699	3222	0	79	0	0	0	0	0	
From rank 53 to: 	0	0	0	0	0	0	0	0	0	0	0	0	0	0	0	0	0	0	0	0	0	0	0	0	0	0	0	0	0	0	0	0	0	0	0	0	0	0	0	0	0	0	0	0	1789	940	0	0	0	0	0	0	4713	0	1428	1251	2714	0	0	272	0	0	0	0	
From rank 54 to: 	0	0	0	0	0	0	0	0	0	0	0	0	0	0	0	0	0	0	0	0	0	0	0	0	0	0	0	0	0	0	0	0	0	0	0	0	0	0	0	0	0	0	0	0	0	0	0	0	588	0	3014	130	767	1442	0	5651	0	0	0	0	0	0	0	0	
From rank 55 to: 	0	0	0	0	0	0	0	0	0	0	0	0	0	0	0	0	0	0	0	0	0	0	0	0	0	0	0	0	0	0	0	0	0	0	0	0	0	0	0	0	0	0	0	0	0	0	0	0	921	9	272	2473	694	1237	5667	0	154	0	1852	3998	0	0	0	0	
From rank 56 to: 	0	0	0	0	0	0	0	0	0	0	0	0	0	0	0	0	0	0	0	0	0	0	0	0	0	0	0	0	0	0	0	0	435	1741	0	0	0	0	0	434	111	0	0	0	0	987	0	0	0	596	0	0	3202	2711	0	161	0	4879	1011	895	2771	343	0	0	
From rank 57 to: 	0	0	0	0	0	0	0	0	0	0	0	0	0	0	0	0	0	0	0	0	0	0	0	0	0	0	0	0	0	0	0	0	2075	547	0	0	0	0	0	0	0	0	0	0	0	0	0	0	0	0	0	0	0	0	0	0	4880	0	1758	1374	266	2231	0	0	
From rank 58 to: 	0	0	0	0	0	0	0	0	0	0	0	0	0	0	0	0	0	0	0	0	0	0	0	0	0	0	0	0	0	0	0	0	0	0	0	0	0	0	0	0	0	0	0	0	0	0	0	0	197	15	0	830	71	0	0	1851	1023	1773	0	5308	896	602	2747	3072	
From rank 59 to: 	0	0	0	0	0	0	0	0	0	0	0	0	0	0	0	0	0	0	0	0	0	0	0	0	0	0	0	0	0	0	0	0	0	0	0	0	0	0	0	0	0	0	0	0	0	0	0	0	0	0	0	0	0	284	0	3999	893	1365	5322	0	0	0	0	0	
From rank 60 to: 	0	0	0	0	0	0	0	0	0	0	0	0	0	0	0	0	0	0	0	0	0	0	0	0	0	0	0	0	0	0	0	0	0	0	0	0	0	0	662	1067	319	0	0	0	0	0	0	0	1946	3166	0	0	0	0	0	0	2771	262	909	0	0	4679	1580	294	
From rank 61 to: 	0	0	0	0	0	0	0	0	0	0	0	0	0	0	0	0	0	0	0	0	0	0	0	0	0	0	0	0	0	0	0	0	1031	0	0	0	0	0	1111	59	0	0	0	0	0	0	0	0	0	0	0	0	0	0	0	0	355	2231	604	0	4657	0	246	1500	
From rank 62 to: 	0	0	0	0	0	0	0	0	0	0	0	0	0	0	0	0	0	0	0	0	0	0	0	0	0	0	0	0	0	0	0	0	0	0	0	0	0	0	0	0	0	0	0	0	0	0	0	0	945	0	0	5741	0	0	0	0	0	0	2771	0	1579	245	0	6099	
From rank 63 to: 	0	0	0	0	0	0	0	0	0	0	0	0	0	0	0	0	0	0	0	0	0	0	0	0	0	0	0	0	0	0	0	0	0	0	0	0	0	0	0	0	0	0	0	0	0	0	0	0	0	0	0	0	0	0	0	0	0	0	3088	0	305	1488	6098	0	

Edge-cut for node partition: 21398

loadb
After loadbalancing process 9 has 168421 cells.
After loadbalancing process 20 has 167536 cells.
After loadbalancing process 3 has 167772 cells.
After loadbalancing process 47 has 168685 cells.
After loadbalancing process 4 has 172689 cells.
After loadbalancing process 11 has 173299 cells.
After loadbalancing process 16 has 165227 cells.
After loadbalancing process 38 has 168034 cells.
After loadbalancing process 41 has 170263 cells.
After loadbalancing process 36 has 167613 cells.
After loadbalancing process 23 has 169653 cells.
After loadbalancing process 15 has 171154 cells.
After loadbalancing process 35 has 168899 cells.
After loadbalancing process 49 has 169649 cells.
After loadbalancing process 1 has 174754 cells.
After loadbalancing process 33 has 175985 cells.
After loadbalancing process 61 has 168045 cells.
After loadbalancing process 21 has 168959 cells.
After loadbalancing process 39 has 175108 cells.
After loadbalancing process 26 has 173666 cells.
After loadbalancing process 32 has 168442 cells.
After loadbalancing process 22 has 168469 cells.
After loadbalancing process 0 has 169225 cells.
After loadbalancing process 55 has 173527 cells.
After loadbalancing process 46 has 176055 cells.
After loadbalancing process 7 has 175835 cells.
After loadbalancing process 51 has 172559 cells.
After loadbalancing process 58 has 174636 cells.
After loadbalancing process 6 has 167586 cells.
After loadbalancing process 45 has 176188 cells.
After loadbalancing process 28 has 170484 cells.
After loadbalancing process 14 has 176540 cells.
After loadbalancing process 5 has 169142 cells.
After loadbalancing process 12 has 168108 cells.
After loadbalancing process 30 has 173904 cells.
After loadbalancing process 13 has 173693 cells.
After loadbalancing process 18 has 169547 cells.
After loadbalancing process 29 has 173117 cells.
After loadbalancing process 27 has 170343 cells.
After loadbalancing process 10 has 169659 cells.
After loadbalancing process 24 has 168227 cells.
After loadbalancing process 19 has 173119 cells.
After loadbalancing process 2 has 170820 cells.
After loadbalancing process 25 has 173288 cells.
After loadbalancing process 17 has 174602 cells.
After loadbalancing process 59 has 168113 cells.
After loadbalancing process 8 has 175275 cells.
After loadbalancing process 40 has 175779 cells.
After loadbalancing process 31 has 169530 cells.
After loadbalancing process 63 has 167225 cells.
After loadbalancing process 54 has 167851 cells.
After loadbalancing process 43 has 168864 cells.
After loadbalancing process 53 has 169359 cells.
After loadbalancing process 57 has 169381 cells.
After loadbalancing process 44 has 172513 cells.
After loadbalancing process 56 has 168598 cells.
After loadbalancing process 62 has 173625 cells.
After loadbalancing process 50 has 166708 cells.
After loadbalancing process 37 has 173067 cells.
After loadbalancing process 42 has 170948 cells.
After loadbalancing process 52 has 175392 cells.
After loadbalancing process 60 has 175908 cells.
After loadbalancing process 48 has 169025 cells.
After loadbalancing process 34 has 174935 cells.
			Rank 0	Rank 1	Rank 2	Rank 3	Rank 4	Rank 5	Rank 6	Rank 7	Rank 8	Rank 9	Rank 10	Rank 11	Rank 12	Rank 13	Rank 14	Rank 15	Rank 16	Rank 17	Rank 18	Rank 19	Rank 20	Rank 21	Rank 22	Rank 23	Rank 24	Rank 25	Rank 26	Rank 27	Rank 28	Rank 29	Rank 30	Rank 31	Rank 32	Rank 33	Rank 34	Rank 35	Rank 36	Rank 37	Rank 38	Rank 39	Rank 40	Rank 41	Rank 42	Rank 43	Rank 44	Rank 45	Rank 46	Rank 47	Rank 48	Rank 49	Rank 50	Rank 51	Rank 52	Rank 53	Rank 54	Rank 55	Rank 56	Rank 57	Rank 58	Rank 59	Rank 60	Rank 61	Rank 62	Rank 63	
Rank 0's ghost cells:	0	5097	0	1786	0	2338	0	597	278	0	0	0	0	0	0	0	0	0	0	1200	0	0	0	1629	0	0	0	0	0	0	0	0	0	0	0	0	0	0	0	0	0	0	0	0	56	0	0	0	0	0	0	0	0	0	0	0	0	0	0	0	0	0	0	0	
Rank 1's ghost cells:	5077	0	0	567	982	260	0	869	1471	21	0	0	0	0	0	2766	0	0	0	1252	0	0	0	672	0	0	0	630	3002	0	0	0	0	0	0	0	0	0	0	0	0	0	0	0	775	0	0	0	0	0	0	0	153	0	0	0	0	0	0	0	0	0	0	0	
Rank 2's ghost cells:	0	0	0	0	0	0	0	0	0	0	0	0	0	0	435	0	0	0	119	0	0	0	0	0	0	0	0	0	0	0	0	0	0	5092	1005	1548	0	0	2395	851	0	0	0	0	0	0	0	0	0	0	0	0	0	0	0	0	0	2100	0	0	0	1026	0	0	
Rank 3's ghost cells:	1787	570	0	0	5928	0	0	3228	0	0	0	0	0	0	0	0	0	0	0	0	0	0	0	0	0	0	0	0	0	0	0	0	0	0	0	0	0	0	0	0	0	0	0	0	0	0	0	0	0	0	0	0	0	0	0	0	0	0	0	0	0	0	0	0	
Rank 4's ghost cells:	0	990	0	5930	0	0	0	3149	0	2944	0	100	0	0	0	384	2944	0	0	0	0	0	0	0	0	0	0	0	0	0	0	0	0	0	0	0	0	0	0	0	0	0	0	0	0	0	0	0	0	0	0	0	0	0	0	0	0	0	0	0	0	0	0	0	
Rank 5's ghost cells:	2314	264	0	0	0	0	0	1658	4530	0	0	0	1928	0	0	0	0	0	0	566	0	0	0	0	0	0	0	0	0	0	0	0	0	0	0	0	1634	0	0	0	0	0	0	0	0	0	0	0	0	0	0	0	0	0	0	0	0	0	0	0	0	0	0	0	
Rank 6's ghost cells:	0	0	0	0	0	0	0	0	0	0	0	0	0	0	0	0	0	0	0	0	0	0	0	0	0	0	1542	0	0	0	1940	0	0	0	0	0	0	0	0	0	0	0	0	0	0	0	0	0	0	2634	1341	1278	0	0	589	912	0	0	180	0	0	0	923	0	
Rank 7's ghost cells:	594	890	0	3177	3150	1656	0	0	1082	244	0	1962	5064	734	0	750	266	0	0	0	0	0	0	0	0	0	0	0	16	0	0	0	0	0	0	0	0	0	0	0	0	0	0	0	0	0	0	0	0	0	0	0	0	0	0	0	0	0	0	0	0	0	0	0	
Rank 8's ghost cells:	265	1471	0	0	0	4527	0	1066	0	0	0	157	1162	2585	0	9	0	0	0	959	0	0	0	0	3217	1204	0	0	795	0	0	0	0	0	0	0	1578	0	0	0	0	0	0	0	0	0	0	0	0	0	0	0	34	0	0	0	0	0	0	0	0	0	0	0	
Rank 9's ghost cells:	0	25	0	0	2956	0	0	231	0	0	0	1463	0	0	0	3720	2250	0	0	0	1522	0	0	0	0	0	0	0	0	0	0	0	0	0	0	0	0	0	0	0	0	0	0	0	0	0	0	0	0	0	0	0	0	0	0	0	0	0	0	0	0	0	0	0	
Rank 10's ghost cells:	0	0	0	0	0	0	0	0	0	0	0	0	0	0	113	0	0	0	0	0	0	0	1168	0	0	0	751	0	0	0	328	0	0	223	0	0	0	0	0	3035	0	3613	0	0	0	1349	0	0	0	2832	0	0	0	0	0	0	0	0	0	0	0	0	0	0	
Rank 11's ghost cells:	0	0	0	0	100	0	0	1974	158	1462	0	0	3468	1203	0	236	1635	0	0	0	5592	0	0	0	1217	0	0	0	0	0	0	0	0	0	0	0	0	0	0	0	0	0	0	0	0	0	0	0	0	0	0	0	0	0	0	0	0	0	0	0	0	0	0	0	
Rank 12's ghost cells:	0	0	0	0	0	1930	0	5089	1164	0	0	3497	0	177	0	0	0	0	0	0	0	0	0	0	0	0	0	0	0	0	0	0	0	0	0	0	0	0	0	0	0	0	0	0	0	0	0	0	0	0	0	0	0	0	0	0	0	0	0	0	0	0	0	0	
Rank 13's ghost cells:	0	0	0	0	0	0	0	743	2630	0	0	1212	179	0	0	3557	0	0	0	0	804	0	0	0	4723	434	0	0	1901	0	0	0	0	0	0	0	0	0	0	0	0	0	0	0	0	0	0	0	1264	0	0	0	0	0	0	0	0	0	0	0	0	0	0	0	
Rank 14's ghost cells:	0	0	435	0	0	0	0	0	0	0	111	0	0	0	0	0	0	0	0	0	0	0	0	0	0	0	3202	0	0	0	2771	0	0	1741	0	0	0	0	0	434	0	0	0	0	0	987	0	0	0	596	0	0	0	2711	0	161	0	4879	1011	895	0	343	0	0	
Rank 15's ghost cells:	0	2765	0	0	409	0	0	717	9	3715	0	238	0	3555	0	0	0	0	0	0	169	0	0	0	0	0	0	0	3325	0	0	0	0	0	0	0	0	0	0	0	0	0	0	0	0	0	0	0	0	0	0	0	0	0	0	0	0	0	0	0	0	0	0	0	
Rank 16's ghost cells:	0	0	0	0	2930	0	0	267	0	2257	0	1650	0	0	0	0	0	0	0	0	1879	0	0	0	0	0	0	0	0	0	0	0	0	0	0	0	0	0	0	0	0	0	0	0	0	0	0	0	0	0	0	0	0	0	0	0	0	0	0	0	0	0	0	0	
Rank 17's ghost cells:	0	0	0	0	0	0	0	0	0	0	0	0	0	0	0	0	0	0	0	1115	0	1725	0	1675	0	0	0	0	0	1509	0	0	4121	0	0	0	0	155	0	0	1989	0	0	2512	1319	0	0	0	0	0	0	0	576	0	0	0	0	0	0	0	1651	0	0	0	
Rank 18's ghost cells:	0	0	127	0	0	0	0	0	0	0	0	0	0	0	0	0	0	0	0	0	0	0	0	0	0	0	0	0	0	288	0	0	0	0	2692	0	0	4715	2000	611	0	0	0	0	0	0	0	0	0	0	0	0	0	0	0	0	1252	0	0	0	1611	0	0	0	
Rank 19's ghost cells:	1212	1263	0	0	0	574	0	0	940	0	0	0	0	0	0	0	0	1114	0	0	0	0	0	2440	0	1258	0	129	0	0	0	0	1126	0	0	0	3675	0	0	0	0	0	0	0	1207	0	0	0	0	0	0	0	1937	0	0	0	0	0	0	0	0	0	0	0	
Rank 20's ghost cells:	0	0	0	0	0	0	0	0	0	1519	0	5593	0	823	0	168	1908	0	0	0	0	0	0	0	1271	0	0	0	0	0	0	0	0	0	0	0	0	0	0	0	0	0	0	0	0	0	0	0	0	0	0	0	0	0	0	0	0	0	0	0	0	0	0	0	
Rank 21's ghost cells:	0	0	0	0	0	0	0	0	0	0	0	0	0	0	0	0	0	1731	0	0	0	0	0	1824	0	0	0	0	0	0	0	0	0	0	0	0	0	0	0	0	4246	0	0	724	672	0	988	2533	0	0	0	0	0	0	0	0	0	0	0	0	0	0	0	0	
Rank 22's ghost cells:	0	0	0	0	0	0	0	0	0	0	1168	0	0	0	0	0	0	0	0	0	0	0	0	0	0	0	503	0	0	0	0	0	0	0	0	0	0	0	0	0	0	899	147	0	0	6040	260	1405	0	0	0	0	0	1799	0	0	0	0	0	0	0	0	0	0	
Rank 23's ghost cells:	1631	661	0	0	0	0	0	0	0	0	0	0	0	0	0	0	0	1698	0	2502	0	1841	0	0	0	0	0	0	0	0	0	0	0	0	0	0	0	0	0	0	0	0	0	0	5071	0	0	0	0	0	0	0	0	0	0	0	0	0	0	0	0	0	0	0	
Rank 24's ghost cells:	0	0	0	0	0	0	0	0	3217	0	0	1229	0	4717	0	0	0	0	0	0	1278	0	0	0	0	557	0	0	0	0	0	0	0	0	0	0	0	0	0	0	0	0	0	0	0	0	0	0	981	0	0	0	0	0	0	0	0	0	0	0	0	0	0	0	
Rank 25's ghost cells:	0	0	0	0	0	0	0	0	1189	0	0	0	0	428	0	0	0	0	0	1192	0	0	0	0	569	0	0	0	312	1246	0	0	877	0	0	0	2897	0	0	0	0	0	0	0	0	0	0	0	5428	0	0	0	2409	0	0	0	482	0	0	0	0	0	0	0	
Rank 26's ghost cells:	0	0	0	0	0	0	1542	0	0	0	750	0	0	0	3222	0	0	0	0	0	0	0	512	0	0	0	0	0	0	0	0	0	0	20	0	0	0	0	0	0	0	0	0	0	0	1202	0	0	0	3928	0	0	0	4699	773	699	0	0	79	0	0	0	0	0	
Rank 27's ghost cells:	0	651	0	0	0	0	0	0	0	0	0	0	0	0	0	0	0	0	0	156	0	0	0	0	0	0	0	0	1735	0	0	2020	0	0	0	0	0	0	0	0	377	0	0	0	3830	0	0	0	0	0	0	0	5329	0	0	0	0	0	0	0	0	0	0	0	
Rank 28's ghost cells:	0	3039	0	0	0	0	0	14	841	0	0	0	0	1932	0	3333	0	0	0	0	0	0	0	0	0	312	0	1734	0	0	0	0	0	0	0	0	0	0	0	0	0	0	0	0	0	0	0	0	1421	0	0	0	1607	0	0	0	0	0	0	0	0	0	0	0	
Rank 29's ghost cells:	0	0	0	0	0	0	0	0	0	0	0	0	0	0	0	0	0	1527	292	0	0	0	0	0	0	1254	0	0	0	0	0	0	3147	0	0	0	0	1328	0	0	0	0	0	609	0	0	0	0	0	0	0	0	733	0	0	0	5233	0	0	0	2751	0	0	0	
Rank 30's ghost cells:	0	0	0	0	0	0	1946	0	0	0	319	0	0	0	2771	0	0	0	0	0	0	0	0	0	0	0	0	0	0	0	0	0	0	0	0	0	0	0	662	1067	0	0	0	0	0	0	0	0	0	3166	0	0	0	0	0	0	0	262	909	0	0	4679	1580	294	
Rank 31's ghost cells:	0	0	0	0	0	0	0	0	0	0	0	0	0	0	0	0	0	0	0	0	0	0	0	0	0	0	0	1993	0	0	0	0	0	0	1270	1131	0	0	0	0	4226	0	0	0	0	0	0	0	0	0	0	0	339	0	0	0	0	0	0	0	4322	0	0	0	
Rank 32's ghost cells:	0	0	0	0	0	0	0	0	0	0	0	0	0	0	0	0	0	4109	0	1125	0	0	0	0	0	877	0	0	0	3130	0	0	0	0	0	0	1551	0	0	0	0	0	0	1390	0	0	0	0	0	0	0	0	8	0	0	0	0	0	0	0	0	0	0	0	
Rank 33's ghost cells:	0	0	5116	0	0	0	0	0	0	0	246	0	0	0	1747	0	0	0	0	0	0	0	0	0	0	0	20	0	0	0	0	0	0	0	981	1810	0	0	0	2585	0	571	0	0	0	5654	462	0	0	0	0	0	0	0	0	0	0	553	0	0	0	0	0	0	
Rank 34's ghost cells:	0	0	1008	0	0	0	0	0	0	0	0	0	0	0	0	0	0	0	2673	0	0	0	0	0	0	0	0	0	0	0	0	1282	0	968	0	4541	0	1971	0	1089	971	199	358	66	0	0	2696	0	0	0	0	0	0	0	0	0	0	0	0	0	868	0	0	0	
Rank 35's ghost cells:	0	0	1567	0	0	0	0	0	0	0	0	0	0	0	0	0	0	0	0	0	0	0	0	0	0	0	0	0	0	0	0	1125	0	1829	4547	0	0	0	0	0	557	0	0	0	0	0	3035	0	0	0	0	0	0	0	0	0	0	0	0	0	0	0	0	0	
Rank 36's ghost cells:	0	0	0	0	0	1646	0	0	1578	0	0	0	0	0	0	0	0	0	0	3692	0	0	0	0	0	2898	0	0	0	0	0	0	1549	0	0	0	0	0	0	0	0	0	0	0	0	0	0	0	0	0	0	0	0	0	0	0	0	0	0	0	0	0	0	0	
Rank 37's ghost cells:	0	0	0	0	0	0	0	0	0	0	0	0	0	0	0	0	0	153	4717	0	0	0	0	0	0	0	0	0	0	1341	0	0	0	0	1944	0	0	0	285	996	59	494	3514	2064	0	0	350	0	0	0	0	0	0	0	0	0	0	0	0	0	904	0	0	0	
Rank 38's ghost cells:	0	0	2395	0	0	0	0	0	0	0	0	0	0	0	0	0	0	0	1991	0	0	0	0	0	0	0	0	0	0	0	672	0	0	0	0	0	0	299	0	5259	0	0	0	0	0	0	0	0	0	0	0	0	0	0	0	0	0	0	0	0	0	1112	0	0	
Rank 39's ghost cells:	0	0	900	0	0	0	0	0	0	0	3037	0	0	0	437	0	0	0	619	0	0	0	0	0	0	0	0	0	0	0	1077	0	0	2575	1107	0	0	1005	5225	0	0	2779	46	0	0	0	0	0	0	0	0	0	0	0	0	0	0	0	0	0	0	52	0	0	
Rank 40's ghost cells:	0	0	0	0	0	0	0	0	0	0	0	0	0	0	0	0	0	2034	0	0	0	4244	0	0	0	0	0	380	0	0	0	4223	0	0	967	552	0	59	0	0	0	0	0	355	2376	0	1866	0	0	0	0	0	194	0	0	0	0	0	0	0	2285	0	0	0	
Rank 41's ghost cells:	0	0	0	0	0	0	0	0	0	0	3628	0	0	0	0	0	0	0	0	0	0	0	900	0	0	0	0	0	0	0	0	0	0	577	199	0	0	491	0	2823	0	0	3798	0	0	1332	263	0	0	0	0	0	0	0	0	0	0	0	0	0	0	0	0	0	
Rank 42's ghost cells:	0	0	0	0	0	0	0	0	0	0	0	0	0	0	0	0	0	0	0	0	0	0	144	0	0	0	0	0	0	0	0	0	0	0	348	0	0	3533	0	46	0	3785	0	2788	0	127	2058	1863	0	0	0	0	0	0	0	0	0	0	0	0	0	0	0	0	
Rank 43's ghost cells:	0	0	0	0	0	0	0	0	0	0	0	0	0	0	0	0	0	2464	0	0	0	724	0	0	0	0	0	0	0	620	0	0	1391	0	66	0	0	2051	0	0	368	0	2774	0	0	0	855	1297	0	0	0	0	0	0	0	0	0	0	0	0	0	0	0	0	
Rank 44's ghost cells:	60	770	0	0	0	0	0	0	0	0	0	0	0	0	0	0	0	1319	0	1200	0	678	0	5075	0	0	0	3823	0	0	0	0	0	0	0	0	0	0	0	0	2368	0	0	0	0	0	0	0	0	0	0	0	967	0	0	0	0	0	0	0	0	0	0	0	
Rank 45's ghost cells:	0	0	0	0	0	0	0	0	0	0	1377	0	0	0	988	0	0	0	0	0	0	0	6042	0	0	0	1210	0	0	0	0	0	0	5672	0	0	0	0	0	0	0	1326	116	0	0	0	1979	270	0	0	0	0	0	963	0	0	0	0	0	0	0	0	0	0	
Rank 46's ghost cells:	0	0	0	0	0	0	0	0	0	0	0	0	0	0	0	0	0	0	0	0	0	979	260	0	0	0	0	0	0	0	0	0	0	466	2696	3026	0	349	0	0	1888	250	2057	850	0	1962	0	5026	0	0	0	0	0	0	0	0	0	0	0	0	0	0	0	0	
Rank 47's ghost cells:	0	0	0	0	0	0	0	0	0	0	0	0	0	0	0	0	0	0	0	0	0	2565	1397	0	0	0	0	0	0	0	0	0	0	0	0	0	0	0	0	0	0	0	1865	1320	0	262	5024	0	0	0	0	0	0	0	0	0	0	0	0	0	0	0	0	0	
Rank 48's ghost cells:	0	0	0	0	0	0	0	0	0	0	0	0	0	1245	0	0	0	0	0	0	0	0	0	0	988	5418	0	0	1441	0	0	0	0	0	0	0	0	0	0	0	0	0	0	0	0	0	0	0	0	0	0	0	2012	0	0	0	1664	0	0	0	8	0	0	0	
Rank 49's ghost cells:	0	0	0	0	0	0	2656	0	0	0	2900	0	0	0	642	0	0	0	0	0	0	0	0	0	0	0	3944	0	0	0	3216	0	0	0	0	0	0	0	0	0	0	0	0	0	0	0	0	0	0	0	0	0	0	0	0	9	0	0	17	0	0	0	0	0	
Rank 50's ghost cells:	0	0	0	0	0	0	1353	0	0	0	0	0	0	0	0	0	0	0	0	0	0	0	0	0	0	0	0	0	0	0	0	0	0	0	0	0	0	0	0	0	0	0	0	0	0	0	0	0	0	0	0	5840	0	0	3015	265	0	0	0	0	0	0	0	0	
Rank 51's ghost cells:	0	0	0	0	0	0	1283	0	0	0	0	0	0	0	0	0	0	0	0	0	0	0	0	0	0	0	0	0	0	0	0	0	0	0	0	0	0	0	0	0	0	0	0	0	0	0	0	0	0	0	5840	0	0	0	121	2474	0	0	839	0	0	0	5755	0	
Rank 52's ghost cells:	0	153	0	0	0	0	0	0	34	0	0	0	0	0	0	0	0	578	0	1948	0	0	0	0	0	2405	0	5336	1644	727	0	339	8	0	0	0	0	0	0	0	185	0	0	0	969	0	0	0	1981	0	0	0	0	0	0	0	613	0	0	0	2225	0	0	0	
Rank 53's ghost cells:	0	0	0	0	0	0	0	0	0	0	0	0	0	0	2714	0	0	0	0	0	0	0	1789	0	0	0	4713	0	0	0	0	0	0	0	0	0	0	0	0	0	0	0	0	0	0	940	0	0	0	0	0	0	0	0	1428	1251	0	0	0	272	0	0	0	0	
Rank 54's ghost cells:	0	0	0	0	0	0	588	0	0	0	0	0	0	0	0	0	0	0	0	0	0	0	0	0	0	0	767	0	0	0	0	0	0	0	0	0	0	0	0	0	0	0	0	0	0	0	0	0	0	0	3014	130	0	1442	0	5651	0	0	0	0	0	0	0	0	
Rank 55's ghost cells:	0	0	0	0	0	0	921	0	0	0	0	0	0	0	154	0	0	0	0	0	0	0	0	0	0	0	694	0	0	0	0	0	0	0	0	0	0	0	0	0	0	0	0	0	0	0	0	0	0	9	272	2473	0	1237	5667	0	0	0	1852	3998	0	0	0	0	
Rank 56's ghost cells:	0	0	0	0	0	0	0	0	0	0	0	0	0	0	0	0	0	0	1270	0	0	0	0	0	0	480	0	0	0	5233	0	0	0	0	0	0	0	0	0	0	0	0	0	0	0	0	0	0	1654	0	0	0	626	0	0	0	0	0	0	0	3087	0	0	0	
Rank 57's ghost cells:	0	0	2075	0	0	0	0	0	0	0	0	0	0	0	4880	0	0	0	0	0	0	0	0	0	0	0	0	0	0	0	266	0	0	547	0	0	0	0	0	0	0	0	0	0	0	0	0	0	0	0	0	0	0	0	0	0	0	0	1758	1374	0	2231	0	0	
Rank 58's ghost cells:	0	0	0	0	0	0	197	0	0	0	0	0	0	0	1023	0	0	0	0	0	0	0	0	0	0	0	71	0	0	0	896	0	0	0	0	0	0	0	0	0	0	0	0	0	0	0	0	0	0	15	0	830	0	0	0	1851	0	1773	0	5308	0	602	2747	3072	
Rank 59's ghost cells:	0	0	0	0	0	0	0	0	0	0	0	0	0	0	893	0	0	0	0	0	0	0	0	0	0	0	0	0	0	0	0	0	0	0	0	0	0	0	0	0	0	0	0	0	0	0	0	0	0	0	0	0	0	284	0	3999	0	1365	5322	0	0	0	0	0	
Rank 60's ghost cells:	0	0	0	0	0	0	0	0	0	0	0	0	0	0	0	0	0	1651	1620	0	0	0	0	0	0	0	0	0	0	2754	0	4320	0	0	863	0	0	902	0	0	2295	0	0	0	0	0	0	0	6	0	0	0	2276	0	0	0	2980	0	0	0	0	0	0	0	
Rank 61's ghost cells:	0	0	1031	0	0	0	0	0	0	0	0	0	0	0	355	0	0	0	0	0	0	0	0	0	0	0	0	0	0	0	4657	0	0	0	0	0	0	0	1111	59	0	0	0	0	0	0	0	0	0	0	0	0	0	0	0	0	0	2231	604	0	0	0	246	1500	
Rank 62's ghost cells:	0	0	0	0	0	0	945	0	0	0	0	0	0	0	0	0	0	0	0	0	0	0	0	0	0	0	0	0	0	0	1579	0	0	0	0	0	0	0	0	0	0	0	0	0	0	0	0	0	0	0	0	5741	0	0	0	0	0	0	2771	0	0	245	0	6099	
Rank 63's ghost cells:	0	0	0	0	0	0	0	0	0	0	0	0	0	0	0	0	0	0	0	0	0	0	0	0	0	0	0	0	0	0	305	0	0	0	0	0	0	0	0	0	0	0	0	0	0	0	0	0	0	0	0	0	0	0	0	0	0	0	3088	0	0	1488	6098	0	
=== CGSolver
 Iter          Defect            Rate
    0          655.439
    1          143.199         0.218478
    2          83.0373         0.579872
    3          58.7439         0.707441
    4           49.261         0.838571
    5          45.4049         0.921721
    6          38.2048         0.841426
    7          31.8936         0.834805
    8          31.0282         0.972866
    9           27.342         0.881199
   10           23.321         0.852936
   11           23.498          1.00759
   12           21.914         0.932592
   13          18.8983         0.862383
   14          19.2771          1.02005
   15          17.9503         0.931174
   16          15.7452         0.877154
   17           15.906          1.01021
   18           14.924         0.938263
   19          13.4884          0.90381
   20          13.6278          1.01033
   21          12.6087         0.925216
   22          11.7234         0.929784
   23          11.8983          1.01492
   24           10.966         0.921649
   25          10.2759         0.937063
   26          10.4921          1.02105
   27          9.73311         0.927659
   28          9.13215         0.938256
   29           9.4057          1.02995
   30          8.96529         0.953177
   31          8.87739         0.990196
   32          9.83622          1.10801
   33          10.6223          1.07991
   34          11.7703          1.10808
   35          12.4363          1.05658
   36          10.3429         0.831671
   37          7.97075         0.770648
   38          6.57377         0.824737
   39          5.50967         0.838129
   40          4.92053         0.893071
   41          4.47963         0.910395
   42          3.91109         0.873083
   43          3.46989         0.887193
   44          3.02947         0.873074
   45          2.64141         0.871906
   46          2.34664         0.888404
   47          2.00638         0.855003
   48          1.75333         0.873875
   49          1.58223         0.902416
   50          1.42582         0.901142
   51          1.31163         0.919919
   52          1.21622         0.927255
   53          1.14444         0.940979
   54          1.05974          0.92599
   55         0.999183          0.94286
   56         0.944113         0.944885
   57         0.876286         0.928158
   58         0.862218         0.983946
   59         0.803442         0.931832
   60         0.781444          0.97262
   61         0.777373          0.99479
   62         0.741179         0.953441
   63         0.738202         0.995984
   64         0.716155         0.970133
   65         0.686902         0.959152
   66         0.649634         0.945745
   67         0.603209         0.928537
   68         0.523927         0.868567
   69         0.457111         0.872471
   70         0.373867         0.817891
   71         0.306469         0.819728
   72         0.266202         0.868611
   73         0.240814         0.904627
   74         0.236544         0.982271
   75         0.247005          1.04422
   76         0.247112          1.00043
   77         0.242123         0.979813
   78         0.236466         0.976633
   79         0.222952          0.94285
   80         0.208231         0.933974
   81         0.189106         0.908155
   82          0.16583         0.876915
   83         0.150919         0.910081
   84         0.140035         0.927887
   85          0.12971         0.926267
   86         0.123016         0.948395
   87         0.117489         0.955064
   88         0.110759         0.942725
   89         0.106775          0.96403
   90         0.100425         0.940529
   91        0.0949328         0.945307
   92        0.0914397         0.963204
   93        0.0863634         0.944484
   94        0.0802574         0.929299
   95        0.0753129         0.938392
   96        0.0688671         0.914413
   97        0.0625328         0.908022
=== rate=0.908976, T=41.251, TIT=0.425268, IT=97

 Elapsed time: 41.251
Rank 0: Matrix-vector product took 0.138695 seconds
Rank 1: Matrix-vector product took 0.141724 seconds
Rank 2: Matrix-vector product took 0.138355 seconds
Rank 3: Matrix-vector product took 0.136387 seconds
Rank 4: Matrix-vector product took 0.140699 seconds
Rank 5: Matrix-vector product took 0.138437 seconds
Rank 6: Matrix-vector product took 0.137207 seconds
Rank 7: Matrix-vector product took 0.143211 seconds
Rank 8: Matrix-vector product took 0.145162 seconds
Rank 9: Matrix-vector product took 0.13815 seconds
Rank 10: Matrix-vector product took 0.138593 seconds
Rank 11: Matrix-vector product took 0.141981 seconds
Rank 12: Matrix-vector product took 0.137639 seconds
Rank 13: Matrix-vector product took 0.141341 seconds
Rank 14: Matrix-vector product took 0.144786 seconds
Rank 15: Matrix-vector product took 0.14246 seconds
Rank 16: Matrix-vector product took 0.135435 seconds
Rank 17: Matrix-vector product took 0.143901 seconds
Rank 18: Matrix-vector product took 0.138414 seconds
Rank 19: Matrix-vector product took 0.140634 seconds
Rank 20: Matrix-vector product took 0.136771 seconds
Rank 21: Matrix-vector product took 0.138175 seconds
Rank 22: Matrix-vector product took 0.137599 seconds
Rank 23: Matrix-vector product took 0.138077 seconds
Rank 24: Matrix-vector product took 0.137806 seconds
Rank 25: Matrix-vector product took 0.141571 seconds
Rank 26: Matrix-vector product took 0.142433 seconds
Rank 27: Matrix-vector product took 0.138283 seconds
Rank 28: Matrix-vector product took 0.138803 seconds
Rank 29: Matrix-vector product took 0.14129 seconds
Rank 30: Matrix-vector product took 0.141509 seconds
Rank 31: Matrix-vector product took 0.137912 seconds
Rank 32: Matrix-vector product took 0.138444 seconds
Rank 33: Matrix-vector product took 0.142732 seconds
Rank 34: Matrix-vector product took 0.143087 seconds
Rank 35: Matrix-vector product took 0.13784 seconds
Rank 36: Matrix-vector product took 0.136968 seconds
Rank 37: Matrix-vector product took 0.140812 seconds
Rank 38: Matrix-vector product took 0.137392 seconds
Rank 39: Matrix-vector product took 0.143221 seconds
Rank 40: Matrix-vector product took 0.142647 seconds
Rank 41: Matrix-vector product took 0.139102 seconds
Rank 42: Matrix-vector product took 0.139649 seconds
Rank 43: Matrix-vector product took 0.139174 seconds
Rank 44: Matrix-vector product took 0.14207 seconds
Rank 45: Matrix-vector product took 0.143371 seconds
Rank 46: Matrix-vector product took 0.143653 seconds
Rank 47: Matrix-vector product took 0.137276 seconds
Rank 48: Matrix-vector product took 0.137021 seconds
Rank 49: Matrix-vector product took 0.138104 seconds
Rank 50: Matrix-vector product took 0.138575 seconds
Rank 51: Matrix-vector product took 0.140621 seconds
Rank 52: Matrix-vector product took 0.142977 seconds
Rank 53: Matrix-vector product took 0.137471 seconds
Rank 54: Matrix-vector product took 0.136328 seconds
Rank 55: Matrix-vector product took 0.142052 seconds
Rank 56: Matrix-vector product took 0.139238 seconds
Rank 57: Matrix-vector product took 0.13861 seconds
Rank 58: Matrix-vector product took 0.142129 seconds
Rank 59: Matrix-vector product took 0.13775 seconds
Rank 60: Matrix-vector product took 0.143725 seconds
Rank 61: Matrix-vector product took 0.136817 seconds
Rank 62: Matrix-vector product took 0.141306 seconds
Rank 63: Matrix-vector product took 0.137811 seconds
Average time for Matrix-vector product is 0.139866 seconds

Rank 0: copyOwnerToAll took 0.00203013 seconds
Rank 1: copyOwnerToAll took 0.00203013 seconds
Rank 2: copyOwnerToAll took 0.00203013 seconds
Rank 3: copyOwnerToAll took 0.00203013 seconds
Rank 4: copyOwnerToAll took 0.00203013 seconds
Rank 5: copyOwnerToAll took 0.00203013 seconds
Rank 6: copyOwnerToAll took 0.00203013 seconds
Rank 7: copyOwnerToAll took 0.00203013 seconds
Rank 8: copyOwnerToAll took 0.00203013 seconds
Rank 9: copyOwnerToAll took 0.00203013 seconds
Rank 10: copyOwnerToAll took 0.00203013 seconds
Rank 11: copyOwnerToAll took 0.00203013 seconds
Rank 12: copyOwnerToAll took 0.00203013 seconds
Rank 13: copyOwnerToAll took 0.00203013 seconds
Rank 14: copyOwnerToAll took 0.00203013 seconds
Rank 15: copyOwnerToAll took 0.00203013 seconds
Rank 16: copyOwnerToAll took 0.00203013 seconds
Rank 17: copyOwnerToAll took 0.00203013 seconds
Rank 18: copyOwnerToAll took 0.00203013 seconds
Rank 19: copyOwnerToAll took 0.00203013 seconds
Rank 20: copyOwnerToAll took 0.00203013 seconds
Rank 21: copyOwnerToAll took 0.00203013 seconds
Rank 22: copyOwnerToAll took 0.00203013 seconds
Rank 23: copyOwnerToAll took 0.00203013 seconds
Rank 24: copyOwnerToAll took 0.00203013 seconds
Rank 25: copyOwnerToAll took 0.00203013 seconds
Rank 26: copyOwnerToAll took 0.00203013 seconds
Rank 27: copyOwnerToAll took 0.00203013 seconds
Rank 28: copyOwnerToAll took 0.00203013 seconds
Rank 29: copyOwnerToAll took 0.00203013 seconds
Rank 30: copyOwnerToAll took 0.00203013 seconds
Rank 31: copyOwnerToAll took 0.00203013 seconds
Rank 32: copyOwnerToAll took 0.00203013 seconds
Rank 33: copyOwnerToAll took 0.00203013 seconds
Rank 34: copyOwnerToAll took 0.00203013 seconds
Rank 35: copyOwnerToAll took 0.00203013 seconds
Rank 36: copyOwnerToAll took 0.00203013 seconds
Rank 37: copyOwnerToAll took 0.00203013 seconds
Rank 38: copyOwnerToAll took 0.00203013 seconds
Rank 39: copyOwnerToAll took 0.00203013 seconds
Rank 40: copyOwnerToAll took 0.00203013 seconds
Rank 41: copyOwnerToAll took 0.00203013 seconds
Rank 42: copyOwnerToAll took 0.00203013 seconds
Rank 43: copyOwnerToAll took 0.00203013 seconds
Rank 44: copyOwnerToAll took 0.00203013 seconds
Rank 45: copyOwnerToAll took 0.00203013 seconds
Rank 46: copyOwnerToAll took 0.00203013 seconds
Rank 47: copyOwnerToAll took 0.00203013 seconds
Rank 48: copyOwnerToAll took 0.00203013 seconds
Rank 49: copyOwnerToAll took 0.00203013 seconds
Rank 50: copyOwnerToAll took 0.00203013 seconds
Rank 51: copyOwnerToAll took 0.00203013 seconds
Rank 52: copyOwnerToAll took 0.00203013 seconds
Rank 53: copyOwnerToAll took 0.00203013 seconds
Rank 54: copyOwnerToAll took 0.00203013 seconds
Rank 55: copyOwnerToAll took 0.00203013 seconds
Rank 56: copyOwnerToAll took 0.00203013 seconds
Rank 57: copyOwnerToAll took 0.00203013 seconds
Rank 58: copyOwnerToAll took 0.00203013 seconds
Rank 59: copyOwnerToAll took 0.00203013 seconds
Rank 60: copyOwnerToAll took 0.00203013 seconds
Rank 61: copyOwnerToAll took 0.00203013 seconds
Rank 62: copyOwnerToAll took 0.00203013 seconds
Rank 63: copyOwnerToAll took 0.00203013 seconds
Average time for copyOwnertoAll is 0.151976 seconds
