Number of cores/ranks per node is: 16
Scotch Node cell partitioner
 Cell on rank 0 before loadbalancing: 247808
Cell on rank 1 before loadbalancing: 250352
Cell on rank 2 before loadbalancing: 252288
Cell on rank 3 before loadbalancing: 249552
			Rank 0	Rank 1	Rank 2	Rank 3	Rank 4	Rank 5	Rank 6	Rank 7	Rank 8	Rank 9	Rank 10	Rank 11	Rank 12	Rank 13	Rank 14	Rank 15	Rank 16	Rank 17	Rank 18	Rank 19	Rank 20	Rank 21	Rank 22	Rank 23	Rank 24	Rank 25	Rank 26	Rank 27	Rank 28	Rank 29	Rank 30	Rank 31	Rank 32	Rank 33	Rank 34	Rank 35	Rank 36	Rank 37	Rank 38	Rank 39	Rank 40	Rank 41	Rank 42	Rank 43	Rank 44	Rank 45	Rank 46	Rank 47	Rank 48	Rank 49	Rank 50	Rank 51	Rank 52	Rank 53	Rank 54	Rank 55	Rank 56	Rank 57	Rank 58	Rank 59	Rank 60	Rank 61	Rank 62	Rank 63	
From rank 0 to: 	0	632	111	587	545	53	0	66	0	0	17	0	0	0	451	0	0	429	0	0	0	0	202	0	0	0	0	0	0	0	0	0	0	402	0	81	0	15	0	0	0	0	0	0	0	0	0	0	0	0	0	0	0	0	0	0	0	0	0	0	84	45	0	0	
From rank 1 to: 	632	0	579	0	0	509	84	0	0	0	0	0	0	0	0	0	0	0	0	0	0	0	483	0	0	0	0	0	0	0	0	0	0	0	0	414	21	0	0	0	0	0	0	0	0	0	0	0	0	0	0	0	0	0	0	0	0	0	0	0	0	257	0	0	
From rank 2 to: 	110	579	0	496	0	1	520	76	0	0	0	0	0	0	0	0	0	0	0	0	520	0	73	0	0	0	0	0	0	0	0	0	0	0	0	0	0	0	0	0	0	0	0	0	0	0	0	0	0	0	0	0	0	0	0	0	0	0	0	0	0	0	0	0	
From rank 3 to: 	586	0	496	0	39	0	0	456	81	0	613	0	0	0	73	0	335	77	0	0	209	0	5	0	0	0	0	0	0	0	0	0	0	0	0	0	0	0	0	0	0	0	0	0	0	0	0	0	0	0	0	0	0	0	0	0	0	0	0	0	0	0	0	0	
From rank 4 to: 	545	0	0	37	0	685	0	566	105	0	0	0	0	0	176	450	0	0	0	0	0	0	0	0	0	0	0	0	0	0	0	0	0	0	0	2	16	573	0	0	0	0	0	0	0	0	0	0	0	0	0	0	0	0	0	0	0	0	0	0	0	0	0	0	
From rank 5 to: 	62	510	1	0	685	0	628	28	0	0	0	0	0	0	0	0	0	0	0	0	0	0	0	0	0	0	0	0	0	0	0	0	0	0	0	22	606	0	0	0	0	0	0	0	0	0	0	0	0	0	0	0	0	0	0	0	0	0	0	0	0	0	0	0	
From rank 6 to: 	0	71	521	0	0	629	0	607	0	0	0	0	0	0	0	0	0	0	0	0	0	0	0	0	0	0	0	0	0	0	0	0	0	0	0	0	0	0	0	0	0	0	0	0	0	0	0	0	0	0	0	0	0	0	0	0	0	0	0	0	0	0	0	0	
From rank 7 to: 	52	0	85	462	566	28	607	0	548	0	0	0	0	0	0	18	0	0	0	0	0	0	0	0	0	0	0	0	0	0	0	0	0	0	0	0	0	0	0	0	0	0	0	0	0	0	0	0	0	0	0	0	0	0	0	0	0	0	0	0	0	0	0	0	
From rank 8 to: 	0	0	0	82	106	0	0	543	0	543	598	5	0	0	97	553	0	0	0	0	0	0	0	0	0	0	0	0	0	0	0	0	0	0	0	0	0	0	0	0	0	0	0	0	0	0	0	0	0	0	0	0	0	0	0	0	0	0	0	0	0	0	0	0	
From rank 9 to: 	0	0	0	0	0	0	0	0	543	0	20	631	144	430	0	108	0	0	0	0	0	0	0	0	0	0	0	0	0	0	0	0	0	0	0	0	0	0	0	0	0	0	0	0	0	0	0	0	0	0	0	0	0	0	0	0	0	0	0	0	0	0	0	0	
From rank 10 to: 	17	0	0	613	0	0	0	0	600	15	0	610	123	0	501	9	356	60	0	0	0	0	0	0	0	0	0	0	0	43	120	106	0	0	0	0	0	0	0	0	0	0	0	0	0	0	0	0	0	0	0	0	0	0	0	0	0	0	0	0	0	0	0	0	
From rank 11 to: 	0	0	0	0	0	0	0	0	5	631	610	0	551	0	0	0	0	0	0	0	0	0	0	0	0	0	0	0	0	0	194	449	0	0	0	0	0	0	0	0	0	0	0	0	0	0	0	0	0	0	0	0	0	0	0	0	0	0	0	0	0	0	0	0	
From rank 12 to: 	0	0	0	0	0	0	0	0	0	134	104	551	0	652	513	59	0	0	0	0	0	0	0	0	0	0	0	0	531	67	140	0	0	0	0	0	0	0	0	0	313	0	0	91	50	0	0	4	0	0	0	0	0	0	0	0	0	0	0	0	0	0	0	0	
From rank 13 to: 	0	0	0	0	0	0	0	0	0	430	0	0	660	0	40	460	0	0	0	0	0	0	0	0	0	0	0	0	0	0	0	0	0	0	0	0	0	0	0	0	29	0	0	0	633	0	0	82	0	0	0	0	0	0	0	0	0	0	0	0	0	0	0	0	
From rank 14 to: 	460	0	0	74	177	0	0	0	95	0	499	0	513	40	0	652	0	133	0	0	0	0	0	0	0	0	0	0	0	396	5	0	0	132	0	0	0	49	0	0	0	0	0	289	0	0	0	159	0	0	0	0	0	0	0	0	0	0	0	0	0	0	0	0	
From rank 15 to: 	0	0	0	0	456	0	0	18	562	101	9	0	59	465	650	0	0	0	0	0	0	0	0	0	0	0	0	0	0	0	0	0	0	0	0	0	0	129	0	0	0	0	0	0	0	0	0	446	0	0	0	0	0	0	0	0	0	0	0	0	0	0	0	0	
From rank 16 to: 	0	0	0	331	0	0	0	0	0	0	357	0	0	0	0	0	0	565	14	485	444	0	0	0	0	0	0	198	0	51	173	464	0	0	0	0	0	0	0	0	0	0	0	0	0	0	0	0	0	0	0	0	0	0	0	0	0	0	0	0	0	0	0	0	
From rank 17 to: 	439	0	0	73	0	0	0	0	0	0	53	0	0	0	133	0	577	0	471	37	52	0	414	0	0	95	0	99	0	737	66	0	0	81	0	0	0	0	0	0	0	0	0	0	0	0	0	0	0	12	0	0	0	0	0	0	0	0	0	0	473	0	0	0	
From rank 18 to: 	0	0	0	0	0	0	0	0	0	0	0	0	0	0	0	0	14	474	0	592	37	114	118	590	0	379	0	198	0	0	0	0	0	0	0	0	0	0	0	0	0	0	0	0	0	0	0	0	0	0	39	0	0	0	0	0	0	0	0	453	120	0	0	0	
From rank 19 to: 	0	0	0	0	0	0	0	0	0	0	0	0	0	0	0	0	487	40	592	0	108	434	0	0	0	0	0	695	0	0	0	0	0	0	0	0	0	0	0	0	0	0	0	0	0	0	0	0	0	0	0	0	0	0	0	0	0	0	0	0	0	0	0	0	
From rank 20 to: 	0	0	520	209	0	0	0	0	0	0	0	0	0	0	0	0	444	52	40	106	0	622	658	33	0	0	0	0	0	0	0	0	0	0	0	0	0	0	0	0	0	0	0	0	0	0	0	0	0	0	0	0	0	0	0	0	0	0	0	0	0	0	0	0	
From rank 21 to: 	0	0	0	0	0	0	0	0	0	0	0	0	0	0	0	0	0	0	125	434	623	0	12	633	0	0	0	0	0	0	0	0	0	0	0	0	0	0	0	0	0	0	0	0	0	0	0	0	0	0	0	0	0	0	0	0	0	0	0	0	0	0	0	0	
From rank 22 to: 	202	483	73	5	0	0	0	0	0	0	0	0	0	0	0	0	0	430	124	0	658	12	0	671	0	0	0	0	0	0	0	0	0	0	0	0	0	0	0	0	0	0	0	0	0	0	0	0	0	0	0	0	0	0	0	0	0	0	81	0	96	439	0	0	
From rank 23 to: 	0	0	0	0	0	0	0	0	0	0	0	0	0	0	0	0	0	0	590	0	33	634	671	0	0	0	0	0	0	0	0	0	0	0	0	0	0	0	0	0	0	0	0	0	0	0	0	0	0	0	0	0	0	0	0	0	0	0	585	102	4	0	0	0	
From rank 24 to: 	0	0	0	0	0	0	0	0	0	0	0	0	0	0	0	0	0	0	0	0	0	0	0	0	0	601	527	149	360	0	229	0	0	0	0	0	0	0	0	0	0	0	0	0	0	0	0	0	0	0	0	0	0	0	454	108	0	0	0	0	0	0	0	0	
From rank 25 to: 	0	0	0	0	0	0	0	0	0	0	0	0	0	0	0	0	0	113	378	0	0	0	0	0	607	0	0	673	108	475	25	0	0	0	0	0	0	0	0	0	0	0	0	0	0	0	0	0	0	0	637	0	0	0	132	53	0	0	0	0	8	0	0	0	
From rank 26 to: 	0	0	0	0	0	0	0	0	0	0	0	0	0	0	0	0	0	0	0	0	0	0	0	0	527	0	0	641	0	0	210	461	0	0	0	0	0	0	0	0	0	0	0	0	0	0	0	0	0	0	0	0	0	0	0	0	0	0	0	0	0	0	0	0	
From rank 27 to: 	0	0	0	0	0	0	0	0	0	0	0	0	0	0	0	0	185	99	198	695	0	0	0	0	149	673	635	0	0	58	209	206	0	0	0	0	0	0	0	0	0	0	0	0	0	0	0	0	0	0	0	0	0	0	0	0	0	0	0	0	0	0	0	0	
From rank 28 to: 	0	0	0	0	0	0	0	0	0	0	0	0	542	0	0	0	0	0	0	0	0	0	0	0	354	106	0	0	0	647	731	0	0	0	0	0	0	0	0	0	373	0	0	36	0	0	0	0	0	0	0	0	0	0	0	440	0	0	0	0	0	0	0	0	
From rank 29 to: 	0	0	0	0	0	0	0	0	0	0	39	0	70	0	407	0	50	732	0	0	0	0	0	0	0	476	0	58	647	0	472	0	0	8	0	0	0	0	0	0	0	0	0	266	0	0	0	0	0	393	67	0	0	0	0	88	0	0	0	0	36	0	0	0	
From rank 30 to: 	0	0	0	0	0	0	0	0	0	0	116	201	140	0	5	0	171	66	0	0	0	0	0	0	248	31	210	204	731	453	0	862	0	0	0	0	0	0	0	0	0	0	0	0	0	0	0	0	0	0	0	0	0	0	0	0	0	0	0	0	0	0	0	0	
From rank 31 to: 	0	0	0	0	0	0	0	0	0	0	117	449	0	0	0	0	464	0	0	0	0	0	0	0	0	0	461	216	0	0	871	0	0	0	0	0	0	0	0	0	0	0	0	0	0	0	0	0	0	0	0	0	0	0	0	0	0	0	0	0	0	0	0	0	
From rank 32 to: 	0	0	0	0	0	0	0	0	0	0	0	0	0	0	0	0	0	0	0	0	0	0	0	0	0	0	0	0	0	0	0	0	0	545	616	4	0	139	0	627	0	0	451	46	0	0	247	30	187	0	0	0	0	0	0	0	0	0	0	0	0	0	144	0	
From rank 33 to: 	402	0	0	0	0	0	0	0	0	0	0	0	0	0	138	0	0	73	0	0	0	0	0	0	0	0	0	0	0	14	0	0	550	0	55	539	0	575	0	0	0	0	85	602	0	0	0	46	4	127	0	0	0	0	0	0	0	0	0	0	349	15	290	0	
From rank 34 to: 	0	0	0	0	0	0	0	0	0	0	0	0	0	0	0	0	0	0	0	0	0	0	0	0	0	0	0	0	0	0	0	0	615	49	0	575	49	19	591	90	0	0	0	0	0	0	0	0	0	0	0	0	0	0	0	0	0	0	0	0	0	0	200	421	
From rank 35 to: 	81	414	0	0	2	22	0	0	0	0	0	0	0	0	0	0	0	0	0	0	0	0	0	0	0	0	0	0	0	0	0	0	4	539	576	0	620	131	0	0	0	0	0	0	0	0	0	0	0	0	0	0	0	0	0	0	0	0	0	0	0	532	77	199	
From rank 36 to: 	0	26	0	0	16	606	0	0	0	0	0	0	0	0	0	0	0	0	0	0	0	0	0	0	0	0	0	0	0	0	0	0	0	0	58	619	0	546	586	54	0	0	0	0	0	0	0	0	0	0	0	0	0	0	0	0	0	0	0	0	0	0	0	0	
From rank 37 to: 	15	0	0	0	573	0	0	0	0	0	0	0	0	0	49	129	0	0	0	0	0	0	0	0	0	0	0	0	0	0	0	0	140	578	19	131	548	0	0	562	0	0	0	0	0	0	0	434	0	0	0	0	0	0	0	0	0	0	0	0	0	0	0	0	
From rank 38 to: 	0	0	0	0	0	0	0	0	0	0	0	0	0	0	0	0	0	0	0	0	0	0	0	0	0	0	0	0	0	0	0	0	0	0	604	0	588	0	0	597	0	0	0	0	0	0	0	0	0	0	0	0	0	0	0	0	0	0	0	0	0	0	0	0	
From rank 39 to: 	0	0	0	0	0	0	0	0	0	0	0	0	0	0	0	0	0	0	0	0	0	0	0	0	0	0	0	0	0	0	0	0	613	0	90	0	54	567	595	0	0	0	0	0	0	0	474	165	0	0	0	0	0	0	0	0	0	0	0	0	0	0	0	0	
From rank 40 to: 	0	0	0	0	0	0	0	0	0	0	0	0	316	29	0	0	0	0	0	0	0	0	0	0	0	0	0	0	372	0	0	0	0	0	0	0	0	0	0	0	0	633	37	574	514	0	0	0	0	0	0	0	0	0	0	528	0	0	0	0	0	0	0	0	
From rank 41 to: 	0	0	0	0	0	0	0	0	0	0	0	0	0	0	0	0	0	0	0	0	0	0	0	0	0	0	0	0	0	0	0	0	0	0	0	0	0	0	0	0	633	0	593	10	56	525	0	0	0	0	0	0	0	498	0	42	0	0	0	0	0	0	0	0	
From rank 42 to: 	0	0	0	0	0	0	0	0	0	0	0	0	0	0	0	0	0	0	0	0	0	0	0	0	0	0	0	0	0	0	0	0	445	88	0	0	0	0	0	0	42	593	0	626	0	110	415	0	344	206	0	0	0	211	0	25	0	0	0	0	0	0	0	0	
From rank 43 to: 	0	0	0	0	0	0	0	0	0	0	0	0	91	0	289	0	0	0	0	0	0	0	0	0	0	0	0	0	38	266	0	0	46	611	0	0	0	0	0	0	574	10	631	0	129	23	106	525	0	363	0	0	0	0	0	89	0	0	0	0	0	0	0	0	
From rank 44 to: 	0	0	0	0	0	0	0	0	0	0	0	0	50	634	0	0	0	0	0	0	0	0	0	0	0	0	0	0	0	0	0	0	0	0	0	0	0	0	0	0	520	65	0	133	0	668	12	590	0	0	0	0	0	0	0	0	0	0	0	0	0	0	0	0	
From rank 45 to: 	0	0	0	0	0	0	0	0	0	0	0	0	0	0	0	0	0	0	0	0	0	0	0	0	0	0	0	0	0	0	0	0	0	0	0	0	0	0	0	0	0	504	110	20	662	0	633	57	0	0	0	0	0	0	0	0	0	0	0	0	0	0	0	0	
From rank 46 to: 	0	0	0	0	0	0	0	0	0	0	0	0	0	0	0	0	0	0	0	0	0	0	0	0	0	0	0	0	0	0	0	0	235	0	0	0	0	0	0	472	0	0	415	122	12	627	0	592	0	0	0	0	0	0	0	0	0	0	0	0	0	0	0	0	
From rank 47 to: 	0	0	0	0	0	0	0	0	0	0	0	0	4	72	159	446	0	0	0	0	0	0	0	0	0	0	0	0	0	0	0	0	35	52	0	0	0	430	0	177	0	0	0	525	592	59	576	0	0	0	0	0	0	0	0	0	0	0	0	0	0	0	0	0	
From rank 48 to: 	0	0	0	0	0	0	0	0	0	0	0	0	0	0	0	0	0	0	0	0	0	0	0	0	0	0	0	0	0	0	0	0	187	4	0	0	0	0	0	0	0	0	349	0	0	0	0	0	0	603	2	449	0	345	0	0	312	0	0	0	56	0	667	0	
From rank 49 to: 	0	0	0	0	0	0	0	0	0	0	0	0	0	0	0	0	0	12	0	0	0	0	0	0	0	0	0	0	0	394	0	0	0	122	0	0	0	0	0	0	0	0	209	370	0	0	0	0	611	0	544	143	0	248	0	440	0	0	0	0	526	0	201	0	
From rank 50 to: 	0	0	0	0	0	0	0	0	0	0	0	0	0	0	0	0	0	0	39	0	0	0	0	0	0	644	0	0	0	62	0	0	0	0	0	0	0	0	0	0	0	0	0	0	0	0	0	0	2	549	0	497	0	10	480	165	4	0	0	529	224	0	0	0	
From rank 51 to: 	0	0	0	0	0	0	0	0	0	0	0	0	0	0	0	0	0	0	0	0	0	0	0	0	0	0	0	0	0	0	0	0	0	0	0	0	0	0	0	0	0	0	0	0	0	0	0	0	458	141	490	0	373	177	128	0	437	0	0	88	0	0	0	0	
From rank 52 to: 	0	0	0	0	0	0	0	0	0	0	0	0	0	0	0	0	0	0	0	0	0	0	0	0	0	0	0	0	0	0	0	0	0	0	0	0	0	0	0	0	0	0	0	0	0	0	0	0	0	0	0	373	0	645	647	165	0	0	0	0	0	0	0	0	
From rank 53 to: 	0	0	0	0	0	0	0	0	0	0	0	0	0	0	0	0	0	0	0	0	0	0	0	0	0	0	0	0	0	0	0	0	0	0	0	0	0	0	0	0	0	498	211	0	0	0	0	0	345	236	10	185	646	0	3	567	0	0	0	0	0	0	0	0	
From rank 54 to: 	0	0	0	0	0	0	0	0	0	0	0	0	0	0	0	0	0	0	0	0	0	0	0	0	452	132	0	0	0	0	0	0	0	0	0	0	0	0	0	0	0	0	0	0	0	0	0	0	0	0	482	133	645	3	0	630	0	0	0	0	0	0	0	0	
From rank 55 to: 	0	0	0	0	0	0	0	0	0	0	0	0	0	0	0	0	0	0	0	0	0	0	0	0	108	53	0	0	426	88	0	0	0	0	0	0	0	0	0	0	523	42	25	89	0	0	0	0	0	440	180	0	150	567	630	0	0	0	0	0	0	0	0	0	
From rank 56 to: 	0	0	0	0	0	0	0	0	0	0	0	0	0	0	0	0	0	0	0	0	0	0	0	0	0	0	0	0	0	0	0	0	0	0	0	0	0	0	0	0	0	0	0	0	0	0	0	0	305	0	4	435	0	0	0	0	0	739	0	526	102	0	439	39	
From rank 57 to: 	0	0	0	0	0	0	0	0	0	0	0	0	0	0	0	0	0	0	0	0	0	0	0	0	0	0	0	0	0	0	0	0	0	0	0	0	0	0	0	0	0	0	0	0	0	0	0	0	0	0	0	0	0	0	0	0	739	0	544	113	0	5	6	578	
From rank 58 to: 	0	0	0	0	0	0	0	0	0	0	0	0	0	0	0	0	0	0	0	0	0	0	81	585	0	0	0	0	0	0	0	0	0	0	0	0	0	0	0	0	0	0	0	0	0	0	0	0	0	0	0	0	0	0	0	0	0	544	0	576	71	599	0	55	
From rank 59 to: 	0	0	0	0	0	0	0	0	0	0	0	0	0	0	0	0	0	0	470	0	0	0	0	102	0	0	0	0	0	0	0	0	0	0	0	0	0	0	0	0	0	0	0	0	0	0	0	0	0	0	540	88	0	0	0	0	527	113	582	0	560	50	0	9	
From rank 60 to: 	87	0	0	0	0	0	0	0	0	0	0	0	0	0	0	0	0	470	120	0	0	0	96	4	0	8	0	0	0	36	0	0	0	357	0	0	0	0	0	0	0	0	0	0	0	0	0	0	56	525	220	0	0	0	0	0	106	0	66	574	0	569	495	4	
From rank 61 to: 	45	268	0	0	0	0	0	0	0	0	0	0	0	0	0	0	0	0	0	0	0	0	439	0	0	0	0	0	0	0	0	0	0	15	0	534	0	0	0	0	0	0	0	0	0	0	0	0	0	0	0	0	0	0	0	0	0	5	587	50	574	0	201	496	
From rank 62 to: 	0	0	0	0	0	0	0	0	0	0	0	0	0	0	0	0	0	0	0	0	0	0	0	0	0	0	0	0	0	0	0	0	144	304	200	77	0	0	0	0	0	0	0	0	0	0	0	0	655	191	0	0	0	0	0	0	439	6	0	0	489	202	0	815	
From rank 63 to: 	0	0	0	0	0	0	0	0	0	0	0	0	0	0	0	0	0	0	0	0	0	0	0	0	0	0	0	0	0	0	0	0	0	0	421	199	0	0	0	0	0	0	0	0	0	0	0	0	0	0	0	0	0	0	0	0	41	577	59	12	4	491	816	0	
loadb
After loadbalancing process 38 has 17480 cells.
After loadbalancing process 6 has 17211 cells.
After loadbalancing process 8 has 18055 cells.
After loadbalancing process 51 has 17755 cells.
After loadbalancing process 26 has 17608 cells.
After loadbalancing process 39 has 18275 cells.
After loadbalancing process 7 has 18008 cells.
After loadbalancing process 9 has 17364 cells.
After loadbalancing process 15 has 18422 cells.
After loadbalancing process 21 has 17472 cells.
After loadbalancing process 4 has 18797 cells.
After loadbalancing process 52 has 17298 cells.
After loadbalancing process 31 has 18368 cells.
After loadbalancing process 45 has 17911 cells.
After loadbalancing process 46 has 18142 cells.
After loadbalancing process 54 has 17919 cells.
After loadbalancing process 13 has 17693 cells.
After loadbalancing process 35 has 18880 cells.
After loadbalancing process 56 has 18341 cells.
After loadbalancing process 5 has 17876 cells.
After loadbalancing process 1 has 18427 cells.
After loadbalancing process 32 has 18804 cells.
After loadbalancing process 19 has 18028 cells.
After loadbalancing process 20 has 18175 cells.
After loadbalancing process 47 has 18842 cells.
After loadbalancing process 2 has 17874 cells.
After loadbalancing process 40 has 18749 cells.
After loadbalancing process 23 has 18124 cells.
After loadbalancing process 27 has 18775 cells.
After loadbalancing process 42 has 19030 cells.
After loadbalancing process 48 has 18712 cells.
After loadbalancing process 3 has 18612 cells.
After loadbalancing process 14 has 19155 cells.
After loadbalancing process 10 has 18630 cells.
After loadbalancing process 30 has 18951 cells.
After loadbalancing process 36 has 18283 cells.
After loadbalancing process 11 has 17932 cells.
After loadbalancing process 49 has 19383 cells.
After loadbalancing process 57 has 17671 cells.After loadbalancing process 61 has 18929 cells.
After loadbalancing process 63 has 18192 cells.

After loadbalancing process 44 has 18597 cells.
After loadbalancing process 0 has 19258 cells.
After loadbalancing process 34 has 18239 cells.
After loadbalancing process 37 has 18792 cells.
After loadbalancing process 41 has 18034 cells.
After loadbalancing process 53 has 18227 cells.
After loadbalancing process 58 has 18263 cells.
After loadbalancing process 59 has 18758 cells.
After loadbalancing process 24 has 18023 cells.
After loadbalancing process 62 has 18964 cells.
After loadbalancing process 50 has 18671 cells.
After loadbalancing process 33 has 19789 cells.
After loadbalancing process 16 has 18873 cells.
After loadbalancing process 28 has 18866 cells.After loadbalancing process 43 has 19699 cells.

After loadbalancing process 25 has 18959 cells.
After loadbalancing process 22 has 18765 cells.
After loadbalancing process 55 has 18855 cells.
After loadbalancing process 18 has 18871 cells.
After loadbalancing process 17 has 19528 cells.
After loadbalancing process 60 has 19509 cells.
After loadbalancing process 29 has 19385 cells.
After loadbalancing process 12 has 18556 cells.
			Rank 0	Rank 1	Rank 2	Rank 3	Rank 4	Rank 5	Rank 6	Rank 7	Rank 8	Rank 9	Rank 10	Rank 11	Rank 12	Rank 13	Rank 14	Rank 15	Rank 16	Rank 17	Rank 18	Rank 19	Rank 20	Rank 21	Rank 22	Rank 23	Rank 24	Rank 25	Rank 26	Rank 27	Rank 28	Rank 29	Rank 30	Rank 31	Rank 32	Rank 33	Rank 34	Rank 35	Rank 36	Rank 37	Rank 38	Rank 39	Rank 40	Rank 41	Rank 42	Rank 43	Rank 44	Rank 45	Rank 46	Rank 47	Rank 48	Rank 49	Rank 50	Rank 51	Rank 52	Rank 53	Rank 54	Rank 55	Rank 56	Rank 57	Rank 58	Rank 59	Rank 60	Rank 61	Rank 62	Rank 63	
Rank 0's ghost cells:	0	632	111	587	545	53	0	66	0	0	17	0	0	0	451	0	0	429	0	0	0	0	202	0	0	0	0	0	0	0	0	0	0	402	0	81	0	15	0	0	0	0	0	0	0	0	0	0	0	0	0	0	0	0	0	0	0	0	0	0	84	45	0	0	
Rank 1's ghost cells:	632	0	579	0	0	509	84	0	0	0	0	0	0	0	0	0	0	0	0	0	0	0	483	0	0	0	0	0	0	0	0	0	0	0	0	414	21	0	0	0	0	0	0	0	0	0	0	0	0	0	0	0	0	0	0	0	0	0	0	0	0	257	0	0	
Rank 2's ghost cells:	110	579	0	496	0	1	520	76	0	0	0	0	0	0	0	0	0	0	0	0	520	0	73	0	0	0	0	0	0	0	0	0	0	0	0	0	0	0	0	0	0	0	0	0	0	0	0	0	0	0	0	0	0	0	0	0	0	0	0	0	0	0	0	0	
Rank 3's ghost cells:	586	0	496	0	39	0	0	456	81	0	613	0	0	0	73	0	335	77	0	0	209	0	5	0	0	0	0	0	0	0	0	0	0	0	0	0	0	0	0	0	0	0	0	0	0	0	0	0	0	0	0	0	0	0	0	0	0	0	0	0	0	0	0	0	
Rank 4's ghost cells:	545	0	0	37	0	685	0	566	105	0	0	0	0	0	176	450	0	0	0	0	0	0	0	0	0	0	0	0	0	0	0	0	0	0	0	2	16	573	0	0	0	0	0	0	0	0	0	0	0	0	0	0	0	0	0	0	0	0	0	0	0	0	0	0	
Rank 5's ghost cells:	62	510	1	0	685	0	628	28	0	0	0	0	0	0	0	0	0	0	0	0	0	0	0	0	0	0	0	0	0	0	0	0	0	0	0	22	606	0	0	0	0	0	0	0	0	0	0	0	0	0	0	0	0	0	0	0	0	0	0	0	0	0	0	0	
Rank 6's ghost cells:	0	71	521	0	0	629	0	607	0	0	0	0	0	0	0	0	0	0	0	0	0	0	0	0	0	0	0	0	0	0	0	0	0	0	0	0	0	0	0	0	0	0	0	0	0	0	0	0	0	0	0	0	0	0	0	0	0	0	0	0	0	0	0	0	
Rank 7's ghost cells:	52	0	85	462	566	28	607	0	548	0	0	0	0	0	0	18	0	0	0	0	0	0	0	0	0	0	0	0	0	0	0	0	0	0	0	0	0	0	0	0	0	0	0	0	0	0	0	0	0	0	0	0	0	0	0	0	0	0	0	0	0	0	0	0	
Rank 8's ghost cells:	0	0	0	82	106	0	0	543	0	543	598	5	0	0	97	553	0	0	0	0	0	0	0	0	0	0	0	0	0	0	0	0	0	0	0	0	0	0	0	0	0	0	0	0	0	0	0	0	0	0	0	0	0	0	0	0	0	0	0	0	0	0	0	0	
Rank 9's ghost cells:	0	0	0	0	0	0	0	0	543	0	20	631	144	430	0	108	0	0	0	0	0	0	0	0	0	0	0	0	0	0	0	0	0	0	0	0	0	0	0	0	0	0	0	0	0	0	0	0	0	0	0	0	0	0	0	0	0	0	0	0	0	0	0	0	
Rank 10's ghost cells:	17	0	0	613	0	0	0	0	600	15	0	610	123	0	501	9	356	60	0	0	0	0	0	0	0	0	0	0	0	43	120	106	0	0	0	0	0	0	0	0	0	0	0	0	0	0	0	0	0	0	0	0	0	0	0	0	0	0	0	0	0	0	0	0	
Rank 11's ghost cells:	0	0	0	0	0	0	0	0	5	631	610	0	551	0	0	0	0	0	0	0	0	0	0	0	0	0	0	0	0	0	194	449	0	0	0	0	0	0	0	0	0	0	0	0	0	0	0	0	0	0	0	0	0	0	0	0	0	0	0	0	0	0	0	0	
Rank 12's ghost cells:	0	0	0	0	0	0	0	0	0	134	104	551	0	652	513	59	0	0	0	0	0	0	0	0	0	0	0	0	531	67	140	0	0	0	0	0	0	0	0	0	313	0	0	91	50	0	0	4	0	0	0	0	0	0	0	0	0	0	0	0	0	0	0	0	
Rank 13's ghost cells:	0	0	0	0	0	0	0	0	0	430	0	0	660	0	40	460	0	0	0	0	0	0	0	0	0	0	0	0	0	0	0	0	0	0	0	0	0	0	0	0	29	0	0	0	633	0	0	82	0	0	0	0	0	0	0	0	0	0	0	0	0	0	0	0	
Rank 14's ghost cells:	460	0	0	74	177	0	0	0	95	0	499	0	513	40	0	652	0	133	0	0	0	0	0	0	0	0	0	0	0	396	5	0	0	132	0	0	0	49	0	0	0	0	0	289	0	0	0	159	0	0	0	0	0	0	0	0	0	0	0	0	0	0	0	0	
Rank 15's ghost cells:	0	0	0	0	456	0	0	18	562	101	9	0	59	465	650	0	0	0	0	0	0	0	0	0	0	0	0	0	0	0	0	0	0	0	0	0	0	129	0	0	0	0	0	0	0	0	0	446	0	0	0	0	0	0	0	0	0	0	0	0	0	0	0	0	
Rank 16's ghost cells:	0	0	0	331	0	0	0	0	0	0	357	0	0	0	0	0	0	565	14	485	444	0	0	0	0	0	0	198	0	51	173	464	0	0	0	0	0	0	0	0	0	0	0	0	0	0	0	0	0	0	0	0	0	0	0	0	0	0	0	0	0	0	0	0	
Rank 17's ghost cells:	439	0	0	73	0	0	0	0	0	0	53	0	0	0	133	0	577	0	471	37	52	0	414	0	0	95	0	99	0	737	66	0	0	81	0	0	0	0	0	0	0	0	0	0	0	0	0	0	0	12	0	0	0	0	0	0	0	0	0	0	473	0	0	0	
Rank 18's ghost cells:	0	0	0	0	0	0	0	0	0	0	0	0	0	0	0	0	14	474	0	592	37	114	118	590	0	379	0	198	0	0	0	0	0	0	0	0	0	0	0	0	0	0	0	0	0	0	0	0	0	0	39	0	0	0	0	0	0	0	0	453	120	0	0	0	
Rank 19's ghost cells:	0	0	0	0	0	0	0	0	0	0	0	0	0	0	0	0	487	40	592	0	108	434	0	0	0	0	0	695	0	0	0	0	0	0	0	0	0	0	0	0	0	0	0	0	0	0	0	0	0	0	0	0	0	0	0	0	0	0	0	0	0	0	0	0	
Rank 20's ghost cells:	0	0	520	209	0	0	0	0	0	0	0	0	0	0	0	0	444	52	40	106	0	622	658	33	0	0	0	0	0	0	0	0	0	0	0	0	0	0	0	0	0	0	0	0	0	0	0	0	0	0	0	0	0	0	0	0	0	0	0	0	0	0	0	0	
Rank 21's ghost cells:	0	0	0	0	0	0	0	0	0	0	0	0	0	0	0	0	0	0	125	434	623	0	12	633	0	0	0	0	0	0	0	0	0	0	0	0	0	0	0	0	0	0	0	0	0	0	0	0	0	0	0	0	0	0	0	0	0	0	0	0	0	0	0	0	
Rank 22's ghost cells:	202	483	73	5	0	0	0	0	0	0	0	0	0	0	0	0	0	430	124	0	658	12	0	671	0	0	0	0	0	0	0	0	0	0	0	0	0	0	0	0	0	0	0	0	0	0	0	0	0	0	0	0	0	0	0	0	0	0	81	0	96	439	0	0	
Rank 23's ghost cells:	0	0	0	0	0	0	0	0	0	0	0	0	0	0	0	0	0	0	590	0	33	634	671	0	0	0	0	0	0	0	0	0	0	0	0	0	0	0	0	0	0	0	0	0	0	0	0	0	0	0	0	0	0	0	0	0	0	0	585	102	4	0	0	0	
Rank 24's ghost cells:	0	0	0	0	0	0	0	0	0	0	0	0	0	0	0	0	0	0	0	0	0	0	0	0	0	601	527	149	360	0	229	0	0	0	0	0	0	0	0	0	0	0	0	0	0	0	0	0	0	0	0	0	0	0	454	108	0	0	0	0	0	0	0	0	
Rank 25's ghost cells:	0	0	0	0	0	0	0	0	0	0	0	0	0	0	0	0	0	113	378	0	0	0	0	0	607	0	0	673	108	475	25	0	0	0	0	0	0	0	0	0	0	0	0	0	0	0	0	0	0	0	637	0	0	0	132	53	0	0	0	0	8	0	0	0	
Rank 26's ghost cells:	0	0	0	0	0	0	0	0	0	0	0	0	0	0	0	0	0	0	0	0	0	0	0	0	527	0	0	641	0	0	210	461	0	0	0	0	0	0	0	0	0	0	0	0	0	0	0	0	0	0	0	0	0	0	0	0	0	0	0	0	0	0	0	0	
Rank 27's ghost cells:	0	0	0	0	0	0	0	0	0	0	0	0	0	0	0	0	185	99	198	695	0	0	0	0	149	673	635	0	0	58	209	206	0	0	0	0	0	0	0	0	0	0	0	0	0	0	0	0	0	0	0	0	0	0	0	0	0	0	0	0	0	0	0	0	
Rank 28's ghost cells:	0	0	0	0	0	0	0	0	0	0	0	0	542	0	0	0	0	0	0	0	0	0	0	0	354	106	0	0	0	647	731	0	0	0	0	0	0	0	0	0	373	0	0	36	0	0	0	0	0	0	0	0	0	0	0	440	0	0	0	0	0	0	0	0	
Rank 29's ghost cells:	0	0	0	0	0	0	0	0	0	0	39	0	70	0	407	0	50	732	0	0	0	0	0	0	0	476	0	58	647	0	472	0	0	8	0	0	0	0	0	0	0	0	0	266	0	0	0	0	0	393	67	0	0	0	0	88	0	0	0	0	36	0	0	0	
Rank 30's ghost cells:	0	0	0	0	0	0	0	0	0	0	116	201	140	0	5	0	171	66	0	0	0	0	0	0	248	31	210	204	731	453	0	862	0	0	0	0	0	0	0	0	0	0	0	0	0	0	0	0	0	0	0	0	0	0	0	0	0	0	0	0	0	0	0	0	
Rank 31's ghost cells:	0	0	0	0	0	0	0	0	0	0	117	449	0	0	0	0	464	0	0	0	0	0	0	0	0	0	461	216	0	0	871	0	0	0	0	0	0	0	0	0	0	0	0	0	0	0	0	0	0	0	0	0	0	0	0	0	0	0	0	0	0	0	0	0	
Rank 32's ghost cells:	0	0	0	0	0	0	0	0	0	0	0	0	0	0	0	0	0	0	0	0	0	0	0	0	0	0	0	0	0	0	0	0	0	545	616	4	0	139	0	627	0	0	451	46	0	0	247	30	187	0	0	0	0	0	0	0	0	0	0	0	0	0	144	0	
Rank 33's ghost cells:	402	0	0	0	0	0	0	0	0	0	0	0	0	0	138	0	0	73	0	0	0	0	0	0	0	0	0	0	0	14	0	0	550	0	55	539	0	575	0	0	0	0	85	602	0	0	0	46	4	127	0	0	0	0	0	0	0	0	0	0	349	15	290	0	
Rank 34's ghost cells:	0	0	0	0	0	0	0	0	0	0	0	0	0	0	0	0	0	0	0	0	0	0	0	0	0	0	0	0	0	0	0	0	615	49	0	575	49	19	591	90	0	0	0	0	0	0	0	0	0	0	0	0	0	0	0	0	0	0	0	0	0	0	200	421	
Rank 35's ghost cells:	81	414	0	0	2	22	0	0	0	0	0	0	0	0	0	0	0	0	0	0	0	0	0	0	0	0	0	0	0	0	0	0	4	539	576	0	620	131	0	0	0	0	0	0	0	0	0	0	0	0	0	0	0	0	0	0	0	0	0	0	0	532	77	199	
Rank 36's ghost cells:	0	26	0	0	16	606	0	0	0	0	0	0	0	0	0	0	0	0	0	0	0	0	0	0	0	0	0	0	0	0	0	0	0	0	58	619	0	546	586	54	0	0	0	0	0	0	0	0	0	0	0	0	0	0	0	0	0	0	0	0	0	0	0	0	
Rank 37's ghost cells:	15	0	0	0	573	0	0	0	0	0	0	0	0	0	49	129	0	0	0	0	0	0	0	0	0	0	0	0	0	0	0	0	140	578	19	131	548	0	0	562	0	0	0	0	0	0	0	434	0	0	0	0	0	0	0	0	0	0	0	0	0	0	0	0	
Rank 38's ghost cells:	0	0	0	0	0	0	0	0	0	0	0	0	0	0	0	0	0	0	0	0	0	0	0	0	0	0	0	0	0	0	0	0	0	0	604	0	588	0	0	597	0	0	0	0	0	0	0	0	0	0	0	0	0	0	0	0	0	0	0	0	0	0	0	0	
Rank 39's ghost cells:	0	0	0	0	0	0	0	0	0	0	0	0	0	0	0	0	0	0	0	0	0	0	0	0	0	0	0	0	0	0	0	0	613	0	90	0	54	567	595	0	0	0	0	0	0	0	474	165	0	0	0	0	0	0	0	0	0	0	0	0	0	0	0	0	
Rank 40's ghost cells:	0	0	0	0	0	0	0	0	0	0	0	0	316	29	0	0	0	0	0	0	0	0	0	0	0	0	0	0	372	0	0	0	0	0	0	0	0	0	0	0	0	633	37	574	514	0	0	0	0	0	0	0	0	0	0	528	0	0	0	0	0	0	0	0	
Rank 41's ghost cells:	0	0	0	0	0	0	0	0	0	0	0	0	0	0	0	0	0	0	0	0	0	0	0	0	0	0	0	0	0	0	0	0	0	0	0	0	0	0	0	0	633	0	593	10	56	525	0	0	0	0	0	0	0	498	0	42	0	0	0	0	0	0	0	0	
Rank 42's ghost cells:	0	0	0	0	0	0	0	0	0	0	0	0	0	0	0	0	0	0	0	0	0	0	0	0	0	0	0	0	0	0	0	0	445	88	0	0	0	0	0	0	42	593	0	626	0	110	415	0	344	206	0	0	0	211	0	25	0	0	0	0	0	0	0	0	
Rank 43's ghost cells:	0	0	0	0	0	0	0	0	0	0	0	0	91	0	289	0	0	0	0	0	0	0	0	0	0	0	0	0	38	266	0	0	46	611	0	0	0	0	0	0	574	10	631	0	129	23	106	525	0	363	0	0	0	0	0	89	0	0	0	0	0	0	0	0	
Rank 44's ghost cells:	0	0	0	0	0	0	0	0	0	0	0	0	50	634	0	0	0	0	0	0	0	0	0	0	0	0	0	0	0	0	0	0	0	0	0	0	0	0	0	0	520	65	0	133	0	668	12	590	0	0	0	0	0	0	0	0	0	0	0	0	0	0	0	0	
Rank 45's ghost cells:	0	0	0	0	0	0	0	0	0	0	0	0	0	0	0	0	0	0	0	0	0	0	0	0	0	0	0	0	0	0	0	0	0	0	0	0	0	0	0	0	0	504	110	20	662	0	633	57	0	0	0	0	0	0	0	0	0	0	0	0	0	0	0	0	
Rank 46's ghost cells:	0	0	0	0	0	0	0	0	0	0	0	0	0	0	0	0	0	0	0	0	0	0	0	0	0	0	0	0	0	0	0	0	235	0	0	0	0	0	0	472	0	0	415	122	12	627	0	592	0	0	0	0	0	0	0	0	0	0	0	0	0	0	0	0	
Rank 47's ghost cells:	0	0	0	0	0	0	0	0	0	0	0	0	4	72	159	446	0	0	0	0	0	0	0	0	0	0	0	0	0	0	0	0	35	52	0	0	0	430	0	177	0	0	0	525	592	59	576	0	0	0	0	0	0	0	0	0	0	0	0	0	0	0	0	0	
Rank 48's ghost cells:	0	0	0	0	0	0	0	0	0	0	0	0	0	0	0	0	0	0	0	0	0	0	0	0	0	0	0	0	0	0	0	0	187	4	0	0	0	0	0	0	0	0	349	0	0	0	0	0	0	603	2	449	0	345	0	0	312	0	0	0	56	0	667	0	
Rank 49's ghost cells:	0	0	0	0	0	0	0	0	0	0	0	0	0	0	0	0	0	12	0	0	0	0	0	0	0	0	0	0	0	394	0	0	0	122	0	0	0	0	0	0	0	0	209	370	0	0	0	0	611	0	544	143	0	248	0	440	0	0	0	0	526	0	201	0	
Rank 50's ghost cells:	0	0	0	0	0	0	0	0	0	0	0	0	0	0	0	0	0	0	39	0	0	0	0	0	0	644	0	0	0	62	0	0	0	0	0	0	0	0	0	0	0	0	0	0	0	0	0	0	2	549	0	497	0	10	480	165	4	0	0	529	224	0	0	0	
Rank 51's ghost cells:	0	0	0	0	0	0	0	0	0	0	0	0	0	0	0	0	0	0	0	0	0	0	0	0	0	0	0	0	0	0	0	0	0	0	0	0	0	0	0	0	0	0	0	0	0	0	0	0	458	141	490	0	373	177	128	0	437	0	0	88	0	0	0	0	
Rank 52's ghost cells:	0	0	0	0	0	0	0	0	0	0	0	0	0	0	0	0	0	0	0	0	0	0	0	0	0	0	0	0	0	0	0	0	0	0	0	0	0	0	0	0	0	0	0	0	0	0	0	0	0	0	0	373	0	645	647	165	0	0	0	0	0	0	0	0	
Rank 53's ghost cells:	0	0	0	0	0	0	0	0	0	0	0	0	0	0	0	0	0	0	0	0	0	0	0	0	0	0	0	0	0	0	0	0	0	0	0	0	0	0	0	0	0	498	211	0	0	0	0	0	345	236	10	185	646	0	3	567	0	0	0	0	0	0	0	0	
Rank 54's ghost cells:	0	0	0	0	0	0	0	0	0	0	0	0	0	0	0	0	0	0	0	0	0	0	0	0	452	132	0	0	0	0	0	0	0	0	0	0	0	0	0	0	0	0	0	0	0	0	0	0	0	0	482	133	645	3	0	630	0	0	0	0	0	0	0	0	
Rank 55's ghost cells:	0	0	0	0	0	0	0	0	0	0	0	0	0	0	0	0	0	0	0	0	0	0	0	0	108	53	0	0	426	88	0	0	0	0	0	0	0	0	0	0	523	42	25	89	0	0	0	0	0	440	180	0	150	567	630	0	0	0	0	0	0	0	0	0	
Rank 56's ghost cells:	0	0	0	0	0	0	0	0	0	0	0	0	0	0	0	0	0	0	0	0	0	0	0	0	0	0	0	0	0	0	0	0	0	0	0	0	0	0	0	0	0	0	0	0	0	0	0	0	305	0	4	435	0	0	0	0	0	739	0	526	102	0	439	39	
Rank 57's ghost cells:	0	0	0	0	0	0	0	0	0	0	0	0	0	0	0	0	0	0	0	0	0	0	0	0	0	0	0	0	0	0	0	0	0	0	0	0	0	0	0	0	0	0	0	0	0	0	0	0	0	0	0	0	0	0	0	0	739	0	544	113	0	5	6	578	
Rank 58's ghost cells:	0	0	0	0	0	0	0	0	0	0	0	0	0	0	0	0	0	0	0	0	0	0	81	585	0	0	0	0	0	0	0	0	0	0	0	0	0	0	0	0	0	0	0	0	0	0	0	0	0	0	0	0	0	0	0	0	0	544	0	576	71	599	0	55	
Rank 59's ghost cells:	0	0	0	0	0	0	0	0	0	0	0	0	0	0	0	0	0	0	470	0	0	0	0	102	0	0	0	0	0	0	0	0	0	0	0	0	0	0	0	0	0	0	0	0	0	0	0	0	0	0	540	88	0	0	0	0	527	113	582	0	560	50	0	9	
Rank 60's ghost cells:	87	0	0	0	0	0	0	0	0	0	0	0	0	0	0	0	0	470	120	0	0	0	96	4	0	8	0	0	0	36	0	0	0	357	0	0	0	0	0	0	0	0	0	0	0	0	0	0	56	525	220	0	0	0	0	0	106	0	66	574	0	569	495	4	
Rank 61's ghost cells:	45	268	0	0	0	0	0	0	0	0	0	0	0	0	0	0	0	0	0	0	0	0	439	0	0	0	0	0	0	0	0	0	0	15	0	534	0	0	0	0	0	0	0	0	0	0	0	0	0	0	0	0	0	0	0	0	0	5	587	50	574	0	201	496	
Rank 62's ghost cells:	0	0	0	0	0	0	0	0	0	0	0	0	0	0	0	0	0	0	0	0	0	0	0	0	0	0	0	0	0	0	0	0	144	304	200	77	0	0	0	0	0	0	0	0	0	0	0	0	655	191	0	0	0	0	0	0	439	6	0	0	489	202	0	815	
Rank 63's ghost cells:	0	0	0	0	0	0	0	0	0	0	0	0	0	0	0	0	0	0	0	0	0	0	0	0	0	0	0	0	0	0	0	0	0	0	421	199	0	0	0	0	0	0	0	0	0	0	0	0	0	0	0	0	0	0	0	0	41	577	59	12	4	491	816	0	
=== CGSolver
 Iter          Defect            Rate
    0            249.8
    1           56.357         0.225609
    2          33.0595         0.586609
    3          23.4613         0.709668
    4          20.2848         0.864609
    5          17.8293         0.878945
    6           14.249         0.799191
    7          12.4885         0.876446
    8          11.9405         0.956123
    9          10.0035         0.837782
   10          8.81285         0.880973
   11          8.81096         0.999786
   12          7.93071         0.900096
   13           6.8519         0.863971
   14          6.90683          1.00802
   15          6.54098         0.947031
   16          5.82022         0.889808
   17           5.8047         0.997334
   18           5.5506         0.956226
   19          5.03794         0.907637
   20           4.9841         0.989315
   21          4.62475         0.927899
   22          4.29056          0.92774
   23          4.24091         0.988429
   24          3.90911          0.92176
   25          3.69923         0.946311
   26          3.67799         0.994257
   27          3.39982         0.924369
   28          3.17815         0.934802
   29          3.14506         0.989587
   30          2.91465          0.92674
   31          2.79183          0.95786
   32          2.85498          1.02262
   33          2.88165          1.00934
   34          3.02951          1.05131
   35          3.24087          1.06977
   36          3.08788         0.952796
   37          2.66972         0.864579
   38          2.10454         0.788302
   39          1.53267         0.728268
   40          1.23031         0.802719
   41          1.09324         0.888592
   42          1.01235         0.926008
   43          0.93168         0.920315
   44         0.792825         0.850963
   45         0.642567         0.810478
   46         0.559494         0.870716
   47         0.487962          0.87215
   48         0.404054         0.828044
   49         0.337218         0.834587
   50         0.278193         0.824964
   51         0.232816         0.836886
   52         0.201875           0.8671
   53         0.171515         0.849609
   54         0.146252         0.852709
   55         0.126367         0.864035
   56         0.104963          0.83062
   57        0.0869017         0.827929
   58        0.0726089          0.83553
   59        0.0583488         0.803604
   60        0.0472709         0.810143
   61        0.0380278         0.804467
   62        0.0297445         0.782178
   63        0.0233837         0.786152
=== rate=0.863083, T=3.06936, TIT=0.04872, IT=63

 Elapsed time: 3.06936
Rank 0: Matrix-vector product took 0.0157242 seconds
Rank 1: Matrix-vector product took 0.0148402 seconds
Rank 2: Matrix-vector product took 0.014566 seconds
Rank 3: Matrix-vector product took 0.0152435 seconds
Rank 4: Matrix-vector product took 0.0152872 seconds
Rank 5: Matrix-vector product took 0.0146618 seconds
Rank 6: Matrix-vector product took 0.0138272 seconds
Rank 7: Matrix-vector product took 0.0144547 seconds
Rank 8: Matrix-vector product took 0.0146293 seconds
Rank 9: Matrix-vector product took 0.014166 seconds
Rank 10: Matrix-vector product took 0.0152238 seconds
Rank 11: Matrix-vector product took 0.0146073 seconds
Rank 12: Matrix-vector product took 0.015152 seconds
Rank 13: Matrix-vector product took 0.0144974 seconds
Rank 14: Matrix-vector product took 0.0156197 seconds
Rank 15: Matrix-vector product took 0.0150908 seconds
Rank 16: Matrix-vector product took 0.0152546 seconds
Rank 17: Matrix-vector product took 0.015949 seconds
Rank 18: Matrix-vector product took 0.0152994 seconds
Rank 19: Matrix-vector product took 0.0146069 seconds
Rank 20: Matrix-vector product took 0.0148485 seconds
Rank 21: Matrix-vector product took 0.0142254 seconds
Rank 22: Matrix-vector product took 0.0153413 seconds
Rank 23: Matrix-vector product took 0.014979 seconds
Rank 24: Matrix-vector product took 0.0146336 seconds
Rank 25: Matrix-vector product took 0.0153428 seconds
Rank 26: Matrix-vector product took 0.0144317 seconds
Rank 27: Matrix-vector product took 0.0151875 seconds
Rank 28: Matrix-vector product took 0.0154342 seconds
Rank 29: Matrix-vector product took 0.0158467 seconds
Rank 30: Matrix-vector product took 0.0154047 seconds
Rank 31: Matrix-vector product took 0.0149127 seconds
Rank 32: Matrix-vector product took 0.0153129 seconds
Rank 33: Matrix-vector product took 0.0162037 seconds
Rank 34: Matrix-vector product took 0.0148635 seconds
Rank 35: Matrix-vector product took 0.015398 seconds
Rank 36: Matrix-vector product took 0.0147397 seconds
Rank 37: Matrix-vector product took 0.0152966 seconds
Rank 38: Matrix-vector product took 0.0143629 seconds
Rank 39: Matrix-vector product took 0.0147838 seconds
Rank 40: Matrix-vector product took 0.0150553 seconds
Rank 41: Matrix-vector product took 0.0146501 seconds
Rank 42: Matrix-vector product took 0.0154529 seconds
Rank 43: Matrix-vector product took 0.0161268 seconds
Rank 44: Matrix-vector product took 0.0152406 seconds
Rank 45: Matrix-vector product took 0.0146919 seconds
Rank 46: Matrix-vector product took 0.0147652 seconds
Rank 47: Matrix-vector product took 0.0151543 seconds
Rank 48: Matrix-vector product took 0.015121 seconds
Rank 49: Matrix-vector product took 0.0157896 seconds
Rank 50: Matrix-vector product took 0.0150225 seconds
Rank 51: Matrix-vector product took 0.0145418 seconds
Rank 52: Matrix-vector product took 0.0139859 seconds
Rank 53: Matrix-vector product took 0.0150152 seconds
Rank 54: Matrix-vector product took 0.0146299 seconds
Rank 55: Matrix-vector product took 0.0152144 seconds
Rank 56: Matrix-vector product took 0.0149458 seconds
Rank 57: Matrix-vector product took 0.0144792 seconds
Rank 58: Matrix-vector product took 0.0147457 seconds
Rank 59: Matrix-vector product took 0.0153938 seconds
Rank 60: Matrix-vector product took 0.0154794 seconds
Rank 61: Matrix-vector product took 0.0155065 seconds
Rank 62: Matrix-vector product took 0.0155082 seconds
Rank 63: Matrix-vector product took 0.0150141 seconds
Average time for Matrix-vector product is 0.0150278 seconds

Rank 0: copyOwnerToAll took 0.000516999 seconds
Rank 1: copyOwnerToAll took 0.000455079 seconds
Rank 2: copyOwnerToAll took 0.00030926 seconds
Rank 3: copyOwnerToAll took 0.000525619 seconds
Rank 4: copyOwnerToAll took 0.000381879 seconds
Rank 5: copyOwnerToAll took 0.000376939 seconds
Rank 6: copyOwnerToAll took 0.00023037 seconds
Rank 7: copyOwnerToAll took 0.00027738 seconds
Rank 8: copyOwnerToAll took 0.00025586 seconds
Rank 9: copyOwnerToAll took 0.00024956 seconds
Rank 10: copyOwnerToAll took 0.000537629 seconds
Rank 11: copyOwnerToAll took 0.00036397 seconds
Rank 12: copyOwnerToAll took 0.000619999 seconds
Rank 13: copyOwnerToAll took 0.000446799 seconds
Rank 14: copyOwnerToAll took 0.000560679 seconds
Rank 15: copyOwnerToAll took 0.00033258 seconds
Rank 16: copyOwnerToAll took 0.00046013 seconds
Rank 17: copyOwnerToAll took 0.00061837 seconds
Rank 18: copyOwnerToAll took 0.00055331 seconds
Rank 19: copyOwnerToAll took 0.00042101 seconds
Rank 20: copyOwnerToAll took 0.00042833 seconds
Rank 21: copyOwnerToAll took 0.00041499 seconds
Rank 22: copyOwnerToAll took 0.0004496 seconds
Rank 23: copyOwnerToAll took 0.00043466 seconds
Rank 24: copyOwnerToAll took 0.00034628 seconds
Rank 25: copyOwnerToAll took 0.00045134 seconds
Rank 26: copyOwnerToAll took 0.00022132 seconds
Rank 27: copyOwnerToAll took 0.00045202 seconds
Rank 28: copyOwnerToAll took 0.0005618 seconds
Rank 29: copyOwnerToAll took 0.00057256 seconds
Rank 30: copyOwnerToAll took 0.00047692 seconds
Rank 31: copyOwnerToAll took 0.00033756 seconds
Rank 32: copyOwnerToAll took 0.00038277 seconds
Rank 33: copyOwnerToAll took 0.00057167 seconds
Rank 34: copyOwnerToAll took 0.0003621 seconds
Rank 35: copyOwnerToAll took 0.00047289 seconds
Rank 36: copyOwnerToAll took 0.00034194 seconds
Rank 37: copyOwnerToAll took 0.00041172 seconds
Rank 38: copyOwnerToAll took 0.00024392 seconds
Rank 39: copyOwnerToAll took 0.00024499 seconds
Rank 40: copyOwnerToAll took 0.00040853 seconds
Rank 41: copyOwnerToAll took 0.00041696 seconds
Rank 42: copyOwnerToAll took 0.00043176 seconds
Rank 43: copyOwnerToAll took 0.00065221 seconds
Rank 44: copyOwnerToAll took 0.00046001 seconds
Rank 45: copyOwnerToAll took 0.00046285 seconds
Rank 46: copyOwnerToAll took 0.00046442 seconds
Rank 47: copyOwnerToAll took 0.00047079 seconds
Rank 48: copyOwnerToAll took 0.000449371 seconds
Rank 49: copyOwnerToAll took 0.000562571 seconds
Rank 50: copyOwnerToAll took 0.000477241 seconds
Rank 51: copyOwnerToAll took 0.00026476 seconds
Rank 52: copyOwnerToAll took 0.00025493 seconds
Rank 53: copyOwnerToAll took 0.000351611 seconds
Rank 54: copyOwnerToAll took 0.00028021 seconds
Rank 55: copyOwnerToAll took 0.000572851 seconds
Rank 56: copyOwnerToAll took 0.00030432 seconds
Rank 57: copyOwnerToAll took 0.0002806 seconds
Rank 58: copyOwnerToAll took 0.00030838 seconds
Rank 59: copyOwnerToAll took 0.000484151 seconds
Rank 60: copyOwnerToAll took 0.000554751 seconds
Rank 61: copyOwnerToAll took 0.000493421 seconds
Rank 62: copyOwnerToAll took 0.000462651 seconds
Rank 63: copyOwnerToAll took 0.000418111 seconds
Average time for copyOwnertoAll is 0.000421254 seconds
Number of cores/ranks per node is: 16
Scotch Node cell partitioner
 Cell on rank 0 before loadbalancing: 247808
Cell on rank 1 before loadbalancing: 250352
Cell on rank 2 before loadbalancing: 252288
Cell on rank 3 before loadbalancing: 249552
			Rank 0	Rank 1	Rank 2	Rank 3	Rank 4	Rank 5	Rank 6	Rank 7	Rank 8	Rank 9	Rank 10	Rank 11	Rank 12	Rank 13	Rank 14	Rank 15	Rank 16	Rank 17	Rank 18	Rank 19	Rank 20	Rank 21	Rank 22	Rank 23	Rank 24	Rank 25	Rank 26	Rank 27	Rank 28	Rank 29	Rank 30	Rank 31	Rank 32	Rank 33	Rank 34	Rank 35	Rank 36	Rank 37	Rank 38	Rank 39	Rank 40	Rank 41	Rank 42	Rank 43	Rank 44	Rank 45	Rank 46	Rank 47	Rank 48	Rank 49	Rank 50	Rank 51	Rank 52	Rank 53	Rank 54	Rank 55	Rank 56	Rank 57	Rank 58	Rank 59	Rank 60	Rank 61	Rank 62	Rank 63	
From rank 0 to: 	0	632	111	587	545	53	0	66	0	0	17	0	0	0	451	0	0	429	0	0	0	0	202	0	0	0	0	0	0	0	0	0	0	402	0	81	0	15	0	0	0	0	0	0	0	0	0	0	0	0	0	0	0	0	0	0	0	0	0	0	84	45	0	0	
From rank 1 to: 	632	0	579	0	0	509	84	0	0	0	0	0	0	0	0	0	0	0	0	0	0	0	483	0	0	0	0	0	0	0	0	0	0	0	0	414	21	0	0	0	0	0	0	0	0	0	0	0	0	0	0	0	0	0	0	0	0	0	0	0	0	257	0	0	
From rank 2 to: 	110	579	0	496	0	1	520	76	0	0	0	0	0	0	0	0	0	0	0	0	520	0	73	0	0	0	0	0	0	0	0	0	0	0	0	0	0	0	0	0	0	0	0	0	0	0	0	0	0	0	0	0	0	0	0	0	0	0	0	0	0	0	0	0	
From rank 3 to: 	586	0	496	0	39	0	0	456	81	0	613	0	0	0	73	0	335	77	0	0	209	0	5	0	0	0	0	0	0	0	0	0	0	0	0	0	0	0	0	0	0	0	0	0	0	0	0	0	0	0	0	0	0	0	0	0	0	0	0	0	0	0	0	0	
From rank 4 to: 	545	0	0	37	0	685	0	566	105	0	0	0	0	0	176	450	0	0	0	0	0	0	0	0	0	0	0	0	0	0	0	0	0	0	0	2	16	573	0	0	0	0	0	0	0	0	0	0	0	0	0	0	0	0	0	0	0	0	0	0	0	0	0	0	
From rank 5 to: 	62	510	1	0	685	0	628	28	0	0	0	0	0	0	0	0	0	0	0	0	0	0	0	0	0	0	0	0	0	0	0	0	0	0	0	22	606	0	0	0	0	0	0	0	0	0	0	0	0	0	0	0	0	0	0	0	0	0	0	0	0	0	0	0	
From rank 6 to: 	0	71	521	0	0	629	0	607	0	0	0	0	0	0	0	0	0	0	0	0	0	0	0	0	0	0	0	0	0	0	0	0	0	0	0	0	0	0	0	0	0	0	0	0	0	0	0	0	0	0	0	0	0	0	0	0	0	0	0	0	0	0	0	0	
From rank 7 to: 	52	0	85	462	566	28	607	0	548	0	0	0	0	0	0	18	0	0	0	0	0	0	0	0	0	0	0	0	0	0	0	0	0	0	0	0	0	0	0	0	0	0	0	0	0	0	0	0	0	0	0	0	0	0	0	0	0	0	0	0	0	0	0	0	
From rank 8 to: 	0	0	0	82	106	0	0	543	0	543	598	5	0	0	97	553	0	0	0	0	0	0	0	0	0	0	0	0	0	0	0	0	0	0	0	0	0	0	0	0	0	0	0	0	0	0	0	0	0	0	0	0	0	0	0	0	0	0	0	0	0	0	0	0	
From rank 9 to: 	0	0	0	0	0	0	0	0	543	0	20	631	144	430	0	108	0	0	0	0	0	0	0	0	0	0	0	0	0	0	0	0	0	0	0	0	0	0	0	0	0	0	0	0	0	0	0	0	0	0	0	0	0	0	0	0	0	0	0	0	0	0	0	0	
From rank 10 to: 	17	0	0	613	0	0	0	0	600	15	0	610	123	0	501	9	356	60	0	0	0	0	0	0	0	0	0	0	0	43	120	106	0	0	0	0	0	0	0	0	0	0	0	0	0	0	0	0	0	0	0	0	0	0	0	0	0	0	0	0	0	0	0	0	
From rank 11 to: 	0	0	0	0	0	0	0	0	5	631	610	0	551	0	0	0	0	0	0	0	0	0	0	0	0	0	0	0	0	0	194	449	0	0	0	0	0	0	0	0	0	0	0	0	0	0	0	0	0	0	0	0	0	0	0	0	0	0	0	0	0	0	0	0	
From rank 12 to: 	0	0	0	0	0	0	0	0	0	134	104	551	0	652	513	59	0	0	0	0	0	0	0	0	0	0	0	0	531	67	140	0	0	0	0	0	0	0	0	0	313	0	0	91	50	0	0	4	0	0	0	0	0	0	0	0	0	0	0	0	0	0	0	0	
From rank 13 to: 	0	0	0	0	0	0	0	0	0	430	0	0	660	0	40	460	0	0	0	0	0	0	0	0	0	0	0	0	0	0	0	0	0	0	0	0	0	0	0	0	29	0	0	0	633	0	0	82	0	0	0	0	0	0	0	0	0	0	0	0	0	0	0	0	
From rank 14 to: 	460	0	0	74	177	0	0	0	95	0	499	0	513	40	0	652	0	133	0	0	0	0	0	0	0	0	0	0	0	396	5	0	0	132	0	0	0	49	0	0	0	0	0	289	0	0	0	159	0	0	0	0	0	0	0	0	0	0	0	0	0	0	0	0	
From rank 15 to: 	0	0	0	0	456	0	0	18	562	101	9	0	59	465	650	0	0	0	0	0	0	0	0	0	0	0	0	0	0	0	0	0	0	0	0	0	0	129	0	0	0	0	0	0	0	0	0	446	0	0	0	0	0	0	0	0	0	0	0	0	0	0	0	0	
From rank 16 to: 	0	0	0	331	0	0	0	0	0	0	357	0	0	0	0	0	0	565	14	485	444	0	0	0	0	0	0	198	0	51	173	464	0	0	0	0	0	0	0	0	0	0	0	0	0	0	0	0	0	0	0	0	0	0	0	0	0	0	0	0	0	0	0	0	
From rank 17 to: 	439	0	0	73	0	0	0	0	0	0	53	0	0	0	133	0	577	0	471	37	52	0	414	0	0	95	0	99	0	737	66	0	0	81	0	0	0	0	0	0	0	0	0	0	0	0	0	0	0	12	0	0	0	0	0	0	0	0	0	0	473	0	0	0	
From rank 18 to: 	0	0	0	0	0	0	0	0	0	0	0	0	0	0	0	0	14	474	0	592	37	114	118	590	0	379	0	198	0	0	0	0	0	0	0	0	0	0	0	0	0	0	0	0	0	0	0	0	0	0	39	0	0	0	0	0	0	0	0	453	120	0	0	0	
From rank 19 to: 	0	0	0	0	0	0	0	0	0	0	0	0	0	0	0	0	487	40	592	0	108	434	0	0	0	0	0	695	0	0	0	0	0	0	0	0	0	0	0	0	0	0	0	0	0	0	0	0	0	0	0	0	0	0	0	0	0	0	0	0	0	0	0	0	
From rank 20 to: 	0	0	520	209	0	0	0	0	0	0	0	0	0	0	0	0	444	52	40	106	0	622	658	33	0	0	0	0	0	0	0	0	0	0	0	0	0	0	0	0	0	0	0	0	0	0	0	0	0	0	0	0	0	0	0	0	0	0	0	0	0	0	0	0	
From rank 21 to: 	0	0	0	0	0	0	0	0	0	0	0	0	0	0	0	0	0	0	125	434	623	0	12	633	0	0	0	0	0	0	0	0	0	0	0	0	0	0	0	0	0	0	0	0	0	0	0	0	0	0	0	0	0	0	0	0	0	0	0	0	0	0	0	0	
From rank 22 to: 	202	483	73	5	0	0	0	0	0	0	0	0	0	0	0	0	0	430	124	0	658	12	0	671	0	0	0	0	0	0	0	0	0	0	0	0	0	0	0	0	0	0	0	0	0	0	0	0	0	0	0	0	0	0	0	0	0	0	81	0	96	439	0	0	
From rank 23 to: 	0	0	0	0	0	0	0	0	0	0	0	0	0	0	0	0	0	0	590	0	33	634	671	0	0	0	0	0	0	0	0	0	0	0	0	0	0	0	0	0	0	0	0	0	0	0	0	0	0	0	0	0	0	0	0	0	0	0	585	102	4	0	0	0	
From rank 24 to: 	0	0	0	0	0	0	0	0	0	0	0	0	0	0	0	0	0	0	0	0	0	0	0	0	0	601	527	149	360	0	229	0	0	0	0	0	0	0	0	0	0	0	0	0	0	0	0	0	0	0	0	0	0	0	454	108	0	0	0	0	0	0	0	0	
From rank 25 to: 	0	0	0	0	0	0	0	0	0	0	0	0	0	0	0	0	0	113	378	0	0	0	0	0	607	0	0	673	108	475	25	0	0	0	0	0	0	0	0	0	0	0	0	0	0	0	0	0	0	0	637	0	0	0	132	53	0	0	0	0	8	0	0	0	
From rank 26 to: 	0	0	0	0	0	0	0	0	0	0	0	0	0	0	0	0	0	0	0	0	0	0	0	0	527	0	0	641	0	0	210	461	0	0	0	0	0	0	0	0	0	0	0	0	0	0	0	0	0	0	0	0	0	0	0	0	0	0	0	0	0	0	0	0	
From rank 27 to: 	0	0	0	0	0	0	0	0	0	0	0	0	0	0	0	0	185	99	198	695	0	0	0	0	149	673	635	0	0	58	209	206	0	0	0	0	0	0	0	0	0	0	0	0	0	0	0	0	0	0	0	0	0	0	0	0	0	0	0	0	0	0	0	0	
From rank 28 to: 	0	0	0	0	0	0	0	0	0	0	0	0	542	0	0	0	0	0	0	0	0	0	0	0	354	106	0	0	0	647	731	0	0	0	0	0	0	0	0	0	373	0	0	36	0	0	0	0	0	0	0	0	0	0	0	440	0	0	0	0	0	0	0	0	
From rank 29 to: 	0	0	0	0	0	0	0	0	0	0	39	0	70	0	407	0	50	732	0	0	0	0	0	0	0	476	0	58	647	0	472	0	0	8	0	0	0	0	0	0	0	0	0	266	0	0	0	0	0	393	67	0	0	0	0	88	0	0	0	0	36	0	0	0	
From rank 30 to: 	0	0	0	0	0	0	0	0	0	0	116	201	140	0	5	0	171	66	0	0	0	0	0	0	248	31	210	204	731	453	0	862	0	0	0	0	0	0	0	0	0	0	0	0	0	0	0	0	0	0	0	0	0	0	0	0	0	0	0	0	0	0	0	0	
From rank 31 to: 	0	0	0	0	0	0	0	0	0	0	117	449	0	0	0	0	464	0	0	0	0	0	0	0	0	0	461	216	0	0	871	0	0	0	0	0	0	0	0	0	0	0	0	0	0	0	0	0	0	0	0	0	0	0	0	0	0	0	0	0	0	0	0	0	
From rank 32 to: 	0	0	0	0	0	0	0	0	0	0	0	0	0	0	0	0	0	0	0	0	0	0	0	0	0	0	0	0	0	0	0	0	0	545	616	4	0	139	0	627	0	0	451	46	0	0	247	30	187	0	0	0	0	0	0	0	0	0	0	0	0	0	144	0	
From rank 33 to: 	402	0	0	0	0	0	0	0	0	0	0	0	0	0	138	0	0	73	0	0	0	0	0	0	0	0	0	0	0	14	0	0	550	0	55	539	0	575	0	0	0	0	85	602	0	0	0	46	4	127	0	0	0	0	0	0	0	0	0	0	349	15	290	0	
From rank 34 to: 	0	0	0	0	0	0	0	0	0	0	0	0	0	0	0	0	0	0	0	0	0	0	0	0	0	0	0	0	0	0	0	0	615	49	0	575	49	19	591	90	0	0	0	0	0	0	0	0	0	0	0	0	0	0	0	0	0	0	0	0	0	0	200	421	
From rank 35 to: 	81	414	0	0	2	22	0	0	0	0	0	0	0	0	0	0	0	0	0	0	0	0	0	0	0	0	0	0	0	0	0	0	4	539	576	0	620	131	0	0	0	0	0	0	0	0	0	0	0	0	0	0	0	0	0	0	0	0	0	0	0	532	77	199	
From rank 36 to: 	0	26	0	0	16	606	0	0	0	0	0	0	0	0	0	0	0	0	0	0	0	0	0	0	0	0	0	0	0	0	0	0	0	0	58	619	0	546	586	54	0	0	0	0	0	0	0	0	0	0	0	0	0	0	0	0	0	0	0	0	0	0	0	0	
From rank 37 to: 	15	0	0	0	573	0	0	0	0	0	0	0	0	0	49	129	0	0	0	0	0	0	0	0	0	0	0	0	0	0	0	0	140	578	19	131	548	0	0	562	0	0	0	0	0	0	0	434	0	0	0	0	0	0	0	0	0	0	0	0	0	0	0	0	
From rank 38 to: 	0	0	0	0	0	0	0	0	0	0	0	0	0	0	0	0	0	0	0	0	0	0	0	0	0	0	0	0	0	0	0	0	0	0	604	0	588	0	0	597	0	0	0	0	0	0	0	0	0	0	0	0	0	0	0	0	0	0	0	0	0	0	0	0	
From rank 39 to: 	0	0	0	0	0	0	0	0	0	0	0	0	0	0	0	0	0	0	0	0	0	0	0	0	0	0	0	0	0	0	0	0	613	0	90	0	54	567	595	0	0	0	0	0	0	0	474	165	0	0	0	0	0	0	0	0	0	0	0	0	0	0	0	0	
From rank 40 to: 	0	0	0	0	0	0	0	0	0	0	0	0	316	29	0	0	0	0	0	0	0	0	0	0	0	0	0	0	372	0	0	0	0	0	0	0	0	0	0	0	0	633	37	574	514	0	0	0	0	0	0	0	0	0	0	528	0	0	0	0	0	0	0	0	
From rank 41 to: 	0	0	0	0	0	0	0	0	0	0	0	0	0	0	0	0	0	0	0	0	0	0	0	0	0	0	0	0	0	0	0	0	0	0	0	0	0	0	0	0	633	0	593	10	56	525	0	0	0	0	0	0	0	498	0	42	0	0	0	0	0	0	0	0	
From rank 42 to: 	0	0	0	0	0	0	0	0	0	0	0	0	0	0	0	0	0	0	0	0	0	0	0	0	0	0	0	0	0	0	0	0	445	88	0	0	0	0	0	0	42	593	0	626	0	110	415	0	344	206	0	0	0	211	0	25	0	0	0	0	0	0	0	0	
From rank 43 to: 	0	0	0	0	0	0	0	0	0	0	0	0	91	0	289	0	0	0	0	0	0	0	0	0	0	0	0	0	38	266	0	0	46	611	0	0	0	0	0	0	574	10	631	0	129	23	106	525	0	363	0	0	0	0	0	89	0	0	0	0	0	0	0	0	
From rank 44 to: 	0	0	0	0	0	0	0	0	0	0	0	0	50	634	0	0	0	0	0	0	0	0	0	0	0	0	0	0	0	0	0	0	0	0	0	0	0	0	0	0	520	65	0	133	0	668	12	590	0	0	0	0	0	0	0	0	0	0	0	0	0	0	0	0	
From rank 45 to: 	0	0	0	0	0	0	0	0	0	0	0	0	0	0	0	0	0	0	0	0	0	0	0	0	0	0	0	0	0	0	0	0	0	0	0	0	0	0	0	0	0	504	110	20	662	0	633	57	0	0	0	0	0	0	0	0	0	0	0	0	0	0	0	0	
From rank 46 to: 	0	0	0	0	0	0	0	0	0	0	0	0	0	0	0	0	0	0	0	0	0	0	0	0	0	0	0	0	0	0	0	0	235	0	0	0	0	0	0	472	0	0	415	122	12	627	0	592	0	0	0	0	0	0	0	0	0	0	0	0	0	0	0	0	
From rank 47 to: 	0	0	0	0	0	0	0	0	0	0	0	0	4	72	159	446	0	0	0	0	0	0	0	0	0	0	0	0	0	0	0	0	35	52	0	0	0	430	0	177	0	0	0	525	592	59	576	0	0	0	0	0	0	0	0	0	0	0	0	0	0	0	0	0	
From rank 48 to: 	0	0	0	0	0	0	0	0	0	0	0	0	0	0	0	0	0	0	0	0	0	0	0	0	0	0	0	0	0	0	0	0	187	4	0	0	0	0	0	0	0	0	349	0	0	0	0	0	0	603	2	449	0	345	0	0	312	0	0	0	56	0	667	0	
From rank 49 to: 	0	0	0	0	0	0	0	0	0	0	0	0	0	0	0	0	0	12	0	0	0	0	0	0	0	0	0	0	0	394	0	0	0	122	0	0	0	0	0	0	0	0	209	370	0	0	0	0	611	0	544	143	0	248	0	440	0	0	0	0	526	0	201	0	
From rank 50 to: 	0	0	0	0	0	0	0	0	0	0	0	0	0	0	0	0	0	0	39	0	0	0	0	0	0	644	0	0	0	62	0	0	0	0	0	0	0	0	0	0	0	0	0	0	0	0	0	0	2	549	0	497	0	10	480	165	4	0	0	529	224	0	0	0	
From rank 51 to: 	0	0	0	0	0	0	0	0	0	0	0	0	0	0	0	0	0	0	0	0	0	0	0	0	0	0	0	0	0	0	0	0	0	0	0	0	0	0	0	0	0	0	0	0	0	0	0	0	458	141	490	0	373	177	128	0	437	0	0	88	0	0	0	0	
From rank 52 to: 	0	0	0	0	0	0	0	0	0	0	0	0	0	0	0	0	0	0	0	0	0	0	0	0	0	0	0	0	0	0	0	0	0	0	0	0	0	0	0	0	0	0	0	0	0	0	0	0	0	0	0	373	0	645	647	165	0	0	0	0	0	0	0	0	
From rank 53 to: 	0	0	0	0	0	0	0	0	0	0	0	0	0	0	0	0	0	0	0	0	0	0	0	0	0	0	0	0	0	0	0	0	0	0	0	0	0	0	0	0	0	498	211	0	0	0	0	0	345	236	10	185	646	0	3	567	0	0	0	0	0	0	0	0	
From rank 54 to: 	0	0	0	0	0	0	0	0	0	0	0	0	0	0	0	0	0	0	0	0	0	0	0	0	452	132	0	0	0	0	0	0	0	0	0	0	0	0	0	0	0	0	0	0	0	0	0	0	0	0	482	133	645	3	0	630	0	0	0	0	0	0	0	0	
From rank 55 to: 	0	0	0	0	0	0	0	0	0	0	0	0	0	0	0	0	0	0	0	0	0	0	0	0	108	53	0	0	426	88	0	0	0	0	0	0	0	0	0	0	523	42	25	89	0	0	0	0	0	440	180	0	150	567	630	0	0	0	0	0	0	0	0	0	
From rank 56 to: 	0	0	0	0	0	0	0	0	0	0	0	0	0	0	0	0	0	0	0	0	0	0	0	0	0	0	0	0	0	0	0	0	0	0	0	0	0	0	0	0	0	0	0	0	0	0	0	0	305	0	4	435	0	0	0	0	0	739	0	526	102	0	439	39	
From rank 57 to: 	0	0	0	0	0	0	0	0	0	0	0	0	0	0	0	0	0	0	0	0	0	0	0	0	0	0	0	0	0	0	0	0	0	0	0	0	0	0	0	0	0	0	0	0	0	0	0	0	0	0	0	0	0	0	0	0	739	0	544	113	0	5	6	578	
From rank 58 to: 	0	0	0	0	0	0	0	0	0	0	0	0	0	0	0	0	0	0	0	0	0	0	81	585	0	0	0	0	0	0	0	0	0	0	0	0	0	0	0	0	0	0	0	0	0	0	0	0	0	0	0	0	0	0	0	0	0	544	0	576	71	599	0	55	
From rank 59 to: 	0	0	0	0	0	0	0	0	0	0	0	0	0	0	0	0	0	0	470	0	0	0	0	102	0	0	0	0	0	0	0	0	0	0	0	0	0	0	0	0	0	0	0	0	0	0	0	0	0	0	540	88	0	0	0	0	527	113	582	0	560	50	0	9	
From rank 60 to: 	87	0	0	0	0	0	0	0	0	0	0	0	0	0	0	0	0	470	120	0	0	0	96	4	0	8	0	0	0	36	0	0	0	357	0	0	0	0	0	0	0	0	0	0	0	0	0	0	56	525	220	0	0	0	0	0	106	0	66	574	0	569	495	4	
From rank 61 to: 	45	268	0	0	0	0	0	0	0	0	0	0	0	0	0	0	0	0	0	0	0	0	439	0	0	0	0	0	0	0	0	0	0	15	0	534	0	0	0	0	0	0	0	0	0	0	0	0	0	0	0	0	0	0	0	0	0	5	587	50	574	0	201	496	
From rank 62 to: 	0	0	0	0	0	0	0	0	0	0	0	0	0	0	0	0	0	0	0	0	0	0	0	0	0	0	0	0	0	0	0	0	144	304	200	77	0	0	0	0	0	0	0	0	0	0	0	0	655	191	0	0	0	0	0	0	439	6	0	0	489	202	0	815	
From rank 63 to: 	0	0	0	0	0	0	0	0	0	0	0	0	0	0	0	0	0	0	0	0	0	0	0	0	0	0	0	0	0	0	0	0	0	0	421	199	0	0	0	0	0	0	0	0	0	0	0	0	0	0	0	0	0	0	0	0	41	577	59	12	4	491	816	0	
loadb
After loadbalancing process 6 has 17211 cells.
After loadbalancing process 38 has 17480 cells.
After loadbalancing process 39 has 18275 cells.
After loadbalancing process 21 has 17472 cells.
After loadbalancing process 52 has 17298 cells.
After loadbalancing process 19 has 18028 cells.
After loadbalancing process 9 has 17364 cells.
After loadbalancing process 57 has 17671 cells.
After loadbalancing process 53 has 18227 cells.
After loadbalancing process 51 has 17755 cells.
After loadbalancing process 45 has 17911 cells.
After loadbalancing process 46 has 18142 cells.
After loadbalancing process 7 has 18008 cells.
After loadbalancing process 26 has 17608 cells.
After loadbalancing process 41 has 18034 cells.
After loadbalancing process 27 has 18775 cells.
After loadbalancing process 8 has 18055 cells.
After loadbalancing process 40 has 18749 cells.
After loadbalancing process 16 has 18873 cells.
After loadbalancing process 56 has 18341 cells.
After loadbalancing process 32 has 18804 cells.
After loadbalancing process 58 has 18263 cells.
After loadbalancing process 4 has 18797 cells.
After loadbalancing process 11 has 17932 cells.
After loadbalancing process 1 has 18427 cells.
After loadbalancing process 63 has 18192 cells.
After loadbalancing process 42 has 19030 cells.
After loadbalancing process 47 has 18842 cells.
After loadbalancing process 22 has 18765 cells.
After loadbalancing process 10 has 18630 cells.
After loadbalancing process 25 has 18959 cells.
After loadbalancing process 37 has 18792 cells.
After loadbalancing process 12 has 18556 cells.
After loadbalancing process 48 has 18712 cells.
After loadbalancing process 61 has 18929 cells.
After loadbalancing process 54 has 17919 cells.
After loadbalancing process 29 has 19385 cells.
After loadbalancing process 31 has 18368 cells.
After loadbalancing process 24 has 18023 cells.
After loadbalancing process 17 has 19528 cells.
After loadbalancing process 15 has 18422 cells.
After loadbalancing process 20 has 18175 cells.
After loadbalancing process 23 has 18124 cells.
After loadbalancing process 36 has 18283 cells.
After loadbalancing process 50 has 18671 cells.
After loadbalancing process 2 has 17874 cells.
After loadbalancing process 13 has 17693 cells.
After loadbalancing process 18 has 18871 cells.
After loadbalancing process 44 has 18597 cells.
After loadbalancing process 34 has 18239 cells.
After loadbalancing process 33 has 19789 cells.
After loadbalancing process 5 has 17876 cells.
After loadbalancing process 28 has 18866 cells.
After loadbalancing process 59 has 18758 cells.
After loadbalancing process 55 has 18855 cells.
After loadbalancing process 35 has 18880 cells.
After loadbalancing process 3 has 18612 cells.
After loadbalancing process 30 has 18951 cells.
After loadbalancing process 43 has 19699 cells.
After loadbalancing process 49 has 19383 cells.
After loadbalancing process 62 has 18964 cells.
After loadbalancing process 14 has 19155 cells.
After loadbalancing process 0 has 19258 cells.
After loadbalancing process 60 has 19509 cells.
			Rank 0	Rank 1	Rank 2	Rank 3	Rank 4	Rank 5	Rank 6	Rank 7	Rank 8	Rank 9	Rank 10	Rank 11	Rank 12	Rank 13	Rank 14	Rank 15	Rank 16	Rank 17	Rank 18	Rank 19	Rank 20	Rank 21	Rank 22	Rank 23	Rank 24	Rank 25	Rank 26	Rank 27	Rank 28	Rank 29	Rank 30	Rank 31	Rank 32	Rank 33	Rank 34	Rank 35	Rank 36	Rank 37	Rank 38	Rank 39	Rank 40	Rank 41	Rank 42	Rank 43	Rank 44	Rank 45	Rank 46	Rank 47	Rank 48	Rank 49	Rank 50	Rank 51	Rank 52	Rank 53	Rank 54	Rank 55	Rank 56	Rank 57	Rank 58	Rank 59	Rank 60	Rank 61	Rank 62	Rank 63	
Rank 0's ghost cells:	0	632	111	587	545	53	0	66	0	0	17	0	0	0	451	0	0	429	0	0	0	0	202	0	0	0	0	0	0	0	0	0	0	402	0	81	0	15	0	0	0	0	0	0	0	0	0	0	0	0	0	0	0	0	0	0	0	0	0	0	84	45	0	0	
Rank 1's ghost cells:	632	0	579	0	0	509	84	0	0	0	0	0	0	0	0	0	0	0	0	0	0	0	483	0	0	0	0	0	0	0	0	0	0	0	0	414	21	0	0	0	0	0	0	0	0	0	0	0	0	0	0	0	0	0	0	0	0	0	0	0	0	257	0	0	
Rank 2's ghost cells:	110	579	0	496	0	1	520	76	0	0	0	0	0	0	0	0	0	0	0	0	520	0	73	0	0	0	0	0	0	0	0	0	0	0	0	0	0	0	0	0	0	0	0	0	0	0	0	0	0	0	0	0	0	0	0	0	0	0	0	0	0	0	0	0	
Rank 3's ghost cells:	586	0	496	0	39	0	0	456	81	0	613	0	0	0	73	0	335	77	0	0	209	0	5	0	0	0	0	0	0	0	0	0	0	0	0	0	0	0	0	0	0	0	0	0	0	0	0	0	0	0	0	0	0	0	0	0	0	0	0	0	0	0	0	0	
Rank 4's ghost cells:	545	0	0	37	0	685	0	566	105	0	0	0	0	0	176	450	0	0	0	0	0	0	0	0	0	0	0	0	0	0	0	0	0	0	0	2	16	573	0	0	0	0	0	0	0	0	0	0	0	0	0	0	0	0	0	0	0	0	0	0	0	0	0	0	
Rank 5's ghost cells:	62	510	1	0	685	0	628	28	0	0	0	0	0	0	0	0	0	0	0	0	0	0	0	0	0	0	0	0	0	0	0	0	0	0	0	22	606	0	0	0	0	0	0	0	0	0	0	0	0	0	0	0	0	0	0	0	0	0	0	0	0	0	0	0	
Rank 6's ghost cells:	0	71	521	0	0	629	0	607	0	0	0	0	0	0	0	0	0	0	0	0	0	0	0	0	0	0	0	0	0	0	0	0	0	0	0	0	0	0	0	0	0	0	0	0	0	0	0	0	0	0	0	0	0	0	0	0	0	0	0	0	0	0	0	0	
Rank 7's ghost cells:	52	0	85	462	566	28	607	0	548	0	0	0	0	0	0	18	0	0	0	0	0	0	0	0	0	0	0	0	0	0	0	0	0	0	0	0	0	0	0	0	0	0	0	0	0	0	0	0	0	0	0	0	0	0	0	0	0	0	0	0	0	0	0	0	
Rank 8's ghost cells:	0	0	0	82	106	0	0	543	0	543	598	5	0	0	97	553	0	0	0	0	0	0	0	0	0	0	0	0	0	0	0	0	0	0	0	0	0	0	0	0	0	0	0	0	0	0	0	0	0	0	0	0	0	0	0	0	0	0	0	0	0	0	0	0	
Rank 9's ghost cells:	0	0	0	0	0	0	0	0	543	0	20	631	144	430	0	108	0	0	0	0	0	0	0	0	0	0	0	0	0	0	0	0	0	0	0	0	0	0	0	0	0	0	0	0	0	0	0	0	0	0	0	0	0	0	0	0	0	0	0	0	0	0	0	0	
Rank 10's ghost cells:	17	0	0	613	0	0	0	0	600	15	0	610	123	0	501	9	356	60	0	0	0	0	0	0	0	0	0	0	0	43	120	106	0	0	0	0	0	0	0	0	0	0	0	0	0	0	0	0	0	0	0	0	0	0	0	0	0	0	0	0	0	0	0	0	
Rank 11's ghost cells:	0	0	0	0	0	0	0	0	5	631	610	0	551	0	0	0	0	0	0	0	0	0	0	0	0	0	0	0	0	0	194	449	0	0	0	0	0	0	0	0	0	0	0	0	0	0	0	0	0	0	0	0	0	0	0	0	0	0	0	0	0	0	0	0	
Rank 12's ghost cells:	0	0	0	0	0	0	0	0	0	134	104	551	0	652	513	59	0	0	0	0	0	0	0	0	0	0	0	0	531	67	140	0	0	0	0	0	0	0	0	0	313	0	0	91	50	0	0	4	0	0	0	0	0	0	0	0	0	0	0	0	0	0	0	0	
Rank 13's ghost cells:	0	0	0	0	0	0	0	0	0	430	0	0	660	0	40	460	0	0	0	0	0	0	0	0	0	0	0	0	0	0	0	0	0	0	0	0	0	0	0	0	29	0	0	0	633	0	0	82	0	0	0	0	0	0	0	0	0	0	0	0	0	0	0	0	
Rank 14's ghost cells:	460	0	0	74	177	0	0	0	95	0	499	0	513	40	0	652	0	133	0	0	0	0	0	0	0	0	0	0	0	396	5	0	0	132	0	0	0	49	0	0	0	0	0	289	0	0	0	159	0	0	0	0	0	0	0	0	0	0	0	0	0	0	0	0	
Rank 15's ghost cells:	0	0	0	0	456	0	0	18	562	101	9	0	59	465	650	0	0	0	0	0	0	0	0	0	0	0	0	0	0	0	0	0	0	0	0	0	0	129	0	0	0	0	0	0	0	0	0	446	0	0	0	0	0	0	0	0	0	0	0	0	0	0	0	0	
Rank 16's ghost cells:	0	0	0	331	0	0	0	0	0	0	357	0	0	0	0	0	0	565	14	485	444	0	0	0	0	0	0	198	0	51	173	464	0	0	0	0	0	0	0	0	0	0	0	0	0	0	0	0	0	0	0	0	0	0	0	0	0	0	0	0	0	0	0	0	
Rank 17's ghost cells:	439	0	0	73	0	0	0	0	0	0	53	0	0	0	133	0	577	0	471	37	52	0	414	0	0	95	0	99	0	737	66	0	0	81	0	0	0	0	0	0	0	0	0	0	0	0	0	0	0	12	0	0	0	0	0	0	0	0	0	0	473	0	0	0	
Rank 18's ghost cells:	0	0	0	0	0	0	0	0	0	0	0	0	0	0	0	0	14	474	0	592	37	114	118	590	0	379	0	198	0	0	0	0	0	0	0	0	0	0	0	0	0	0	0	0	0	0	0	0	0	0	39	0	0	0	0	0	0	0	0	453	120	0	0	0	
Rank 19's ghost cells:	0	0	0	0	0	0	0	0	0	0	0	0	0	0	0	0	487	40	592	0	108	434	0	0	0	0	0	695	0	0	0	0	0	0	0	0	0	0	0	0	0	0	0	0	0	0	0	0	0	0	0	0	0	0	0	0	0	0	0	0	0	0	0	0	
Rank 20's ghost cells:	0	0	520	209	0	0	0	0	0	0	0	0	0	0	0	0	444	52	40	106	0	622	658	33	0	0	0	0	0	0	0	0	0	0	0	0	0	0	0	0	0	0	0	0	0	0	0	0	0	0	0	0	0	0	0	0	0	0	0	0	0	0	0	0	
Rank 21's ghost cells:	0	0	0	0	0	0	0	0	0	0	0	0	0	0	0	0	0	0	125	434	623	0	12	633	0	0	0	0	0	0	0	0	0	0	0	0	0	0	0	0	0	0	0	0	0	0	0	0	0	0	0	0	0	0	0	0	0	0	0	0	0	0	0	0	
Rank 22's ghost cells:	202	483	73	5	0	0	0	0	0	0	0	0	0	0	0	0	0	430	124	0	658	12	0	671	0	0	0	0	0	0	0	0	0	0	0	0	0	0	0	0	0	0	0	0	0	0	0	0	0	0	0	0	0	0	0	0	0	0	81	0	96	439	0	0	
Rank 23's ghost cells:	0	0	0	0	0	0	0	0	0	0	0	0	0	0	0	0	0	0	590	0	33	634	671	0	0	0	0	0	0	0	0	0	0	0	0	0	0	0	0	0	0	0	0	0	0	0	0	0	0	0	0	0	0	0	0	0	0	0	585	102	4	0	0	0	
Rank 24's ghost cells:	0	0	0	0	0	0	0	0	0	0	0	0	0	0	0	0	0	0	0	0	0	0	0	0	0	601	527	149	360	0	229	0	0	0	0	0	0	0	0	0	0	0	0	0	0	0	0	0	0	0	0	0	0	0	454	108	0	0	0	0	0	0	0	0	
Rank 25's ghost cells:	0	0	0	0	0	0	0	0	0	0	0	0	0	0	0	0	0	113	378	0	0	0	0	0	607	0	0	673	108	475	25	0	0	0	0	0	0	0	0	0	0	0	0	0	0	0	0	0	0	0	637	0	0	0	132	53	0	0	0	0	8	0	0	0	
Rank 26's ghost cells:	0	0	0	0	0	0	0	0	0	0	0	0	0	0	0	0	0	0	0	0	0	0	0	0	527	0	0	641	0	0	210	461	0	0	0	0	0	0	0	0	0	0	0	0	0	0	0	0	0	0	0	0	0	0	0	0	0	0	0	0	0	0	0	0	
Rank 27's ghost cells:	0	0	0	0	0	0	0	0	0	0	0	0	0	0	0	0	185	99	198	695	0	0	0	0	149	673	635	0	0	58	209	206	0	0	0	0	0	0	0	0	0	0	0	0	0	0	0	0	0	0	0	0	0	0	0	0	0	0	0	0	0	0	0	0	
Rank 28's ghost cells:	0	0	0	0	0	0	0	0	0	0	0	0	542	0	0	0	0	0	0	0	0	0	0	0	354	106	0	0	0	647	731	0	0	0	0	0	0	0	0	0	373	0	0	36	0	0	0	0	0	0	0	0	0	0	0	440	0	0	0	0	0	0	0	0	
Rank 29's ghost cells:	0	0	0	0	0	0	0	0	0	0	39	0	70	0	407	0	50	732	0	0	0	0	0	0	0	476	0	58	647	0	472	0	0	8	0	0	0	0	0	0	0	0	0	266	0	0	0	0	0	393	67	0	0	0	0	88	0	0	0	0	36	0	0	0	
Rank 30's ghost cells:	0	0	0	0	0	0	0	0	0	0	116	201	140	0	5	0	171	66	0	0	0	0	0	0	248	31	210	204	731	453	0	862	0	0	0	0	0	0	0	0	0	0	0	0	0	0	0	0	0	0	0	0	0	0	0	0	0	0	0	0	0	0	0	0	
Rank 31's ghost cells:	0	0	0	0	0	0	0	0	0	0	117	449	0	0	0	0	464	0	0	0	0	0	0	0	0	0	461	216	0	0	871	0	0	0	0	0	0	0	0	0	0	0	0	0	0	0	0	0	0	0	0	0	0	0	0	0	0	0	0	0	0	0	0	0	
Rank 32's ghost cells:	0	0	0	0	0	0	0	0	0	0	0	0	0	0	0	0	0	0	0	0	0	0	0	0	0	0	0	0	0	0	0	0	0	545	616	4	0	139	0	627	0	0	451	46	0	0	247	30	187	0	0	0	0	0	0	0	0	0	0	0	0	0	144	0	
Rank 33's ghost cells:	402	0	0	0	0	0	0	0	0	0	0	0	0	0	138	0	0	73	0	0	0	0	0	0	0	0	0	0	0	14	0	0	550	0	55	539	0	575	0	0	0	0	85	602	0	0	0	46	4	127	0	0	0	0	0	0	0	0	0	0	349	15	290	0	
Rank 34's ghost cells:	0	0	0	0	0	0	0	0	0	0	0	0	0	0	0	0	0	0	0	0	0	0	0	0	0	0	0	0	0	0	0	0	615	49	0	575	49	19	591	90	0	0	0	0	0	0	0	0	0	0	0	0	0	0	0	0	0	0	0	0	0	0	200	421	
Rank 35's ghost cells:	81	414	0	0	2	22	0	0	0	0	0	0	0	0	0	0	0	0	0	0	0	0	0	0	0	0	0	0	0	0	0	0	4	539	576	0	620	131	0	0	0	0	0	0	0	0	0	0	0	0	0	0	0	0	0	0	0	0	0	0	0	532	77	199	
Rank 36's ghost cells:	0	26	0	0	16	606	0	0	0	0	0	0	0	0	0	0	0	0	0	0	0	0	0	0	0	0	0	0	0	0	0	0	0	0	58	619	0	546	586	54	0	0	0	0	0	0	0	0	0	0	0	0	0	0	0	0	0	0	0	0	0	0	0	0	
Rank 37's ghost cells:	15	0	0	0	573	0	0	0	0	0	0	0	0	0	49	129	0	0	0	0	0	0	0	0	0	0	0	0	0	0	0	0	140	578	19	131	548	0	0	562	0	0	0	0	0	0	0	434	0	0	0	0	0	0	0	0	0	0	0	0	0	0	0	0	
Rank 38's ghost cells:	0	0	0	0	0	0	0	0	0	0	0	0	0	0	0	0	0	0	0	0	0	0	0	0	0	0	0	0	0	0	0	0	0	0	604	0	588	0	0	597	0	0	0	0	0	0	0	0	0	0	0	0	0	0	0	0	0	0	0	0	0	0	0	0	
Rank 39's ghost cells:	0	0	0	0	0	0	0	0	0	0	0	0	0	0	0	0	0	0	0	0	0	0	0	0	0	0	0	0	0	0	0	0	613	0	90	0	54	567	595	0	0	0	0	0	0	0	474	165	0	0	0	0	0	0	0	0	0	0	0	0	0	0	0	0	
Rank 40's ghost cells:	0	0	0	0	0	0	0	0	0	0	0	0	316	29	0	0	0	0	0	0	0	0	0	0	0	0	0	0	372	0	0	0	0	0	0	0	0	0	0	0	0	633	37	574	514	0	0	0	0	0	0	0	0	0	0	528	0	0	0	0	0	0	0	0	
Rank 41's ghost cells:	0	0	0	0	0	0	0	0	0	0	0	0	0	0	0	0	0	0	0	0	0	0	0	0	0	0	0	0	0	0	0	0	0	0	0	0	0	0	0	0	633	0	593	10	56	525	0	0	0	0	0	0	0	498	0	42	0	0	0	0	0	0	0	0	
Rank 42's ghost cells:	0	0	0	0	0	0	0	0	0	0	0	0	0	0	0	0	0	0	0	0	0	0	0	0	0	0	0	0	0	0	0	0	445	88	0	0	0	0	0	0	42	593	0	626	0	110	415	0	344	206	0	0	0	211	0	25	0	0	0	0	0	0	0	0	
Rank 43's ghost cells:	0	0	0	0	0	0	0	0	0	0	0	0	91	0	289	0	0	0	0	0	0	0	0	0	0	0	0	0	38	266	0	0	46	611	0	0	0	0	0	0	574	10	631	0	129	23	106	525	0	363	0	0	0	0	0	89	0	0	0	0	0	0	0	0	
Rank 44's ghost cells:	0	0	0	0	0	0	0	0	0	0	0	0	50	634	0	0	0	0	0	0	0	0	0	0	0	0	0	0	0	0	0	0	0	0	0	0	0	0	0	0	520	65	0	133	0	668	12	590	0	0	0	0	0	0	0	0	0	0	0	0	0	0	0	0	
Rank 45's ghost cells:	0	0	0	0	0	0	0	0	0	0	0	0	0	0	0	0	0	0	0	0	0	0	0	0	0	0	0	0	0	0	0	0	0	0	0	0	0	0	0	0	0	504	110	20	662	0	633	57	0	0	0	0	0	0	0	0	0	0	0	0	0	0	0	0	
Rank 46's ghost cells:	0	0	0	0	0	0	0	0	0	0	0	0	0	0	0	0	0	0	0	0	0	0	0	0	0	0	0	0	0	0	0	0	235	0	0	0	0	0	0	472	0	0	415	122	12	627	0	592	0	0	0	0	0	0	0	0	0	0	0	0	0	0	0	0	
Rank 47's ghost cells:	0	0	0	0	0	0	0	0	0	0	0	0	4	72	159	446	0	0	0	0	0	0	0	0	0	0	0	0	0	0	0	0	35	52	0	0	0	430	0	177	0	0	0	525	592	59	576	0	0	0	0	0	0	0	0	0	0	0	0	0	0	0	0	0	
Rank 48's ghost cells:	0	0	0	0	0	0	0	0	0	0	0	0	0	0	0	0	0	0	0	0	0	0	0	0	0	0	0	0	0	0	0	0	187	4	0	0	0	0	0	0	0	0	349	0	0	0	0	0	0	603	2	449	0	345	0	0	312	0	0	0	56	0	667	0	
Rank 49's ghost cells:	0	0	0	0	0	0	0	0	0	0	0	0	0	0	0	0	0	12	0	0	0	0	0	0	0	0	0	0	0	394	0	0	0	122	0	0	0	0	0	0	0	0	209	370	0	0	0	0	611	0	544	143	0	248	0	440	0	0	0	0	526	0	201	0	
Rank 50's ghost cells:	0	0	0	0	0	0	0	0	0	0	0	0	0	0	0	0	0	0	39	0	0	0	0	0	0	644	0	0	0	62	0	0	0	0	0	0	0	0	0	0	0	0	0	0	0	0	0	0	2	549	0	497	0	10	480	165	4	0	0	529	224	0	0	0	
Rank 51's ghost cells:	0	0	0	0	0	0	0	0	0	0	0	0	0	0	0	0	0	0	0	0	0	0	0	0	0	0	0	0	0	0	0	0	0	0	0	0	0	0	0	0	0	0	0	0	0	0	0	0	458	141	490	0	373	177	128	0	437	0	0	88	0	0	0	0	
Rank 52's ghost cells:	0	0	0	0	0	0	0	0	0	0	0	0	0	0	0	0	0	0	0	0	0	0	0	0	0	0	0	0	0	0	0	0	0	0	0	0	0	0	0	0	0	0	0	0	0	0	0	0	0	0	0	373	0	645	647	165	0	0	0	0	0	0	0	0	
Rank 53's ghost cells:	0	0	0	0	0	0	0	0	0	0	0	0	0	0	0	0	0	0	0	0	0	0	0	0	0	0	0	0	0	0	0	0	0	0	0	0	0	0	0	0	0	498	211	0	0	0	0	0	345	236	10	185	646	0	3	567	0	0	0	0	0	0	0	0	
Rank 54's ghost cells:	0	0	0	0	0	0	0	0	0	0	0	0	0	0	0	0	0	0	0	0	0	0	0	0	452	132	0	0	0	0	0	0	0	0	0	0	0	0	0	0	0	0	0	0	0	0	0	0	0	0	482	133	645	3	0	630	0	0	0	0	0	0	0	0	
Rank 55's ghost cells:	0	0	0	0	0	0	0	0	0	0	0	0	0	0	0	0	0	0	0	0	0	0	0	0	108	53	0	0	426	88	0	0	0	0	0	0	0	0	0	0	523	42	25	89	0	0	0	0	0	440	180	0	150	567	630	0	0	0	0	0	0	0	0	0	
Rank 56's ghost cells:	0	0	0	0	0	0	0	0	0	0	0	0	0	0	0	0	0	0	0	0	0	0	0	0	0	0	0	0	0	0	0	0	0	0	0	0	0	0	0	0	0	0	0	0	0	0	0	0	305	0	4	435	0	0	0	0	0	739	0	526	102	0	439	39	
Rank 57's ghost cells:	0	0	0	0	0	0	0	0	0	0	0	0	0	0	0	0	0	0	0	0	0	0	0	0	0	0	0	0	0	0	0	0	0	0	0	0	0	0	0	0	0	0	0	0	0	0	0	0	0	0	0	0	0	0	0	0	739	0	544	113	0	5	6	578	
Rank 58's ghost cells:	0	0	0	0	0	0	0	0	0	0	0	0	0	0	0	0	0	0	0	0	0	0	81	585	0	0	0	0	0	0	0	0	0	0	0	0	0	0	0	0	0	0	0	0	0	0	0	0	0	0	0	0	0	0	0	0	0	544	0	576	71	599	0	55	
Rank 59's ghost cells:	0	0	0	0	0	0	0	0	0	0	0	0	0	0	0	0	0	0	470	0	0	0	0	102	0	0	0	0	0	0	0	0	0	0	0	0	0	0	0	0	0	0	0	0	0	0	0	0	0	0	540	88	0	0	0	0	527	113	582	0	560	50	0	9	
Rank 60's ghost cells:	87	0	0	0	0	0	0	0	0	0	0	0	0	0	0	0	0	470	120	0	0	0	96	4	0	8	0	0	0	36	0	0	0	357	0	0	0	0	0	0	0	0	0	0	0	0	0	0	56	525	220	0	0	0	0	0	106	0	66	574	0	569	495	4	
Rank 61's ghost cells:	45	268	0	0	0	0	0	0	0	0	0	0	0	0	0	0	0	0	0	0	0	0	439	0	0	0	0	0	0	0	0	0	0	15	0	534	0	0	0	0	0	0	0	0	0	0	0	0	0	0	0	0	0	0	0	0	0	5	587	50	574	0	201	496	
Rank 62's ghost cells:	0	0	0	0	0	0	0	0	0	0	0	0	0	0	0	0	0	0	0	0	0	0	0	0	0	0	0	0	0	0	0	0	144	304	200	77	0	0	0	0	0	0	0	0	0	0	0	0	655	191	0	0	0	0	0	0	439	6	0	0	489	202	0	815	
Rank 63's ghost cells:	0	0	0	0	0	0	0	0	0	0	0	0	0	0	0	0	0	0	0	0	0	0	0	0	0	0	0	0	0	0	0	0	0	0	421	199	0	0	0	0	0	0	0	0	0	0	0	0	0	0	0	0	0	0	0	0	41	577	59	12	4	491	816	0	
=== CGSolver
 Iter          Defect            Rate
    0            249.8
    1           56.357         0.225609
    2          33.0595         0.586609
    3          23.4613         0.709668
    4          20.2848         0.864609
    5          17.8293         0.878945
    6           14.249         0.799191
    7          12.4885         0.876446
    8          11.9405         0.956123
    9          10.0035         0.837782
   10          8.81285         0.880973
   11          8.81096         0.999786
   12          7.93071         0.900096
   13           6.8519         0.863971
   14          6.90683          1.00802
   15          6.54098         0.947031
   16          5.82022         0.889808
   17           5.8047         0.997334
   18           5.5506         0.956226
   19          5.03794         0.907637
   20           4.9841         0.989315
   21          4.62475         0.927899
   22          4.29056          0.92774
   23          4.24091         0.988429
   24          3.90911          0.92176
   25          3.69923         0.946311
   26          3.67799         0.994257
   27          3.39982         0.924369
   28          3.17815         0.934802
   29          3.14506         0.989587
   30          2.91465          0.92674
   31          2.79183          0.95786
   32          2.85498          1.02262
   33          2.88165          1.00934
   34          3.02951          1.05131
   35          3.24087          1.06977
   36          3.08788         0.952796
   37          2.66972         0.864579
   38          2.10454         0.788302
   39          1.53267         0.728268
   40          1.23031         0.802719
   41          1.09324         0.888592
   42          1.01235         0.926008
   43          0.93168         0.920315
   44         0.792825         0.850963
   45         0.642567         0.810478
   46         0.559494         0.870716
   47         0.487962          0.87215
   48         0.404054         0.828044
   49         0.337218         0.834587
   50         0.278193         0.824964
   51         0.232816         0.836886
   52         0.201875           0.8671
   53         0.171515         0.849609
   54         0.146252         0.852709
   55         0.126367         0.864035
   56         0.104963          0.83062
   57        0.0869017         0.827929
   58        0.0726089          0.83553
   59        0.0583488         0.803604
   60        0.0472709         0.810143
   61        0.0380278         0.804467
   62        0.0297445         0.782178
   63        0.0233837         0.786152
=== rate=0.863083, T=2.86539, TIT=0.0454825, IT=63

 Elapsed time: 2.86539
Rank 0: Matrix-vector product took 0.0158893 seconds
Rank 1: Matrix-vector product took 0.0150141 seconds
Rank 2: Matrix-vector product took 0.0147094 seconds
Rank 3: Matrix-vector product took 0.0150562 seconds
Rank 4: Matrix-vector product took 0.0152213 seconds
Rank 5: Matrix-vector product took 0.0145475 seconds
Rank 6: Matrix-vector product took 0.0195375 seconds
Rank 7: Matrix-vector product took 0.0146266 seconds
Rank 8: Matrix-vector product took 0.0147319 seconds
Rank 9: Matrix-vector product took 0.0140196 seconds
Rank 10: Matrix-vector product took 0.015071 seconds
Rank 11: Matrix-vector product took 0.0147316 seconds
Rank 12: Matrix-vector product took 0.0150612 seconds
Rank 13: Matrix-vector product took 0.0143208 seconds
Rank 14: Matrix-vector product took 0.0155878 seconds
Rank 15: Matrix-vector product took 0.0151032 seconds
Rank 16: Matrix-vector product took 0.0154871 seconds
Rank 17: Matrix-vector product took 0.0158421 seconds
Rank 18: Matrix-vector product took 0.0152624 seconds
Rank 19: Matrix-vector product took 0.0146481 seconds
Rank 20: Matrix-vector product took 0.0147631 seconds
Rank 21: Matrix-vector product took 0.0142912 seconds
Rank 22: Matrix-vector product took 0.0155275 seconds
Rank 23: Matrix-vector product took 0.0147844 seconds
Rank 24: Matrix-vector product took 0.0147312 seconds
Rank 25: Matrix-vector product took 0.0155908 seconds
Rank 26: Matrix-vector product took 0.0144283 seconds
Rank 27: Matrix-vector product took 0.0152075 seconds
Rank 28: Matrix-vector product took 0.0154333 seconds
Rank 29: Matrix-vector product took 0.0157984 seconds
Rank 30: Matrix-vector product took 0.0154718 seconds
Rank 31: Matrix-vector product took 0.0150387 seconds
Rank 32: Matrix-vector product took 0.015408 seconds
Rank 33: Matrix-vector product took 0.0159906 seconds
Rank 34: Matrix-vector product took 0.0148181 seconds
Rank 35: Matrix-vector product took 0.0154038 seconds
Rank 36: Matrix-vector product took 0.0148616 seconds
Rank 37: Matrix-vector product took 0.0153658 seconds
Rank 38: Matrix-vector product took 0.0142741 seconds
Rank 39: Matrix-vector product took 0.0148464 seconds
Rank 40: Matrix-vector product took 0.0151614 seconds
Rank 41: Matrix-vector product took 0.0147028 seconds
Rank 42: Matrix-vector product took 0.0152745 seconds
Rank 43: Matrix-vector product took 0.0159837 seconds
Rank 44: Matrix-vector product took 0.0153278 seconds
Rank 45: Matrix-vector product took 0.0142692 seconds
Rank 46: Matrix-vector product took 0.0148072 seconds
Rank 47: Matrix-vector product took 0.0152283 seconds
Rank 48: Matrix-vector product took 0.0152738 seconds
Rank 49: Matrix-vector product took 0.0156011 seconds
Rank 50: Matrix-vector product took 0.0152466 seconds
Rank 51: Matrix-vector product took 0.0146278 seconds
Rank 52: Matrix-vector product took 0.0142789 seconds
Rank 53: Matrix-vector product took 0.0147287 seconds
Rank 54: Matrix-vector product took 0.0146385 seconds
Rank 55: Matrix-vector product took 0.0152831 seconds
Rank 56: Matrix-vector product took 0.0149309 seconds
Rank 57: Matrix-vector product took 0.0143871 seconds
Rank 58: Matrix-vector product took 0.0148972 seconds
Rank 59: Matrix-vector product took 0.0153551 seconds
Rank 60: Matrix-vector product took 0.0159643 seconds
Rank 61: Matrix-vector product took 0.0154566 seconds
Rank 62: Matrix-vector product took 0.0154978 seconds
Rank 63: Matrix-vector product took 0.0148469 seconds
Average time for Matrix-vector product is 0.0151293 seconds

Rank 0: copyOwnerToAll took 0.000660889 seconds
Rank 1: copyOwnerToAll took 0.000427509 seconds
Rank 2: copyOwnerToAll took 0.000420919 seconds
Rank 3: copyOwnerToAll took 0.000468359 seconds
Rank 4: copyOwnerToAll took 0.000453669 seconds
Rank 5: copyOwnerToAll took 0.000480189 seconds
Rank 6: copyOwnerToAll took 0.000230919 seconds
Rank 7: copyOwnerToAll took 0.000486909 seconds
Rank 8: copyOwnerToAll took 0.000243899 seconds
Rank 9: copyOwnerToAll took 0.000238949 seconds
Rank 10: copyOwnerToAll took 0.000488999 seconds
Rank 11: copyOwnerToAll took 0.000414299 seconds
Rank 12: copyOwnerToAll took 0.000465019 seconds
Rank 13: copyOwnerToAll took 0.000367279 seconds
Rank 14: copyOwnerToAll took 0.000659819 seconds
Rank 15: copyOwnerToAll took 0.000386639 seconds
Rank 16: copyOwnerToAll took 0.00036731 seconds
Rank 17: copyOwnerToAll took 0.00065299 seconds
Rank 18: copyOwnerToAll took 0.00038408 seconds
Rank 19: copyOwnerToAll took 0.00033347 seconds
Rank 20: copyOwnerToAll took 0.0003394 seconds
Rank 21: copyOwnerToAll took 0.00024405 seconds
Rank 22: copyOwnerToAll took 0.00056283 seconds
Rank 23: copyOwnerToAll took 0.00039095 seconds
Rank 24: copyOwnerToAll took 0.00046448 seconds
Rank 25: copyOwnerToAll took 0.00048678 seconds
Rank 26: copyOwnerToAll took 0.00023451 seconds
Rank 27: copyOwnerToAll took 0.00036358 seconds
Rank 28: copyOwnerToAll took 0.00049241 seconds
Rank 29: copyOwnerToAll took 0.00065886 seconds
Rank 30: copyOwnerToAll took 0.00040233 seconds
Rank 31: copyOwnerToAll took 0.00041578 seconds
Rank 32: copyOwnerToAll took 0.00049908 seconds
Rank 33: copyOwnerToAll took 0.000756 seconds
Rank 34: copyOwnerToAll took 0.00049813 seconds
Rank 35: copyOwnerToAll took 0.00055463 seconds
Rank 36: copyOwnerToAll took 0.0003 seconds
Rank 37: copyOwnerToAll took 0.00055325 seconds
Rank 38: copyOwnerToAll took 0.00017503 seconds
Rank 39: copyOwnerToAll took 0.0002365 seconds
Rank 40: copyOwnerToAll took 0.00050054 seconds
Rank 41: copyOwnerToAll took 0.00051242 seconds
Rank 42: copyOwnerToAll took 0.00057918 seconds
Rank 43: copyOwnerToAll took 0.00061621 seconds
Rank 44: copyOwnerToAll took 0.00038153 seconds
Rank 45: copyOwnerToAll took 0.00038435 seconds
Rank 46: copyOwnerToAll took 0.00038695 seconds
Rank 47: copyOwnerToAll took 0.00059729 seconds
Rank 48: copyOwnerToAll took 0.000653901 seconds
Rank 49: copyOwnerToAll took 0.000662591 seconds
Rank 50: copyOwnerToAll took 0.000366851 seconds
Rank 51: copyOwnerToAll took 0.00028605 seconds
Rank 52: copyOwnerToAll took 0.000368601 seconds
Rank 53: copyOwnerToAll took 0.000391521 seconds
Rank 54: copyOwnerToAll took 0.000410341 seconds
Rank 55: copyOwnerToAll took 0.000563181 seconds
Rank 56: copyOwnerToAll took 0.00026943 seconds
Rank 57: copyOwnerToAll took 0.00023082 seconds
Rank 58: copyOwnerToAll took 0.00032214 seconds
Rank 59: copyOwnerToAll took 0.00031996 seconds
Rank 60: copyOwnerToAll took 0.000675301 seconds
Rank 61: copyOwnerToAll took 0.000669541 seconds
Rank 62: copyOwnerToAll took 0.000655861 seconds
Rank 63: copyOwnerToAll took 0.000422361 seconds
Average time for copyOwnertoAll is 0.000445119 seconds
