Number of cores/ranks per node is: 16
Metis Node cell partitioner
 Cell on rank 0 before loadbalancing: 249999
Cell on rank 1 before loadbalancing: 249996
Cell on rank 2 before loadbalancing: 249997
Cell on rank 3 before loadbalancing: 250008
Edge-cut: 22646
			Rank 0	Rank 1	Rank 2	Rank 3	Rank 4	Rank 5	Rank 6	Rank 7	Rank 8	Rank 9	Rank 10	Rank 11	Rank 12	Rank 13	Rank 14	Rank 15	Rank 16	Rank 17	Rank 18	Rank 19	Rank 20	Rank 21	Rank 22	Rank 23	Rank 24	Rank 25	Rank 26	Rank 27	Rank 28	Rank 29	Rank 30	Rank 31	Rank 32	Rank 33	Rank 34	Rank 35	Rank 36	Rank 37	Rank 38	Rank 39	Rank 40	Rank 41	Rank 42	Rank 43	Rank 44	Rank 45	Rank 46	Rank 47	Rank 48	Rank 49	Rank 50	Rank 51	Rank 52	Rank 53	Rank 54	Rank 55	Rank 56	Rank 57	Rank 58	Rank 59	Rank 60	Rank 61	Rank 62	Rank 63	
From rank 0 to: 	0	805	0	154	744	0	0	0	152	0	0	952	0	0	0	0	0	0	0	0	0	0	0	0	0	0	0	0	0	0	0	0	0	0	0	0	0	0	0	0	0	0	0	0	0	0	0	0	0	0	0	0	0	0	0	0	0	0	0	0	0	0	0	0	
From rank 1 to: 	824	0	411	379	291	0	33	326	0	0	0	0	0	0	0	0	0	0	0	0	0	0	0	0	0	0	0	0	0	0	0	0	0	0	0	0	0	0	0	0	0	0	0	0	0	0	0	0	0	0	0	0	0	0	0	0	0	0	0	0	0	0	0	0	
From rank 2 to: 	0	411	0	831	0	0	257	351	0	0	0	0	0	0	0	0	0	0	0	0	0	0	0	0	0	0	0	0	0	0	0	0	0	0	0	0	0	0	0	0	0	0	0	0	0	0	0	0	0	0	0	0	0	0	0	0	0	0	0	0	0	0	0	0	
From rank 3 to: 	149	373	830	0	73	0	482	0	504	553	0	175	0	0	87	0	0	0	0	0	0	0	0	0	0	0	0	0	0	0	0	0	0	0	0	0	0	0	0	0	0	0	0	0	0	0	0	0	0	0	0	0	0	0	0	0	0	0	0	0	0	0	0	0	
From rank 4 to: 	744	291	0	75	0	1015	107	338	0	0	0	142	588	0	95	0	0	0	0	0	0	0	0	0	0	0	0	0	0	0	0	0	0	0	0	0	0	0	0	0	0	0	0	0	0	0	0	0	0	0	0	0	0	0	0	0	0	0	0	0	0	0	0	0	
From rank 5 to: 	0	0	0	0	1005	0	144	324	0	0	0	0	134	592	85	0	0	0	0	0	0	0	0	0	0	0	0	0	0	0	0	0	997	0	0	32	69	0	187	0	0	0	0	0	0	0	0	0	0	0	0	0	0	0	0	0	0	0	0	0	0	0	0	0	
From rank 6 to: 	0	33	270	480	107	145	0	965	0	97	0	0	0	0	889	0	0	0	0	0	0	0	0	0	0	0	0	0	0	0	0	0	0	0	0	517	130	0	0	0	0	0	0	0	0	0	0	0	0	0	0	0	0	0	0	0	0	0	0	0	0	0	0	0	
From rank 7 to: 	0	326	341	0	350	320	965	0	0	0	0	0	0	0	0	0	0	0	0	0	0	0	0	0	0	0	0	0	0	0	0	0	46	0	0	672	0	0	0	0	0	0	0	0	0	0	0	0	0	0	0	0	0	0	0	0	0	0	0	0	0	0	0	0	
From rank 8 to: 	152	0	0	507	0	0	0	0	0	832	339	257	0	0	0	0	0	0	0	0	1	0	546	149	0	0	0	0	0	0	0	0	0	0	0	0	0	0	0	0	0	0	0	0	0	0	0	0	0	0	0	0	0	0	0	0	0	0	0	0	0	0	0	0	
From rank 9 to: 	0	0	0	565	0	0	97	0	832	0	188	152	0	0	511	483	0	0	0	0	0	0	0	514	0	0	0	0	0	0	44	0	0	0	0	0	0	0	0	0	0	0	0	0	0	0	0	0	0	0	0	0	0	0	0	0	0	0	0	0	0	0	0	0	
From rank 10 to: 	0	0	0	0	0	0	0	0	344	187	0	1066	591	0	85	192	0	0	0	0	1016	0	11	127	0	0	0	0	46	0	51	0	0	0	0	0	0	0	0	0	0	0	0	0	0	0	0	0	0	0	0	0	0	0	0	0	0	0	0	0	0	0	0	0	
From rank 11 to: 	969	0	0	176	163	0	0	0	252	154	1065	0	704	0	251	0	0	0	0	0	0	0	0	0	0	0	0	0	0	0	0	0	0	0	0	0	0	0	0	0	0	0	0	0	0	0	0	0	0	0	0	0	0	0	0	0	0	0	0	0	0	0	0	0	
From rank 12 to: 	0	0	0	0	590	138	0	0	0	0	593	702	0	1134	133	74	0	0	0	0	2	0	0	0	0	0	0	0	585	0	0	0	0	0	0	0	0	0	0	0	0	0	0	0	0	0	0	0	0	0	0	0	0	0	0	0	0	0	0	0	0	0	0	0	
From rank 13 to: 	0	0	0	0	0	592	0	0	0	0	0	0	1154	0	260	175	0	0	0	0	0	0	0	0	0	0	0	0	148	490	0	0	0	0	0	0	36	0	1066	0	0	0	0	0	0	0	0	0	0	0	0	0	54	0	0	0	0	0	0	0	0	0	0	0	
From rank 14 to: 	0	0	0	88	90	94	893	0	0	499	75	251	134	250	0	991	0	0	0	0	0	0	0	0	0	0	0	0	0	0	0	0	0	0	0	0	695	0	25	0	0	0	0	0	0	0	0	0	0	0	0	0	0	0	0	0	0	0	0	0	0	0	0	0	
From rank 15 to: 	0	0	0	0	0	0	0	0	0	488	192	0	72	172	989	0	0	0	0	0	0	0	0	11	0	0	0	0	50	5	633	614	0	0	0	0	388	0	135	0	0	0	0	0	0	0	0	0	0	0	0	0	20	0	255	0	0	0	0	0	0	0	0	0	
From rank 16 to: 	0	0	0	0	0	0	0	0	0	0	0	0	0	0	0	0	0	1220	136	247	0	0	0	0	0	642	9	0	0	0	0	0	0	0	0	0	0	0	0	0	0	0	0	0	0	0	0	0	0	0	0	0	0	0	0	0	0	0	0	0	0	0	0	0	
From rank 17 to: 	0	0	0	0	0	0	0	0	0	0	0	0	0	0	0	0	1222	0	108	203	210	1101	10	0	289	153	189	0	0	0	0	0	0	0	0	0	0	0	0	0	0	0	0	0	0	0	0	0	0	0	0	0	0	0	0	0	0	0	0	0	0	0	0	0	
From rank 18 to: 	0	0	0	0	0	0	0	0	0	0	0	0	0	0	0	0	135	108	0	989	0	171	75	429	0	79	663	351	0	0	0	0	0	0	0	0	0	0	0	0	0	0	0	0	0	0	0	0	0	0	0	0	0	0	0	0	0	0	0	0	0	0	0	0	
From rank 19 to: 	0	0	0	0	0	0	0	0	0	0	0	0	0	0	0	0	237	203	989	0	6	56	670	0	0	0	0	0	0	0	0	0	0	0	0	0	0	0	0	0	0	0	0	0	0	0	0	0	0	0	0	0	0	0	0	0	0	0	0	0	0	0	0	0	
From rank 20 to: 	0	0	0	0	0	0	0	0	1	0	1028	0	2	0	0	0	0	210	0	6	0	995	255	105	0	0	0	0	580	0	94	0	0	0	0	0	0	0	0	0	0	0	0	0	0	0	0	0	0	0	0	0	0	0	0	0	0	0	0	0	0	0	0	0	
From rank 21 to: 	0	0	0	0	0	0	0	0	0	0	0	0	0	0	0	0	0	1118	174	51	1025	0	246	265	86	0	274	0	538	0	243	0	0	0	0	0	0	0	0	0	0	0	0	0	0	0	0	0	0	0	0	0	0	0	0	0	0	0	0	0	0	0	0	0	
From rank 22 to: 	0	0	0	0	0	0	0	0	544	0	11	0	0	0	0	0	0	10	75	672	256	236	0	1006	0	0	0	0	0	0	0	0	0	0	0	0	0	0	0	0	0	0	0	0	0	0	0	0	0	0	0	0	0	0	0	0	0	0	0	0	0	0	0	0	
From rank 23 to: 	0	0	0	0	0	0	0	0	149	514	127	0	0	0	0	8	0	0	429	0	105	263	1006	0	0	0	170	0	0	0	858	0	0	0	0	0	0	0	0	0	0	0	0	0	0	0	0	0	0	0	0	0	0	0	0	0	0	0	0	0	0	0	0	0	
From rank 24 to: 	0	0	0	0	0	0	0	0	0	0	0	0	0	0	0	0	0	288	0	0	0	86	0	0	0	1055	316	105	360	617	0	10	0	0	0	0	0	0	0	0	0	0	0	0	0	0	0	0	0	0	0	0	0	0	0	0	0	0	0	0	0	0	500	269	
From rank 25 to: 	0	0	0	0	0	0	0	0	0	0	0	0	0	0	0	0	642	146	82	0	0	0	0	0	1040	0	376	294	0	0	0	0	0	0	0	0	0	0	0	0	0	0	0	0	0	0	0	0	0	0	0	0	0	0	0	0	0	0	0	0	0	32	369	0	
From rank 26 to: 	0	0	0	0	0	0	0	0	0	0	0	0	0	0	0	0	7	200	696	0	0	279	0	191	320	377	0	873	101	76	774	364	0	0	0	0	0	0	0	0	0	0	0	0	0	0	0	0	0	0	0	0	0	0	0	0	0	0	0	0	0	0	0	0	
From rank 27 to: 	0	0	0	0	0	0	0	0	0	0	0	0	0	0	0	0	0	0	351	0	0	0	0	0	105	293	838	0	0	0	0	549	0	0	0	0	0	0	0	0	0	0	0	0	0	0	0	0	0	0	0	0	0	0	0	0	0	0	0	0	229	805	50	3	
From rank 28 to: 	0	0	0	0	0	0	0	0	0	0	46	0	586	148	0	45	0	0	0	0	582	516	0	0	354	0	97	0	0	984	330	14	0	0	0	0	0	0	0	0	0	0	0	0	0	0	0	0	0	0	0	0	0	0	0	0	0	0	0	0	0	0	0	0	
From rank 29 to: 	0	0	0	0	0	0	0	0	0	0	0	0	0	473	0	9	0	0	0	0	0	0	0	0	625	0	76	0	982	0	146	266	0	0	0	0	0	0	94	0	0	0	0	0	0	0	0	0	0	0	0	0	908	0	0	0	0	0	0	0	0	0	0	287	
From rank 30 to: 	0	0	0	0	0	0	0	0	0	44	52	0	0	0	0	636	0	0	0	0	94	234	0	856	0	0	774	0	328	133	0	1004	0	0	0	0	0	0	0	0	0	0	0	0	0	0	0	0	0	0	0	0	0	0	0	0	0	0	0	0	0	0	0	0	
From rank 31 to: 	0	0	0	0	0	0	0	0	0	0	0	0	0	0	0	611	0	0	0	0	0	0	0	0	10	0	375	549	14	261	1004	0	0	0	0	0	0	0	8	0	0	0	0	0	0	0	0	0	0	0	0	0	158	0	890	0	0	0	0	0	318	0	0	21	
From rank 32 to: 	0	0	0	0	0	997	0	46	0	0	0	0	0	0	0	0	0	0	0	0	0	0	0	0	0	0	0	0	0	0	0	0	0	1182	118	299	140	20	399	167	0	0	0	0	0	0	0	0	0	0	0	0	0	0	0	0	0	0	0	0	0	0	0	0	
From rank 33 to: 	0	0	0	0	0	0	0	0	0	0	0	0	0	0	0	0	0	0	0	0	0	0	0	0	0	0	0	0	0	0	0	0	1175	0	245	0	0	49	109	574	87	69	948	0	0	312	0	0	0	0	0	0	0	0	0	0	0	0	0	0	0	0	0	0	
From rank 34 to: 	0	0	0	0	0	0	0	0	0	0	0	0	0	0	0	0	0	0	0	0	0	0	0	0	0	0	0	0	0	0	0	0	125	247	0	1108	49	527	0	0	635	587	0	0	0	3	0	0	0	0	0	0	0	0	0	0	0	0	0	0	0	0	0	0	
From rank 35 to: 	0	0	0	0	0	31	505	669	0	0	0	0	0	0	0	0	0	0	0	0	0	0	0	0	0	0	0	0	0	0	0	0	299	0	1117	0	624	2	0	0	0	0	0	0	0	0	0	0	0	0	0	0	0	0	0	0	0	0	0	0	0	0	0	0	
From rank 36 to: 	0	0	0	0	0	76	143	0	0	0	0	0	0	37	699	405	0	0	0	0	0	0	0	0	0	0	0	0	0	0	0	0	136	0	55	624	0	1083	388	127	0	0	0	0	0	0	0	0	0	0	0	0	0	0	393	0	0	0	0	0	0	0	0	0	
From rank 37 to: 	0	0	0	0	0	0	0	0	0	0	0	0	0	0	0	0	0	0	0	0	0	0	0	0	0	0	0	0	0	0	0	0	20	56	527	2	1087	0	40	268	133	0	0	0	448	532	28	0	0	0	0	0	34	46	175	465	0	0	0	0	0	0	0	0	
From rank 38 to: 	0	0	0	0	0	198	0	0	0	0	0	0	0	1074	23	138	0	0	0	0	0	0	0	0	0	0	0	0	0	92	0	8	397	109	0	0	392	37	0	1158	0	0	0	0	0	0	0	0	0	0	0	0	586	0	16	0	0	0	0	0	0	0	0	0	
From rank 39 to: 	0	0	0	0	0	0	0	0	0	0	0	0	0	0	0	0	0	0	0	0	0	0	0	0	0	0	0	0	0	0	0	0	174	561	0	0	127	269	1162	0	0	0	0	0	0	364	781	0	0	0	0	0	195	446	0	0	0	0	0	0	0	0	0	0	
From rank 40 to: 	0	0	0	0	0	0	0	0	0	0	0	0	0	0	0	0	0	0	0	0	0	0	0	0	0	0	0	0	0	0	0	0	0	85	644	0	0	142	0	0	0	1039	112	272	384	604	0	0	0	0	0	0	0	0	0	0	0	0	0	0	0	0	0	0	
From rank 41 to: 	0	0	0	0	0	0	0	0	0	0	0	0	0	0	0	0	0	0	0	0	0	0	0	0	0	0	0	0	0	0	0	0	0	68	587	0	0	0	0	0	1035	0	179	244	0	0	0	0	0	0	0	0	0	0	0	0	0	0	0	0	0	0	0	0	
From rank 42 to: 	0	0	0	0	0	0	0	0	0	0	0	0	0	0	0	0	0	0	0	0	0	0	0	0	0	0	0	0	0	0	0	0	0	954	0	0	0	0	0	0	111	179	0	951	0	617	70	97	0	0	0	0	0	0	0	0	0	0	0	0	0	0	0	0	
From rank 43 to: 	0	0	0	0	0	0	0	0	0	0	0	0	0	0	0	0	0	0	0	0	0	0	0	0	0	0	0	0	0	0	0	0	0	0	0	0	0	0	0	0	276	233	951	0	131	239	0	619	0	0	0	0	0	0	0	0	0	0	0	0	0	0	0	0	
From rank 44 to: 	0	0	0	0	0	0	0	0	0	0	0	0	0	0	0	0	0	0	0	0	0	0	0	0	0	0	0	0	0	0	0	0	0	0	0	0	0	463	0	0	385	0	0	131	0	807	220	192	0	750	0	0	0	9	0	134	0	0	0	0	0	0	0	0	
From rank 45 to: 	0	0	0	0	0	0	0	0	0	0	0	0	0	0	0	0	0	0	0	0	0	0	0	0	0	0	0	0	0	0	0	0	0	350	4	0	0	548	0	379	608	0	635	244	836	0	943	292	0	0	0	0	0	0	0	0	0	0	0	0	0	0	0	0	
From rank 46 to: 	0	0	0	0	0	0	0	0	0	0	0	0	0	0	0	0	0	0	0	0	0	0	0	0	0	0	0	0	0	0	0	0	0	0	0	0	0	27	0	783	0	0	70	0	224	925	0	972	0	286	0	437	0	364	0	0	0	0	0	0	0	0	0	0	
From rank 47 to: 	0	0	0	0	0	0	0	0	0	0	0	0	0	0	0	0	0	0	0	0	0	0	0	0	0	0	0	0	0	0	0	0	0	0	0	0	0	0	0	0	0	0	91	621	192	293	963	0	0	86	0	533	0	0	0	0	0	0	0	0	0	0	0	0	
From rank 48 to: 	0	0	0	0	0	0	0	0	0	0	0	0	0	0	0	0	0	0	0	0	0	0	0	0	0	0	0	0	0	0	0	0	0	0	0	0	0	0	0	0	0	0	0	0	0	0	0	0	0	1064	330	78	0	40	0	490	197	0	0	758	317	0	0	0	
From rank 49 to: 	0	0	0	0	0	0	0	0	0	0	0	0	0	0	0	0	0	0	0	0	0	0	0	0	0	0	0	0	0	0	0	0	0	0	0	0	0	0	0	0	0	0	0	0	750	0	283	85	1064	0	18	247	0	259	0	700	0	0	0	0	0	0	0	0	
From rank 50 to: 	0	0	0	0	0	0	0	0	0	0	0	0	0	0	0	0	0	0	0	0	0	0	0	0	0	0	0	0	0	0	0	0	0	0	0	0	0	0	0	0	0	0	0	0	0	0	0	0	339	18	0	1000	0	386	0	4	743	544	0	59	23	0	0	295	
From rank 51 to: 	0	0	0	0	0	0	0	0	0	0	0	0	0	0	0	0	0	0	0	0	0	0	0	0	0	0	0	0	0	0	0	0	0	0	0	0	0	0	0	0	0	0	0	0	0	0	439	540	74	245	1007	0	0	493	0	0	0	0	0	0	0	0	0	0	
From rank 52 to: 	0	0	0	0	0	0	0	0	0	0	0	0	0	54	0	19	0	0	0	0	0	0	0	0	0	0	0	0	0	894	0	149	0	0	0	0	0	33	585	195	0	0	0	0	0	0	0	0	0	0	0	0	0	1098	349	65	0	0	0	0	10	0	0	691	
From rank 53 to: 	0	0	0	0	0	0	0	0	0	0	0	0	0	0	0	0	0	0	0	0	0	0	0	0	0	0	0	0	0	0	0	0	0	0	0	0	0	47	0	459	0	0	0	0	6	0	362	0	45	259	369	488	1098	0	0	285	0	0	0	0	0	0	0	568	
From rank 54 to: 	0	0	0	0	0	0	0	0	0	0	0	0	0	0	0	255	0	0	0	0	0	0	0	0	0	0	0	0	0	0	0	898	0	0	0	0	364	175	16	0	0	0	0	0	0	0	0	0	0	0	0	0	348	0	0	1099	0	0	0	0	740	0	0	35	
From rank 55 to: 	0	0	0	0	0	0	0	0	0	0	0	0	0	0	0	0	0	0	0	0	0	0	0	0	0	0	0	0	0	0	0	0	0	0	0	0	0	465	0	0	0	0	0	0	139	0	0	0	480	703	8	0	58	276	1100	0	0	0	0	0	598	0	0	46	
From rank 56 to: 	0	0	0	0	0	0	0	0	0	0	0	0	0	0	0	0	0	0	0	0	0	0	0	0	0	0	0	0	0	0	0	0	0	0	0	0	0	0	0	0	0	0	0	0	0	0	0	0	197	0	759	0	0	0	0	0	0	859	814	564	0	0	36	259	
From rank 57 to: 	0	0	0	0	0	0	0	0	0	0	0	0	0	0	0	0	0	0	0	0	0	0	0	0	0	0	0	0	0	0	0	0	0	0	0	0	0	0	0	0	0	0	0	0	0	0	0	0	0	0	547	0	0	0	0	0	839	0	492	0	0	0	0	0	
From rank 58 to: 	0	0	0	0	0	0	0	0	0	0	0	0	0	0	0	0	0	0	0	0	0	0	0	0	0	0	0	0	0	0	0	0	0	0	0	0	0	0	0	0	0	0	0	0	0	0	0	0	0	0	0	0	0	0	0	0	818	487	0	251	234	349	944	310	
From rank 59 to: 	0	0	0	0	0	0	0	0	0	0	0	0	0	0	0	0	0	0	0	0	0	0	0	0	0	0	0	0	0	0	0	0	0	0	0	0	0	0	0	0	0	0	0	0	0	0	0	0	775	0	65	0	0	0	0	0	562	0	257	0	485	388	0	5	
From rank 60 to: 	0	0	0	0	0	0	0	0	0	0	0	0	0	0	0	0	0	0	0	0	0	0	0	0	0	0	0	229	0	0	0	318	0	0	0	0	0	0	0	0	0	0	0	0	0	0	0	0	332	0	23	0	10	0	720	597	0	0	238	437	0	1031	59	247	
From rank 61 to: 	0	0	0	0	0	0	0	0	0	0	0	0	0	0	0	0	0	0	0	0	0	0	0	0	0	32	0	805	0	0	0	0	0	0	0	0	0	0	0	0	0	0	0	0	0	0	0	0	0	0	0	0	0	0	0	0	0	0	338	388	1037	0	250	0	
From rank 62 to: 	0	0	0	0	0	0	0	0	0	0	0	0	0	0	0	0	0	0	0	0	0	0	0	0	500	369	0	39	0	0	0	0	0	0	0	0	0	0	0	0	0	0	0	0	0	0	0	0	0	0	0	0	0	0	0	0	37	0	934	0	70	251	0	887	
From rank 63 to: 	0	0	0	0	0	0	0	0	0	0	0	0	0	0	0	0	0	0	0	0	0	0	0	0	280	0	0	2	0	283	0	14	0	0	0	0	0	0	0	0	0	0	0	0	0	0	0	0	0	0	297	0	674	568	35	44	251	0	284	5	235	0	887	0	
loadb
After loadbalancing process 57 has 17497 cells.
After loadbalancing process 19 has 17769 cells.
After loadbalancing process 41 has 17737 cells.
After loadbalancing process 16 has 17887 cells.
After loadbalancing process 43 has 18068 cells.
After loadbalancing process 1 has 17867 cells.
After loadbalancing process 2 has 17474 cells.
After loadbalancing process 11 has 19359 cells.
After loadbalancing process 42 has 18608 cells.
After loadbalancing process 17 has 19105 cells.
After loadbalancing process 18 has 18632 cells.
After loadbalancing process 4 has 19017 cells.
After loadbalancing process 59 has 18158 cells.
After loadbalancing process 3 has 18855 cells.
After loadbalancing process 56 has 19101 cells.
After loadbalancing process 58 has 19009 cells.
After loadbalancing process 50 has 19043 cells.
After loadbalancing process 20 has 18897 cells.
After loadbalancing process 21 has 19643 cells.
After loadbalancing process 34 has 18907 cells.
After loadbalancing process 49 has 19028 cells.
After loadbalancing process 35 has 18875 cells.
After loadbalancing process 55 has 19501 cells.
After loadbalancing process 51 has 18423 cells.
After loadbalancing process 48 has 18904 cells.
After loadbalancing process 47 has 18411 cells.
After loadbalancing process 33 has 19192 cells.
After loadbalancing process 24 has 19238 cells.
After loadbalancing process 45 has 20460 cells.
After loadbalancing process 62 has 18712 cells.
After loadbalancing process 26 has 19893 cells.
After loadbalancing process 60 has 19875 cells.
After loadbalancing process 9 has 19017 cells.
After loadbalancing process 32 has 18995 cells.
After loadbalancing process 61 has 18473 cells.
After loadbalancing process 10 has 19358 cells.
After loadbalancing process 53 has 19616 cells.
After loadbalancing process 28 has 19320 cells.
After loadbalancing process 36 has 19790 cells.
After loadbalancing process 0 has 18441 cells.
After loadbalancing process 5 has 19198 cells.
After loadbalancing process 54 has 19566 cells.
After loadbalancing process 40 has 18899 cells.
After loadbalancing process 46 has 19709 cells.
After loadbalancing process 14 has 19712 cells.
After loadbalancing process 44 has 18718 cells.
After loadbalancing process 8 has 18409 cells.
After loadbalancing process 25 has 18606 cells.
After loadbalancing process 22 has 18431 cells.
After loadbalancing process 37 has 19484 cells.
After loadbalancing process 12 has 19577 cells.
After loadbalancing process 23 has 19255 cells.
After loadbalancing process 7 has 18646 cells.
After loadbalancing process 63 has 19486 cells.
After loadbalancing process 52 has 19769 cells.
After loadbalancing process 27 has 18849 cells.
After loadbalancing process 6 has 19254 cells.
After loadbalancing process 29 has 19491 cells.
After loadbalancing process 30 has 19775 cells.
After loadbalancing process 38 has 19860 cells.
After loadbalancing process 13 has 19597 cells.
After loadbalancing process 31 has 19850 cells.
After loadbalancing process 39 has 19702 cells.
After loadbalancing process 15 has 19636 cells.
			Rank 0	Rank 1	Rank 2	Rank 3	Rank 4	Rank 5	Rank 6	Rank 7	Rank 8	Rank 9	Rank 10	Rank 11	Rank 12	Rank 13	Rank 14	Rank 15	Rank 16	Rank 17	Rank 18	Rank 19	Rank 20	Rank 21	Rank 22	Rank 23	Rank 24	Rank 25	Rank 26	Rank 27	Rank 28	Rank 29	Rank 30	Rank 31	Rank 32	Rank 33	Rank 34	Rank 35	Rank 36	Rank 37	Rank 38	Rank 39	Rank 40	Rank 41	Rank 42	Rank 43	Rank 44	Rank 45	Rank 46	Rank 47	Rank 48	Rank 49	Rank 50	Rank 51	Rank 52	Rank 53	Rank 54	Rank 55	Rank 56	Rank 57	Rank 58	Rank 59	Rank 60	Rank 61	Rank 62	Rank 63	
Rank 0's ghost cells:	0	805	0	154	744	0	0	0	152	0	0	952	0	0	0	0	0	0	0	0	0	0	0	0	0	0	0	0	0	0	0	0	0	0	0	0	0	0	0	0	0	0	0	0	0	0	0	0	0	0	0	0	0	0	0	0	0	0	0	0	0	0	0	0	
Rank 1's ghost cells:	824	0	411	379	291	0	33	326	0	0	0	0	0	0	0	0	0	0	0	0	0	0	0	0	0	0	0	0	0	0	0	0	0	0	0	0	0	0	0	0	0	0	0	0	0	0	0	0	0	0	0	0	0	0	0	0	0	0	0	0	0	0	0	0	
Rank 2's ghost cells:	0	411	0	831	0	0	257	351	0	0	0	0	0	0	0	0	0	0	0	0	0	0	0	0	0	0	0	0	0	0	0	0	0	0	0	0	0	0	0	0	0	0	0	0	0	0	0	0	0	0	0	0	0	0	0	0	0	0	0	0	0	0	0	0	
Rank 3's ghost cells:	149	373	830	0	73	0	482	0	504	553	0	175	0	0	87	0	0	0	0	0	0	0	0	0	0	0	0	0	0	0	0	0	0	0	0	0	0	0	0	0	0	0	0	0	0	0	0	0	0	0	0	0	0	0	0	0	0	0	0	0	0	0	0	0	
Rank 4's ghost cells:	744	291	0	75	0	1015	107	338	0	0	0	142	588	0	95	0	0	0	0	0	0	0	0	0	0	0	0	0	0	0	0	0	0	0	0	0	0	0	0	0	0	0	0	0	0	0	0	0	0	0	0	0	0	0	0	0	0	0	0	0	0	0	0	0	
Rank 5's ghost cells:	0	0	0	0	1005	0	144	324	0	0	0	0	134	592	85	0	0	0	0	0	0	0	0	0	0	0	0	0	0	0	0	0	997	0	0	32	69	0	187	0	0	0	0	0	0	0	0	0	0	0	0	0	0	0	0	0	0	0	0	0	0	0	0	0	
Rank 6's ghost cells:	0	33	270	480	107	145	0	965	0	97	0	0	0	0	889	0	0	0	0	0	0	0	0	0	0	0	0	0	0	0	0	0	0	0	0	517	130	0	0	0	0	0	0	0	0	0	0	0	0	0	0	0	0	0	0	0	0	0	0	0	0	0	0	0	
Rank 7's ghost cells:	0	326	341	0	350	320	965	0	0	0	0	0	0	0	0	0	0	0	0	0	0	0	0	0	0	0	0	0	0	0	0	0	46	0	0	672	0	0	0	0	0	0	0	0	0	0	0	0	0	0	0	0	0	0	0	0	0	0	0	0	0	0	0	0	
Rank 8's ghost cells:	152	0	0	507	0	0	0	0	0	832	339	257	0	0	0	0	0	0	0	0	1	0	546	149	0	0	0	0	0	0	0	0	0	0	0	0	0	0	0	0	0	0	0	0	0	0	0	0	0	0	0	0	0	0	0	0	0	0	0	0	0	0	0	0	
Rank 9's ghost cells:	0	0	0	565	0	0	97	0	832	0	188	152	0	0	511	483	0	0	0	0	0	0	0	514	0	0	0	0	0	0	44	0	0	0	0	0	0	0	0	0	0	0	0	0	0	0	0	0	0	0	0	0	0	0	0	0	0	0	0	0	0	0	0	0	
Rank 10's ghost cells:	0	0	0	0	0	0	0	0	344	187	0	1066	591	0	85	192	0	0	0	0	1016	0	11	127	0	0	0	0	46	0	51	0	0	0	0	0	0	0	0	0	0	0	0	0	0	0	0	0	0	0	0	0	0	0	0	0	0	0	0	0	0	0	0	0	
Rank 11's ghost cells:	969	0	0	176	163	0	0	0	252	154	1065	0	704	0	251	0	0	0	0	0	0	0	0	0	0	0	0	0	0	0	0	0	0	0	0	0	0	0	0	0	0	0	0	0	0	0	0	0	0	0	0	0	0	0	0	0	0	0	0	0	0	0	0	0	
Rank 12's ghost cells:	0	0	0	0	590	138	0	0	0	0	593	702	0	1134	133	74	0	0	0	0	2	0	0	0	0	0	0	0	585	0	0	0	0	0	0	0	0	0	0	0	0	0	0	0	0	0	0	0	0	0	0	0	0	0	0	0	0	0	0	0	0	0	0	0	
Rank 13's ghost cells:	0	0	0	0	0	592	0	0	0	0	0	0	1154	0	260	175	0	0	0	0	0	0	0	0	0	0	0	0	148	490	0	0	0	0	0	0	36	0	1066	0	0	0	0	0	0	0	0	0	0	0	0	0	54	0	0	0	0	0	0	0	0	0	0	0	
Rank 14's ghost cells:	0	0	0	88	90	94	893	0	0	499	75	251	134	250	0	991	0	0	0	0	0	0	0	0	0	0	0	0	0	0	0	0	0	0	0	0	695	0	25	0	0	0	0	0	0	0	0	0	0	0	0	0	0	0	0	0	0	0	0	0	0	0	0	0	
Rank 15's ghost cells:	0	0	0	0	0	0	0	0	0	488	192	0	72	172	989	0	0	0	0	0	0	0	0	11	0	0	0	0	50	5	633	614	0	0	0	0	388	0	135	0	0	0	0	0	0	0	0	0	0	0	0	0	20	0	255	0	0	0	0	0	0	0	0	0	
Rank 16's ghost cells:	0	0	0	0	0	0	0	0	0	0	0	0	0	0	0	0	0	1220	136	247	0	0	0	0	0	642	9	0	0	0	0	0	0	0	0	0	0	0	0	0	0	0	0	0	0	0	0	0	0	0	0	0	0	0	0	0	0	0	0	0	0	0	0	0	
Rank 17's ghost cells:	0	0	0	0	0	0	0	0	0	0	0	0	0	0	0	0	1222	0	108	203	210	1101	10	0	289	153	189	0	0	0	0	0	0	0	0	0	0	0	0	0	0	0	0	0	0	0	0	0	0	0	0	0	0	0	0	0	0	0	0	0	0	0	0	0	
Rank 18's ghost cells:	0	0	0	0	0	0	0	0	0	0	0	0	0	0	0	0	135	108	0	989	0	171	75	429	0	79	663	351	0	0	0	0	0	0	0	0	0	0	0	0	0	0	0	0	0	0	0	0	0	0	0	0	0	0	0	0	0	0	0	0	0	0	0	0	
Rank 19's ghost cells:	0	0	0	0	0	0	0	0	0	0	0	0	0	0	0	0	237	203	989	0	6	56	670	0	0	0	0	0	0	0	0	0	0	0	0	0	0	0	0	0	0	0	0	0	0	0	0	0	0	0	0	0	0	0	0	0	0	0	0	0	0	0	0	0	
Rank 20's ghost cells:	0	0	0	0	0	0	0	0	1	0	1028	0	2	0	0	0	0	210	0	6	0	995	255	105	0	0	0	0	580	0	94	0	0	0	0	0	0	0	0	0	0	0	0	0	0	0	0	0	0	0	0	0	0	0	0	0	0	0	0	0	0	0	0	0	
Rank 21's ghost cells:	0	0	0	0	0	0	0	0	0	0	0	0	0	0	0	0	0	1118	174	51	1025	0	246	265	86	0	274	0	538	0	243	0	0	0	0	0	0	0	0	0	0	0	0	0	0	0	0	0	0	0	0	0	0	0	0	0	0	0	0	0	0	0	0	0	
Rank 22's ghost cells:	0	0	0	0	0	0	0	0	544	0	11	0	0	0	0	0	0	10	75	672	256	236	0	1006	0	0	0	0	0	0	0	0	0	0	0	0	0	0	0	0	0	0	0	0	0	0	0	0	0	0	0	0	0	0	0	0	0	0	0	0	0	0	0	0	
Rank 23's ghost cells:	0	0	0	0	0	0	0	0	149	514	127	0	0	0	0	8	0	0	429	0	105	263	1006	0	0	0	170	0	0	0	858	0	0	0	0	0	0	0	0	0	0	0	0	0	0	0	0	0	0	0	0	0	0	0	0	0	0	0	0	0	0	0	0	0	
Rank 24's ghost cells:	0	0	0	0	0	0	0	0	0	0	0	0	0	0	0	0	0	288	0	0	0	86	0	0	0	1055	316	105	360	617	0	10	0	0	0	0	0	0	0	0	0	0	0	0	0	0	0	0	0	0	0	0	0	0	0	0	0	0	0	0	0	0	500	269	
Rank 25's ghost cells:	0	0	0	0	0	0	0	0	0	0	0	0	0	0	0	0	642	146	82	0	0	0	0	0	1040	0	376	294	0	0	0	0	0	0	0	0	0	0	0	0	0	0	0	0	0	0	0	0	0	0	0	0	0	0	0	0	0	0	0	0	0	32	369	0	
Rank 26's ghost cells:	0	0	0	0	0	0	0	0	0	0	0	0	0	0	0	0	7	200	696	0	0	279	0	191	320	377	0	873	101	76	774	364	0	0	0	0	0	0	0	0	0	0	0	0	0	0	0	0	0	0	0	0	0	0	0	0	0	0	0	0	0	0	0	0	
Rank 27's ghost cells:	0	0	0	0	0	0	0	0	0	0	0	0	0	0	0	0	0	0	351	0	0	0	0	0	105	293	838	0	0	0	0	549	0	0	0	0	0	0	0	0	0	0	0	0	0	0	0	0	0	0	0	0	0	0	0	0	0	0	0	0	229	805	50	3	
Rank 28's ghost cells:	0	0	0	0	0	0	0	0	0	0	46	0	586	148	0	45	0	0	0	0	582	516	0	0	354	0	97	0	0	984	330	14	0	0	0	0	0	0	0	0	0	0	0	0	0	0	0	0	0	0	0	0	0	0	0	0	0	0	0	0	0	0	0	0	
Rank 29's ghost cells:	0	0	0	0	0	0	0	0	0	0	0	0	0	473	0	9	0	0	0	0	0	0	0	0	625	0	76	0	982	0	146	266	0	0	0	0	0	0	94	0	0	0	0	0	0	0	0	0	0	0	0	0	908	0	0	0	0	0	0	0	0	0	0	287	
Rank 30's ghost cells:	0	0	0	0	0	0	0	0	0	44	52	0	0	0	0	636	0	0	0	0	94	234	0	856	0	0	774	0	328	133	0	1004	0	0	0	0	0	0	0	0	0	0	0	0	0	0	0	0	0	0	0	0	0	0	0	0	0	0	0	0	0	0	0	0	
Rank 31's ghost cells:	0	0	0	0	0	0	0	0	0	0	0	0	0	0	0	611	0	0	0	0	0	0	0	0	10	0	375	549	14	261	1004	0	0	0	0	0	0	0	8	0	0	0	0	0	0	0	0	0	0	0	0	0	158	0	890	0	0	0	0	0	318	0	0	21	
Rank 32's ghost cells:	0	0	0	0	0	997	0	46	0	0	0	0	0	0	0	0	0	0	0	0	0	0	0	0	0	0	0	0	0	0	0	0	0	1182	118	299	140	20	399	167	0	0	0	0	0	0	0	0	0	0	0	0	0	0	0	0	0	0	0	0	0	0	0	0	
Rank 33's ghost cells:	0	0	0	0	0	0	0	0	0	0	0	0	0	0	0	0	0	0	0	0	0	0	0	0	0	0	0	0	0	0	0	0	1175	0	245	0	0	49	109	574	87	69	948	0	0	312	0	0	0	0	0	0	0	0	0	0	0	0	0	0	0	0	0	0	
Rank 34's ghost cells:	0	0	0	0	0	0	0	0	0	0	0	0	0	0	0	0	0	0	0	0	0	0	0	0	0	0	0	0	0	0	0	0	125	247	0	1108	49	527	0	0	635	587	0	0	0	3	0	0	0	0	0	0	0	0	0	0	0	0	0	0	0	0	0	0	
Rank 35's ghost cells:	0	0	0	0	0	31	505	669	0	0	0	0	0	0	0	0	0	0	0	0	0	0	0	0	0	0	0	0	0	0	0	0	299	0	1117	0	624	2	0	0	0	0	0	0	0	0	0	0	0	0	0	0	0	0	0	0	0	0	0	0	0	0	0	0	
Rank 36's ghost cells:	0	0	0	0	0	76	143	0	0	0	0	0	0	37	699	405	0	0	0	0	0	0	0	0	0	0	0	0	0	0	0	0	136	0	55	624	0	1083	388	127	0	0	0	0	0	0	0	0	0	0	0	0	0	0	393	0	0	0	0	0	0	0	0	0	
Rank 37's ghost cells:	0	0	0	0	0	0	0	0	0	0	0	0	0	0	0	0	0	0	0	0	0	0	0	0	0	0	0	0	0	0	0	0	20	56	527	2	1087	0	40	268	133	0	0	0	448	532	28	0	0	0	0	0	34	46	175	465	0	0	0	0	0	0	0	0	
Rank 38's ghost cells:	0	0	0	0	0	198	0	0	0	0	0	0	0	1074	23	138	0	0	0	0	0	0	0	0	0	0	0	0	0	92	0	8	397	109	0	0	392	37	0	1158	0	0	0	0	0	0	0	0	0	0	0	0	586	0	16	0	0	0	0	0	0	0	0	0	
Rank 39's ghost cells:	0	0	0	0	0	0	0	0	0	0	0	0	0	0	0	0	0	0	0	0	0	0	0	0	0	0	0	0	0	0	0	0	174	561	0	0	127	269	1162	0	0	0	0	0	0	364	781	0	0	0	0	0	195	446	0	0	0	0	0	0	0	0	0	0	
Rank 40's ghost cells:	0	0	0	0	0	0	0	0	0	0	0	0	0	0	0	0	0	0	0	0	0	0	0	0	0	0	0	0	0	0	0	0	0	85	644	0	0	142	0	0	0	1039	112	272	384	604	0	0	0	0	0	0	0	0	0	0	0	0	0	0	0	0	0	0	
Rank 41's ghost cells:	0	0	0	0	0	0	0	0	0	0	0	0	0	0	0	0	0	0	0	0	0	0	0	0	0	0	0	0	0	0	0	0	0	68	587	0	0	0	0	0	1035	0	179	244	0	0	0	0	0	0	0	0	0	0	0	0	0	0	0	0	0	0	0	0	
Rank 42's ghost cells:	0	0	0	0	0	0	0	0	0	0	0	0	0	0	0	0	0	0	0	0	0	0	0	0	0	0	0	0	0	0	0	0	0	954	0	0	0	0	0	0	111	179	0	951	0	617	70	97	0	0	0	0	0	0	0	0	0	0	0	0	0	0	0	0	
Rank 43's ghost cells:	0	0	0	0	0	0	0	0	0	0	0	0	0	0	0	0	0	0	0	0	0	0	0	0	0	0	0	0	0	0	0	0	0	0	0	0	0	0	0	0	276	233	951	0	131	239	0	619	0	0	0	0	0	0	0	0	0	0	0	0	0	0	0	0	
Rank 44's ghost cells:	0	0	0	0	0	0	0	0	0	0	0	0	0	0	0	0	0	0	0	0	0	0	0	0	0	0	0	0	0	0	0	0	0	0	0	0	0	463	0	0	385	0	0	131	0	807	220	192	0	750	0	0	0	9	0	134	0	0	0	0	0	0	0	0	
Rank 45's ghost cells:	0	0	0	0	0	0	0	0	0	0	0	0	0	0	0	0	0	0	0	0	0	0	0	0	0	0	0	0	0	0	0	0	0	350	4	0	0	548	0	379	608	0	635	244	836	0	943	292	0	0	0	0	0	0	0	0	0	0	0	0	0	0	0	0	
Rank 46's ghost cells:	0	0	0	0	0	0	0	0	0	0	0	0	0	0	0	0	0	0	0	0	0	0	0	0	0	0	0	0	0	0	0	0	0	0	0	0	0	27	0	783	0	0	70	0	224	925	0	972	0	286	0	437	0	364	0	0	0	0	0	0	0	0	0	0	
Rank 47's ghost cells:	0	0	0	0	0	0	0	0	0	0	0	0	0	0	0	0	0	0	0	0	0	0	0	0	0	0	0	0	0	0	0	0	0	0	0	0	0	0	0	0	0	0	91	621	192	293	963	0	0	86	0	533	0	0	0	0	0	0	0	0	0	0	0	0	
Rank 48's ghost cells:	0	0	0	0	0	0	0	0	0	0	0	0	0	0	0	0	0	0	0	0	0	0	0	0	0	0	0	0	0	0	0	0	0	0	0	0	0	0	0	0	0	0	0	0	0	0	0	0	0	1064	330	78	0	40	0	490	197	0	0	758	317	0	0	0	
Rank 49's ghost cells:	0	0	0	0	0	0	0	0	0	0	0	0	0	0	0	0	0	0	0	0	0	0	0	0	0	0	0	0	0	0	0	0	0	0	0	0	0	0	0	0	0	0	0	0	750	0	283	85	1064	0	18	247	0	259	0	700	0	0	0	0	0	0	0	0	
Rank 50's ghost cells:	0	0	0	0	0	0	0	0	0	0	0	0	0	0	0	0	0	0	0	0	0	0	0	0	0	0	0	0	0	0	0	0	0	0	0	0	0	0	0	0	0	0	0	0	0	0	0	0	339	18	0	1000	0	386	0	4	743	544	0	59	23	0	0	295	
Rank 51's ghost cells:	0	0	0	0	0	0	0	0	0	0	0	0	0	0	0	0	0	0	0	0	0	0	0	0	0	0	0	0	0	0	0	0	0	0	0	0	0	0	0	0	0	0	0	0	0	0	439	540	74	245	1007	0	0	493	0	0	0	0	0	0	0	0	0	0	
Rank 52's ghost cells:	0	0	0	0	0	0	0	0	0	0	0	0	0	54	0	19	0	0	0	0	0	0	0	0	0	0	0	0	0	894	0	149	0	0	0	0	0	33	585	195	0	0	0	0	0	0	0	0	0	0	0	0	0	1098	349	65	0	0	0	0	10	0	0	691	
Rank 53's ghost cells:	0	0	0	0	0	0	0	0	0	0	0	0	0	0	0	0	0	0	0	0	0	0	0	0	0	0	0	0	0	0	0	0	0	0	0	0	0	47	0	459	0	0	0	0	6	0	362	0	45	259	369	488	1098	0	0	285	0	0	0	0	0	0	0	568	
Rank 54's ghost cells:	0	0	0	0	0	0	0	0	0	0	0	0	0	0	0	255	0	0	0	0	0	0	0	0	0	0	0	0	0	0	0	898	0	0	0	0	364	175	16	0	0	0	0	0	0	0	0	0	0	0	0	0	348	0	0	1099	0	0	0	0	740	0	0	35	
Rank 55's ghost cells:	0	0	0	0	0	0	0	0	0	0	0	0	0	0	0	0	0	0	0	0	0	0	0	0	0	0	0	0	0	0	0	0	0	0	0	0	0	465	0	0	0	0	0	0	139	0	0	0	480	703	8	0	58	276	1100	0	0	0	0	0	598	0	0	46	
Rank 56's ghost cells:	0	0	0	0	0	0	0	0	0	0	0	0	0	0	0	0	0	0	0	0	0	0	0	0	0	0	0	0	0	0	0	0	0	0	0	0	0	0	0	0	0	0	0	0	0	0	0	0	197	0	759	0	0	0	0	0	0	859	814	564	0	0	36	259	
Rank 57's ghost cells:	0	0	0	0	0	0	0	0	0	0	0	0	0	0	0	0	0	0	0	0	0	0	0	0	0	0	0	0	0	0	0	0	0	0	0	0	0	0	0	0	0	0	0	0	0	0	0	0	0	0	547	0	0	0	0	0	839	0	492	0	0	0	0	0	
Rank 58's ghost cells:	0	0	0	0	0	0	0	0	0	0	0	0	0	0	0	0	0	0	0	0	0	0	0	0	0	0	0	0	0	0	0	0	0	0	0	0	0	0	0	0	0	0	0	0	0	0	0	0	0	0	0	0	0	0	0	0	818	487	0	251	234	349	944	310	
Rank 59's ghost cells:	0	0	0	0	0	0	0	0	0	0	0	0	0	0	0	0	0	0	0	0	0	0	0	0	0	0	0	0	0	0	0	0	0	0	0	0	0	0	0	0	0	0	0	0	0	0	0	0	775	0	65	0	0	0	0	0	562	0	257	0	485	388	0	5	
Rank 60's ghost cells:	0	0	0	0	0	0	0	0	0	0	0	0	0	0	0	0	0	0	0	0	0	0	0	0	0	0	0	229	0	0	0	318	0	0	0	0	0	0	0	0	0	0	0	0	0	0	0	0	332	0	23	0	10	0	720	597	0	0	238	437	0	1031	59	247	
Rank 61's ghost cells:	0	0	0	0	0	0	0	0	0	0	0	0	0	0	0	0	0	0	0	0	0	0	0	0	0	32	0	805	0	0	0	0	0	0	0	0	0	0	0	0	0	0	0	0	0	0	0	0	0	0	0	0	0	0	0	0	0	0	338	388	1037	0	250	0	
Rank 62's ghost cells:	0	0	0	0	0	0	0	0	0	0	0	0	0	0	0	0	0	0	0	0	0	0	0	0	500	369	0	39	0	0	0	0	0	0	0	0	0	0	0	0	0	0	0	0	0	0	0	0	0	0	0	0	0	0	0	0	37	0	934	0	70	251	0	887	
Rank 63's ghost cells:	0	0	0	0	0	0	0	0	0	0	0	0	0	0	0	0	0	0	0	0	0	0	0	0	280	0	0	2	0	283	0	14	0	0	0	0	0	0	0	0	0	0	0	0	0	0	0	0	0	0	297	0	674	568	35	44	251	0	284	5	235	0	887	0	
=== CGSolver
 Iter          Defect            Rate
    0            249.8
    1          57.5028         0.230195
    2           33.849         0.588651
    3          23.9538         0.707667
    4          20.6715         0.862974
    5          18.0073         0.871114
    6            14.53         0.806896
    7          12.8801         0.886452
    8          12.2718         0.952771
    9          10.3543         0.843749
   10          9.35648         0.903629
   11          9.23502         0.987019
   12          8.09315         0.876354
   13          7.20658         0.890454
   14          7.25537          1.00677
   15          6.62657         0.913333
   16          6.01667         0.907962
   17          5.97557         0.993169
   18          5.56041         0.930523
   19          5.18018         0.931619
   20          5.12028         0.988436
   21          4.65909         0.909929
   22          4.49567         0.964925
   23          4.31162          0.95906
   24          3.93231         0.912025
   25          3.87858         0.986337
   26          3.71873         0.958788
   27          3.42419         0.920794
   28          3.34814         0.977792
   29          3.20511         0.957281
   30          2.96209         0.924176
   31          2.95144         0.996406
   32          2.88178         0.976396
   33          2.85759         0.991607
   34          3.01212          1.05408
   35          3.12294          1.03679
   36          3.17159          1.01558
   37          2.98248         0.940375
   38          2.38845         0.800827
   39          1.80368         0.755169
   40          1.45617         0.807333
   41          1.25614         0.862631
   42          1.16656         0.928685
   43          1.05705         0.906131
   44         0.894707         0.846415
   45          0.77518         0.866407
   46         0.673374         0.868668
   47         0.582404         0.864905
   48         0.507212         0.870894
   49         0.417917         0.823949
   50         0.344981         0.825477
   51         0.294145         0.852642
   52         0.245715         0.835353
   53         0.208899         0.850168
   54         0.179346          0.85853
   55         0.152523         0.850438
   56         0.129204         0.847113
   57         0.107772         0.834121
   58        0.0880221         0.816745
   59        0.0734195         0.834103
   60        0.0602427         0.820527
   61        0.0488276         0.810515
   62        0.0398941          0.81704
   63        0.0315425         0.790658
   64        0.0245522         0.778383
=== rate=0.865731, T=3.12071, TIT=0.048761, IT=64

 Elapsed time: 3.12071
Rank 0: Matrix-vector product took 0.0148141 seconds
Rank 1: Matrix-vector product took 0.0144151 seconds
Rank 2: Matrix-vector product took 0.0141234 seconds
Rank 3: Matrix-vector product took 0.0152276 seconds
Rank 4: Matrix-vector product took 0.0152937 seconds
Rank 5: Matrix-vector product took 0.0153852 seconds
Rank 6: Matrix-vector product took 0.0155183 seconds
Rank 7: Matrix-vector product took 0.0149742 seconds
Rank 8: Matrix-vector product took 0.0148502 seconds
Rank 9: Matrix-vector product took 0.0153494 seconds
Rank 10: Matrix-vector product took 0.0155025 seconds
Rank 11: Matrix-vector product took 0.015454 seconds
Rank 12: Matrix-vector product took 0.0158917 seconds
Rank 13: Matrix-vector product took 0.015791 seconds
Rank 14: Matrix-vector product took 0.0157564 seconds
Rank 15: Matrix-vector product took 0.0157527 seconds
Rank 16: Matrix-vector product took 0.0143307 seconds
Rank 17: Matrix-vector product took 0.0152741 seconds
Rank 18: Matrix-vector product took 0.0150187 seconds
Rank 19: Matrix-vector product took 0.0143049 seconds
Rank 20: Matrix-vector product took 0.0151709 seconds
Rank 21: Matrix-vector product took 0.0158125 seconds
Rank 22: Matrix-vector product took 0.014902 seconds
Rank 23: Matrix-vector product took 0.0156366 seconds
Rank 24: Matrix-vector product took 0.0154197 seconds
Rank 25: Matrix-vector product took 0.0151702 seconds
Rank 26: Matrix-vector product took 0.0159828 seconds
Rank 27: Matrix-vector product took 0.0151306 seconds
Rank 28: Matrix-vector product took 0.0155439 seconds
Rank 29: Matrix-vector product took 0.0157408 seconds
Rank 30: Matrix-vector product took 0.0160012 seconds
Rank 31: Matrix-vector product took 0.0159617 seconds
Rank 32: Matrix-vector product took 0.0152206 seconds
Rank 33: Matrix-vector product took 0.0153414 seconds
Rank 34: Matrix-vector product took 0.0151902 seconds
Rank 35: Matrix-vector product took 0.0152951 seconds
Rank 36: Matrix-vector product took 0.0160022 seconds
Rank 37: Matrix-vector product took 0.0158734 seconds
Rank 38: Matrix-vector product took 0.0159548 seconds
Rank 39: Matrix-vector product took 0.0160276 seconds
Rank 40: Matrix-vector product took 0.0152365 seconds
Rank 41: Matrix-vector product took 0.0142752 seconds
Rank 42: Matrix-vector product took 0.0149259 seconds
Rank 43: Matrix-vector product took 0.0144168 seconds
Rank 44: Matrix-vector product took 0.0152699 seconds
Rank 45: Matrix-vector product took 0.0164314 seconds
Rank 46: Matrix-vector product took 0.0157782 seconds
Rank 47: Matrix-vector product took 0.0148166 seconds
Rank 48: Matrix-vector product took 0.0151543 seconds
Rank 49: Matrix-vector product took 0.0153234 seconds
Rank 50: Matrix-vector product took 0.0153053 seconds
Rank 51: Matrix-vector product took 0.0150207 seconds
Rank 52: Matrix-vector product took 0.0158265 seconds
Rank 53: Matrix-vector product took 0.0156471 seconds
Rank 54: Matrix-vector product took 0.0156844 seconds
Rank 55: Matrix-vector product took 0.0157003 seconds
Rank 56: Matrix-vector product took 0.0152197 seconds
Rank 57: Matrix-vector product took 0.0140838 seconds
Rank 58: Matrix-vector product took 0.0151231 seconds
Rank 59: Matrix-vector product took 0.0150015 seconds
Rank 60: Matrix-vector product took 0.0160043 seconds
Rank 61: Matrix-vector product took 0.0147545 seconds
Rank 62: Matrix-vector product took 0.0151368 seconds
Rank 63: Matrix-vector product took 0.0157072 seconds
Average time for Matrix-vector product is 0.0153164 seconds

Rank 0: copyOwnerToAll took 0.000249239 seconds
Rank 1: copyOwnerToAll took 0.000276059 seconds
Rank 2: copyOwnerToAll took 0.000197989 seconds
Rank 3: copyOwnerToAll took 0.000333249 seconds
Rank 4: copyOwnerToAll took 0.000334839 seconds
Rank 5: copyOwnerToAll took 0.000463119 seconds
Rank 6: copyOwnerToAll took 0.000394229 seconds
Rank 7: copyOwnerToAll took 0.000328569 seconds
Rank 8: copyOwnerToAll took 0.000355909 seconds
Rank 9: copyOwnerToAll took 0.000381539 seconds
Rank 10: copyOwnerToAll took 0.000441459 seconds
Rank 11: copyOwnerToAll took 0.000396359 seconds
Rank 12: copyOwnerToAll took 0.000407209 seconds
Rank 13: copyOwnerToAll took 0.000486909 seconds
Rank 14: copyOwnerToAll took 0.000531289 seconds
Rank 15: copyOwnerToAll took 0.000581939 seconds
Rank 16: copyOwnerToAll took 0.00020093 seconds
Rank 17: copyOwnerToAll took 0.00028644 seconds
Rank 18: copyOwnerToAll took 0.00025323 seconds
Rank 19: copyOwnerToAll took 0.00030007 seconds
Rank 20: copyOwnerToAll took 0.00039279 seconds
Rank 21: copyOwnerToAll took 0.00045096 seconds
Rank 22: copyOwnerToAll took 0.00033568 seconds
Rank 23: copyOwnerToAll took 0.00042703 seconds
Rank 24: copyOwnerToAll took 0.0003938 seconds
Rank 25: copyOwnerToAll took 0.00033879 seconds
Rank 26: copyOwnerToAll took 0.00039876 seconds
Rank 27: copyOwnerToAll took 0.00039249 seconds
Rank 28: copyOwnerToAll took 0.00043772 seconds
Rank 29: copyOwnerToAll took 0.00049063 seconds
Rank 30: copyOwnerToAll took 0.00043687 seconds
Rank 31: copyOwnerToAll took 0.00051544 seconds
Rank 32: copyOwnerToAll took 0.00036644 seconds
Rank 33: copyOwnerToAll took 0.00033742 seconds
Rank 34: copyOwnerToAll took 0.00026111 seconds
Rank 35: copyOwnerToAll took 0.00035064 seconds
Rank 36: copyOwnerToAll took 0.00053134 seconds
Rank 37: copyOwnerToAll took 0.00049927 seconds
Rank 38: copyOwnerToAll took 0.00061774 seconds
Rank 39: copyOwnerToAll took 0.00051966 seconds
Rank 40: copyOwnerToAll took 0.00047183 seconds
Rank 41: copyOwnerToAll took 0.00033284 seconds
Rank 42: copyOwnerToAll took 0.00036132 seconds
Rank 43: copyOwnerToAll took 0.00036601 seconds
Rank 44: copyOwnerToAll took 0.00038975 seconds
Rank 45: copyOwnerToAll took 0.00039951 seconds
Rank 46: copyOwnerToAll took 0.00043393 seconds
Rank 47: copyOwnerToAll took 0.00036786 seconds
Rank 48: copyOwnerToAll took 0.000358641 seconds
Rank 49: copyOwnerToAll took 0.000388881 seconds
Rank 50: copyOwnerToAll took 0.000298901 seconds
Rank 51: copyOwnerToAll took 0.000324141 seconds
Rank 52: copyOwnerToAll took 0.000563222 seconds
Rank 53: copyOwnerToAll took 0.000417601 seconds
Rank 54: copyOwnerToAll took 0.000504131 seconds
Rank 55: copyOwnerToAll took 0.000404841 seconds
Rank 56: copyOwnerToAll took 0.000274291 seconds
Rank 57: copyOwnerToAll took 0.000199861 seconds
Rank 58: copyOwnerToAll took 0.000283691 seconds
Rank 59: copyOwnerToAll took 0.000291101 seconds
Rank 60: copyOwnerToAll took 0.000411001 seconds
Rank 61: copyOwnerToAll took 0.000321051 seconds
Rank 62: copyOwnerToAll took 0.000347301 seconds
Rank 63: copyOwnerToAll took 0.000439911 seconds
Average time for copyOwnertoAll is 0.000385106 seconds
Number of cores/ranks per node is: 16
Metis Node cell partitioner
 Cell on rank 0 before loadbalancing: 249999
Cell on rank 1 before loadbalancing: 249996
Cell on rank 2 before loadbalancing: 249997
Cell on rank 3 before loadbalancing: 250008
Edge-cut: 22646
			Rank 0	Rank 1	Rank 2	Rank 3	Rank 4	Rank 5	Rank 6	Rank 7	Rank 8	Rank 9	Rank 10	Rank 11	Rank 12	Rank 13	Rank 14	Rank 15	Rank 16	Rank 17	Rank 18	Rank 19	Rank 20	Rank 21	Rank 22	Rank 23	Rank 24	Rank 25	Rank 26	Rank 27	Rank 28	Rank 29	Rank 30	Rank 31	Rank 32	Rank 33	Rank 34	Rank 35	Rank 36	Rank 37	Rank 38	Rank 39	Rank 40	Rank 41	Rank 42	Rank 43	Rank 44	Rank 45	Rank 46	Rank 47	Rank 48	Rank 49	Rank 50	Rank 51	Rank 52	Rank 53	Rank 54	Rank 55	Rank 56	Rank 57	Rank 58	Rank 59	Rank 60	Rank 61	Rank 62	Rank 63	
From rank 0 to: 	0	805	0	154	744	0	0	0	152	0	0	952	0	0	0	0	0	0	0	0	0	0	0	0	0	0	0	0	0	0	0	0	0	0	0	0	0	0	0	0	0	0	0	0	0	0	0	0	0	0	0	0	0	0	0	0	0	0	0	0	0	0	0	0	
From rank 1 to: 	824	0	411	379	291	0	33	326	0	0	0	0	0	0	0	0	0	0	0	0	0	0	0	0	0	0	0	0	0	0	0	0	0	0	0	0	0	0	0	0	0	0	0	0	0	0	0	0	0	0	0	0	0	0	0	0	0	0	0	0	0	0	0	0	
From rank 2 to: 	0	411	0	831	0	0	257	351	0	0	0	0	0	0	0	0	0	0	0	0	0	0	0	0	0	0	0	0	0	0	0	0	0	0	0	0	0	0	0	0	0	0	0	0	0	0	0	0	0	0	0	0	0	0	0	0	0	0	0	0	0	0	0	0	
From rank 3 to: 	149	373	830	0	73	0	482	0	504	553	0	175	0	0	87	0	0	0	0	0	0	0	0	0	0	0	0	0	0	0	0	0	0	0	0	0	0	0	0	0	0	0	0	0	0	0	0	0	0	0	0	0	0	0	0	0	0	0	0	0	0	0	0	0	
From rank 4 to: 	744	291	0	75	0	1015	107	338	0	0	0	142	588	0	95	0	0	0	0	0	0	0	0	0	0	0	0	0	0	0	0	0	0	0	0	0	0	0	0	0	0	0	0	0	0	0	0	0	0	0	0	0	0	0	0	0	0	0	0	0	0	0	0	0	
From rank 5 to: 	0	0	0	0	1005	0	144	324	0	0	0	0	134	592	85	0	0	0	0	0	0	0	0	0	0	0	0	0	0	0	0	0	997	0	0	32	69	0	187	0	0	0	0	0	0	0	0	0	0	0	0	0	0	0	0	0	0	0	0	0	0	0	0	0	
From rank 6 to: 	0	33	270	480	107	145	0	965	0	97	0	0	0	0	889	0	0	0	0	0	0	0	0	0	0	0	0	0	0	0	0	0	0	0	0	517	130	0	0	0	0	0	0	0	0	0	0	0	0	0	0	0	0	0	0	0	0	0	0	0	0	0	0	0	
From rank 7 to: 	0	326	341	0	350	320	965	0	0	0	0	0	0	0	0	0	0	0	0	0	0	0	0	0	0	0	0	0	0	0	0	0	46	0	0	672	0	0	0	0	0	0	0	0	0	0	0	0	0	0	0	0	0	0	0	0	0	0	0	0	0	0	0	0	
From rank 8 to: 	152	0	0	507	0	0	0	0	0	832	339	257	0	0	0	0	0	0	0	0	1	0	546	149	0	0	0	0	0	0	0	0	0	0	0	0	0	0	0	0	0	0	0	0	0	0	0	0	0	0	0	0	0	0	0	0	0	0	0	0	0	0	0	0	
From rank 9 to: 	0	0	0	565	0	0	97	0	832	0	188	152	0	0	511	483	0	0	0	0	0	0	0	514	0	0	0	0	0	0	44	0	0	0	0	0	0	0	0	0	0	0	0	0	0	0	0	0	0	0	0	0	0	0	0	0	0	0	0	0	0	0	0	0	
From rank 10 to: 	0	0	0	0	0	0	0	0	344	187	0	1066	591	0	85	192	0	0	0	0	1016	0	11	127	0	0	0	0	46	0	51	0	0	0	0	0	0	0	0	0	0	0	0	0	0	0	0	0	0	0	0	0	0	0	0	0	0	0	0	0	0	0	0	0	
From rank 11 to: 	969	0	0	176	163	0	0	0	252	154	1065	0	704	0	251	0	0	0	0	0	0	0	0	0	0	0	0	0	0	0	0	0	0	0	0	0	0	0	0	0	0	0	0	0	0	0	0	0	0	0	0	0	0	0	0	0	0	0	0	0	0	0	0	0	
From rank 12 to: 	0	0	0	0	590	138	0	0	0	0	593	702	0	1134	133	74	0	0	0	0	2	0	0	0	0	0	0	0	585	0	0	0	0	0	0	0	0	0	0	0	0	0	0	0	0	0	0	0	0	0	0	0	0	0	0	0	0	0	0	0	0	0	0	0	
From rank 13 to: 	0	0	0	0	0	592	0	0	0	0	0	0	1154	0	260	175	0	0	0	0	0	0	0	0	0	0	0	0	148	490	0	0	0	0	0	0	36	0	1066	0	0	0	0	0	0	0	0	0	0	0	0	0	54	0	0	0	0	0	0	0	0	0	0	0	
From rank 14 to: 	0	0	0	88	90	94	893	0	0	499	75	251	134	250	0	991	0	0	0	0	0	0	0	0	0	0	0	0	0	0	0	0	0	0	0	0	695	0	25	0	0	0	0	0	0	0	0	0	0	0	0	0	0	0	0	0	0	0	0	0	0	0	0	0	
From rank 15 to: 	0	0	0	0	0	0	0	0	0	488	192	0	72	172	989	0	0	0	0	0	0	0	0	11	0	0	0	0	50	5	633	614	0	0	0	0	388	0	135	0	0	0	0	0	0	0	0	0	0	0	0	0	20	0	255	0	0	0	0	0	0	0	0	0	
From rank 16 to: 	0	0	0	0	0	0	0	0	0	0	0	0	0	0	0	0	0	1220	136	247	0	0	0	0	0	642	9	0	0	0	0	0	0	0	0	0	0	0	0	0	0	0	0	0	0	0	0	0	0	0	0	0	0	0	0	0	0	0	0	0	0	0	0	0	
From rank 17 to: 	0	0	0	0	0	0	0	0	0	0	0	0	0	0	0	0	1222	0	108	203	210	1101	10	0	289	153	189	0	0	0	0	0	0	0	0	0	0	0	0	0	0	0	0	0	0	0	0	0	0	0	0	0	0	0	0	0	0	0	0	0	0	0	0	0	
From rank 18 to: 	0	0	0	0	0	0	0	0	0	0	0	0	0	0	0	0	135	108	0	989	0	171	75	429	0	79	663	351	0	0	0	0	0	0	0	0	0	0	0	0	0	0	0	0	0	0	0	0	0	0	0	0	0	0	0	0	0	0	0	0	0	0	0	0	
From rank 19 to: 	0	0	0	0	0	0	0	0	0	0	0	0	0	0	0	0	237	203	989	0	6	56	670	0	0	0	0	0	0	0	0	0	0	0	0	0	0	0	0	0	0	0	0	0	0	0	0	0	0	0	0	0	0	0	0	0	0	0	0	0	0	0	0	0	
From rank 20 to: 	0	0	0	0	0	0	0	0	1	0	1028	0	2	0	0	0	0	210	0	6	0	995	255	105	0	0	0	0	580	0	94	0	0	0	0	0	0	0	0	0	0	0	0	0	0	0	0	0	0	0	0	0	0	0	0	0	0	0	0	0	0	0	0	0	
From rank 21 to: 	0	0	0	0	0	0	0	0	0	0	0	0	0	0	0	0	0	1118	174	51	1025	0	246	265	86	0	274	0	538	0	243	0	0	0	0	0	0	0	0	0	0	0	0	0	0	0	0	0	0	0	0	0	0	0	0	0	0	0	0	0	0	0	0	0	
From rank 22 to: 	0	0	0	0	0	0	0	0	544	0	11	0	0	0	0	0	0	10	75	672	256	236	0	1006	0	0	0	0	0	0	0	0	0	0	0	0	0	0	0	0	0	0	0	0	0	0	0	0	0	0	0	0	0	0	0	0	0	0	0	0	0	0	0	0	
From rank 23 to: 	0	0	0	0	0	0	0	0	149	514	127	0	0	0	0	8	0	0	429	0	105	263	1006	0	0	0	170	0	0	0	858	0	0	0	0	0	0	0	0	0	0	0	0	0	0	0	0	0	0	0	0	0	0	0	0	0	0	0	0	0	0	0	0	0	
From rank 24 to: 	0	0	0	0	0	0	0	0	0	0	0	0	0	0	0	0	0	288	0	0	0	86	0	0	0	1055	316	105	360	617	0	10	0	0	0	0	0	0	0	0	0	0	0	0	0	0	0	0	0	0	0	0	0	0	0	0	0	0	0	0	0	0	500	269	
From rank 25 to: 	0	0	0	0	0	0	0	0	0	0	0	0	0	0	0	0	642	146	82	0	0	0	0	0	1040	0	376	294	0	0	0	0	0	0	0	0	0	0	0	0	0	0	0	0	0	0	0	0	0	0	0	0	0	0	0	0	0	0	0	0	0	32	369	0	
From rank 26 to: 	0	0	0	0	0	0	0	0	0	0	0	0	0	0	0	0	7	200	696	0	0	279	0	191	320	377	0	873	101	76	774	364	0	0	0	0	0	0	0	0	0	0	0	0	0	0	0	0	0	0	0	0	0	0	0	0	0	0	0	0	0	0	0	0	
From rank 27 to: 	0	0	0	0	0	0	0	0	0	0	0	0	0	0	0	0	0	0	351	0	0	0	0	0	105	293	838	0	0	0	0	549	0	0	0	0	0	0	0	0	0	0	0	0	0	0	0	0	0	0	0	0	0	0	0	0	0	0	0	0	229	805	50	3	
From rank 28 to: 	0	0	0	0	0	0	0	0	0	0	46	0	586	148	0	45	0	0	0	0	582	516	0	0	354	0	97	0	0	984	330	14	0	0	0	0	0	0	0	0	0	0	0	0	0	0	0	0	0	0	0	0	0	0	0	0	0	0	0	0	0	0	0	0	
From rank 29 to: 	0	0	0	0	0	0	0	0	0	0	0	0	0	473	0	9	0	0	0	0	0	0	0	0	625	0	76	0	982	0	146	266	0	0	0	0	0	0	94	0	0	0	0	0	0	0	0	0	0	0	0	0	908	0	0	0	0	0	0	0	0	0	0	287	
From rank 30 to: 	0	0	0	0	0	0	0	0	0	44	52	0	0	0	0	636	0	0	0	0	94	234	0	856	0	0	774	0	328	133	0	1004	0	0	0	0	0	0	0	0	0	0	0	0	0	0	0	0	0	0	0	0	0	0	0	0	0	0	0	0	0	0	0	0	
From rank 31 to: 	0	0	0	0	0	0	0	0	0	0	0	0	0	0	0	611	0	0	0	0	0	0	0	0	10	0	375	549	14	261	1004	0	0	0	0	0	0	0	8	0	0	0	0	0	0	0	0	0	0	0	0	0	158	0	890	0	0	0	0	0	318	0	0	21	
From rank 32 to: 	0	0	0	0	0	997	0	46	0	0	0	0	0	0	0	0	0	0	0	0	0	0	0	0	0	0	0	0	0	0	0	0	0	1182	118	299	140	20	399	167	0	0	0	0	0	0	0	0	0	0	0	0	0	0	0	0	0	0	0	0	0	0	0	0	
From rank 33 to: 	0	0	0	0	0	0	0	0	0	0	0	0	0	0	0	0	0	0	0	0	0	0	0	0	0	0	0	0	0	0	0	0	1175	0	245	0	0	49	109	574	87	69	948	0	0	312	0	0	0	0	0	0	0	0	0	0	0	0	0	0	0	0	0	0	
From rank 34 to: 	0	0	0	0	0	0	0	0	0	0	0	0	0	0	0	0	0	0	0	0	0	0	0	0	0	0	0	0	0	0	0	0	125	247	0	1108	49	527	0	0	635	587	0	0	0	3	0	0	0	0	0	0	0	0	0	0	0	0	0	0	0	0	0	0	
From rank 35 to: 	0	0	0	0	0	31	505	669	0	0	0	0	0	0	0	0	0	0	0	0	0	0	0	0	0	0	0	0	0	0	0	0	299	0	1117	0	624	2	0	0	0	0	0	0	0	0	0	0	0	0	0	0	0	0	0	0	0	0	0	0	0	0	0	0	
From rank 36 to: 	0	0	0	0	0	76	143	0	0	0	0	0	0	37	699	405	0	0	0	0	0	0	0	0	0	0	0	0	0	0	0	0	136	0	55	624	0	1083	388	127	0	0	0	0	0	0	0	0	0	0	0	0	0	0	393	0	0	0	0	0	0	0	0	0	
From rank 37 to: 	0	0	0	0	0	0	0	0	0	0	0	0	0	0	0	0	0	0	0	0	0	0	0	0	0	0	0	0	0	0	0	0	20	56	527	2	1087	0	40	268	133	0	0	0	448	532	28	0	0	0	0	0	34	46	175	465	0	0	0	0	0	0	0	0	
From rank 38 to: 	0	0	0	0	0	198	0	0	0	0	0	0	0	1074	23	138	0	0	0	0	0	0	0	0	0	0	0	0	0	92	0	8	397	109	0	0	392	37	0	1158	0	0	0	0	0	0	0	0	0	0	0	0	586	0	16	0	0	0	0	0	0	0	0	0	
From rank 39 to: 	0	0	0	0	0	0	0	0	0	0	0	0	0	0	0	0	0	0	0	0	0	0	0	0	0	0	0	0	0	0	0	0	174	561	0	0	127	269	1162	0	0	0	0	0	0	364	781	0	0	0	0	0	195	446	0	0	0	0	0	0	0	0	0	0	
From rank 40 to: 	0	0	0	0	0	0	0	0	0	0	0	0	0	0	0	0	0	0	0	0	0	0	0	0	0	0	0	0	0	0	0	0	0	85	644	0	0	142	0	0	0	1039	112	272	384	604	0	0	0	0	0	0	0	0	0	0	0	0	0	0	0	0	0	0	
From rank 41 to: 	0	0	0	0	0	0	0	0	0	0	0	0	0	0	0	0	0	0	0	0	0	0	0	0	0	0	0	0	0	0	0	0	0	68	587	0	0	0	0	0	1035	0	179	244	0	0	0	0	0	0	0	0	0	0	0	0	0	0	0	0	0	0	0	0	
From rank 42 to: 	0	0	0	0	0	0	0	0	0	0	0	0	0	0	0	0	0	0	0	0	0	0	0	0	0	0	0	0	0	0	0	0	0	954	0	0	0	0	0	0	111	179	0	951	0	617	70	97	0	0	0	0	0	0	0	0	0	0	0	0	0	0	0	0	
From rank 43 to: 	0	0	0	0	0	0	0	0	0	0	0	0	0	0	0	0	0	0	0	0	0	0	0	0	0	0	0	0	0	0	0	0	0	0	0	0	0	0	0	0	276	233	951	0	131	239	0	619	0	0	0	0	0	0	0	0	0	0	0	0	0	0	0	0	
From rank 44 to: 	0	0	0	0	0	0	0	0	0	0	0	0	0	0	0	0	0	0	0	0	0	0	0	0	0	0	0	0	0	0	0	0	0	0	0	0	0	463	0	0	385	0	0	131	0	807	220	192	0	750	0	0	0	9	0	134	0	0	0	0	0	0	0	0	
From rank 45 to: 	0	0	0	0	0	0	0	0	0	0	0	0	0	0	0	0	0	0	0	0	0	0	0	0	0	0	0	0	0	0	0	0	0	350	4	0	0	548	0	379	608	0	635	244	836	0	943	292	0	0	0	0	0	0	0	0	0	0	0	0	0	0	0	0	
From rank 46 to: 	0	0	0	0	0	0	0	0	0	0	0	0	0	0	0	0	0	0	0	0	0	0	0	0	0	0	0	0	0	0	0	0	0	0	0	0	0	27	0	783	0	0	70	0	224	925	0	972	0	286	0	437	0	364	0	0	0	0	0	0	0	0	0	0	
From rank 47 to: 	0	0	0	0	0	0	0	0	0	0	0	0	0	0	0	0	0	0	0	0	0	0	0	0	0	0	0	0	0	0	0	0	0	0	0	0	0	0	0	0	0	0	91	621	192	293	963	0	0	86	0	533	0	0	0	0	0	0	0	0	0	0	0	0	
From rank 48 to: 	0	0	0	0	0	0	0	0	0	0	0	0	0	0	0	0	0	0	0	0	0	0	0	0	0	0	0	0	0	0	0	0	0	0	0	0	0	0	0	0	0	0	0	0	0	0	0	0	0	1064	330	78	0	40	0	490	197	0	0	758	317	0	0	0	
From rank 49 to: 	0	0	0	0	0	0	0	0	0	0	0	0	0	0	0	0	0	0	0	0	0	0	0	0	0	0	0	0	0	0	0	0	0	0	0	0	0	0	0	0	0	0	0	0	750	0	283	85	1064	0	18	247	0	259	0	700	0	0	0	0	0	0	0	0	
From rank 50 to: 	0	0	0	0	0	0	0	0	0	0	0	0	0	0	0	0	0	0	0	0	0	0	0	0	0	0	0	0	0	0	0	0	0	0	0	0	0	0	0	0	0	0	0	0	0	0	0	0	339	18	0	1000	0	386	0	4	743	544	0	59	23	0	0	295	
From rank 51 to: 	0	0	0	0	0	0	0	0	0	0	0	0	0	0	0	0	0	0	0	0	0	0	0	0	0	0	0	0	0	0	0	0	0	0	0	0	0	0	0	0	0	0	0	0	0	0	439	540	74	245	1007	0	0	493	0	0	0	0	0	0	0	0	0	0	
From rank 52 to: 	0	0	0	0	0	0	0	0	0	0	0	0	0	54	0	19	0	0	0	0	0	0	0	0	0	0	0	0	0	894	0	149	0	0	0	0	0	33	585	195	0	0	0	0	0	0	0	0	0	0	0	0	0	1098	349	65	0	0	0	0	10	0	0	691	
From rank 53 to: 	0	0	0	0	0	0	0	0	0	0	0	0	0	0	0	0	0	0	0	0	0	0	0	0	0	0	0	0	0	0	0	0	0	0	0	0	0	47	0	459	0	0	0	0	6	0	362	0	45	259	369	488	1098	0	0	285	0	0	0	0	0	0	0	568	
From rank 54 to: 	0	0	0	0	0	0	0	0	0	0	0	0	0	0	0	255	0	0	0	0	0	0	0	0	0	0	0	0	0	0	0	898	0	0	0	0	364	175	16	0	0	0	0	0	0	0	0	0	0	0	0	0	348	0	0	1099	0	0	0	0	740	0	0	35	
From rank 55 to: 	0	0	0	0	0	0	0	0	0	0	0	0	0	0	0	0	0	0	0	0	0	0	0	0	0	0	0	0	0	0	0	0	0	0	0	0	0	465	0	0	0	0	0	0	139	0	0	0	480	703	8	0	58	276	1100	0	0	0	0	0	598	0	0	46	
From rank 56 to: 	0	0	0	0	0	0	0	0	0	0	0	0	0	0	0	0	0	0	0	0	0	0	0	0	0	0	0	0	0	0	0	0	0	0	0	0	0	0	0	0	0	0	0	0	0	0	0	0	197	0	759	0	0	0	0	0	0	859	814	564	0	0	36	259	
From rank 57 to: 	0	0	0	0	0	0	0	0	0	0	0	0	0	0	0	0	0	0	0	0	0	0	0	0	0	0	0	0	0	0	0	0	0	0	0	0	0	0	0	0	0	0	0	0	0	0	0	0	0	0	547	0	0	0	0	0	839	0	492	0	0	0	0	0	
From rank 58 to: 	0	0	0	0	0	0	0	0	0	0	0	0	0	0	0	0	0	0	0	0	0	0	0	0	0	0	0	0	0	0	0	0	0	0	0	0	0	0	0	0	0	0	0	0	0	0	0	0	0	0	0	0	0	0	0	0	818	487	0	251	234	349	944	310	
From rank 59 to: 	0	0	0	0	0	0	0	0	0	0	0	0	0	0	0	0	0	0	0	0	0	0	0	0	0	0	0	0	0	0	0	0	0	0	0	0	0	0	0	0	0	0	0	0	0	0	0	0	775	0	65	0	0	0	0	0	562	0	257	0	485	388	0	5	
From rank 60 to: 	0	0	0	0	0	0	0	0	0	0	0	0	0	0	0	0	0	0	0	0	0	0	0	0	0	0	0	229	0	0	0	318	0	0	0	0	0	0	0	0	0	0	0	0	0	0	0	0	332	0	23	0	10	0	720	597	0	0	238	437	0	1031	59	247	
From rank 61 to: 	0	0	0	0	0	0	0	0	0	0	0	0	0	0	0	0	0	0	0	0	0	0	0	0	0	32	0	805	0	0	0	0	0	0	0	0	0	0	0	0	0	0	0	0	0	0	0	0	0	0	0	0	0	0	0	0	0	0	338	388	1037	0	250	0	
From rank 62 to: 	0	0	0	0	0	0	0	0	0	0	0	0	0	0	0	0	0	0	0	0	0	0	0	0	500	369	0	39	0	0	0	0	0	0	0	0	0	0	0	0	0	0	0	0	0	0	0	0	0	0	0	0	0	0	0	0	37	0	934	0	70	251	0	887	
From rank 63 to: 	0	0	0	0	0	0	0	0	0	0	0	0	0	0	0	0	0	0	0	0	0	0	0	0	280	0	0	2	0	283	0	14	0	0	0	0	0	0	0	0	0	0	0	0	0	0	0	0	0	0	297	0	674	568	35	44	251	0	284	5	235	0	887	0	
loadb
After loadbalancing process 57 has 17497 cells.
After loadbalancing process 41 has 17737 cells.
After loadbalancing process 16 has 17887 cells.
After loadbalancing process 18 has 18632 cells.
After loadbalancing process 40 has 18899 cells.
After loadbalancing process 19 has 17769 cells.
After loadbalancing process 17 has 19105 cells.
After loadbalancing process 0 has 18441 cells.
After loadbalancing process 61 has 18473 cells.
After loadbalancing process 1 has 17867 cells.
After loadbalancing process 2 has 17474 cells.
After loadbalancing process 3 has 18855 cells.
After loadbalancing process 11 has 19359 cells.
After loadbalancing process 4 has 19017 cells.
After loadbalancing process 42 has 18608 cells.
After loadbalancing process 26 has 19893 cells.
After loadbalancing process 9 has 19017 cells.
After loadbalancing process 34 has 18907 cells.
After loadbalancing process 10 has 19358 cells.
After loadbalancing process 21 has 19643 cells.
After loadbalancing process 23 has 19255 cells.
After loadbalancing process 30 has 19775 cells.
After loadbalancing process 45 has 20460 cells.
After loadbalancing process 32 has 18995 cells.
After loadbalancing process 12 has 19577 cells.
After loadbalancing process 59 has 18158 cells.
After loadbalancing process 56 has 19101 cells.
After loadbalancing process 58 has 19009 cells.
After loadbalancing process 50 has 19043 cells.
After loadbalancing process 14 has 19712 cells.
After loadbalancing process 25 has 18606 cells.
After loadbalancing process 24 has 19238 cells.
After loadbalancing process 31 has 19850 cells.
After loadbalancing process 52 has 19769 cells.
After loadbalancing process 60 has 19875 cells.
After loadbalancing process 51 has 18423 cells.
After loadbalancing process 37 has 19484 cells.
After loadbalancing process 22 has 18431 cells.
After loadbalancing process 8 has 18409 cells.
After loadbalancing process 20 has 18897 cells.
After loadbalancing process 54 has 19566 cells.
After loadbalancing process 35 has 18875 cells.
After loadbalancing process 48 has 18904 cells.
After loadbalancing process 53 has 19616 cells.
After loadbalancing process 29 has 19491 cells.
After loadbalancing process 47 has 18411 cells.
After loadbalancing process 5 has 19198 cells.
After loadbalancing process 27 has 18849 cells.
After loadbalancing process 28 has 19320 cells.
After loadbalancing process 7 has 18646 cells.
After loadbalancing process 46 has 19709 cells.
After loadbalancing process 62 has 18712 cells.
After loadbalancing process 49 has 19028 cells.
After loadbalancing process 6 has 19254 cells.
After loadbalancing process 36 has 19790 cells.
After loadbalancing process 44 has 18718 cells.
After loadbalancing process 39 has 19702 cells.
After loadbalancing process 13 has 19597 cells.
After loadbalancing process 63 has 19486 cells.
After loadbalancing process 15 has 19636 cells.
After loadbalancing process 55 has 19501 cells.
After loadbalancing process 38 has 19860 cells.
After loadbalancing process 33 has 19192 cells.
After loadbalancing process 43 has 18068 cells.
			Rank 0	Rank 1	Rank 2	Rank 3	Rank 4	Rank 5	Rank 6	Rank 7	Rank 8	Rank 9	Rank 10	Rank 11	Rank 12	Rank 13	Rank 14	Rank 15	Rank 16	Rank 17	Rank 18	Rank 19	Rank 20	Rank 21	Rank 22	Rank 23	Rank 24	Rank 25	Rank 26	Rank 27	Rank 28	Rank 29	Rank 30	Rank 31	Rank 32	Rank 33	Rank 34	Rank 35	Rank 36	Rank 37	Rank 38	Rank 39	Rank 40	Rank 41	Rank 42	Rank 43	Rank 44	Rank 45	Rank 46	Rank 47	Rank 48	Rank 49	Rank 50	Rank 51	Rank 52	Rank 53	Rank 54	Rank 55	Rank 56	Rank 57	Rank 58	Rank 59	Rank 60	Rank 61	Rank 62	Rank 63	
Rank 0's ghost cells:	0	805	0	154	744	0	0	0	152	0	0	952	0	0	0	0	0	0	0	0	0	0	0	0	0	0	0	0	0	0	0	0	0	0	0	0	0	0	0	0	0	0	0	0	0	0	0	0	0	0	0	0	0	0	0	0	0	0	0	0	0	0	0	0	
Rank 1's ghost cells:	824	0	411	379	291	0	33	326	0	0	0	0	0	0	0	0	0	0	0	0	0	0	0	0	0	0	0	0	0	0	0	0	0	0	0	0	0	0	0	0	0	0	0	0	0	0	0	0	0	0	0	0	0	0	0	0	0	0	0	0	0	0	0	0	
Rank 2's ghost cells:	0	411	0	831	0	0	257	351	0	0	0	0	0	0	0	0	0	0	0	0	0	0	0	0	0	0	0	0	0	0	0	0	0	0	0	0	0	0	0	0	0	0	0	0	0	0	0	0	0	0	0	0	0	0	0	0	0	0	0	0	0	0	0	0	
Rank 3's ghost cells:	149	373	830	0	73	0	482	0	504	553	0	175	0	0	87	0	0	0	0	0	0	0	0	0	0	0	0	0	0	0	0	0	0	0	0	0	0	0	0	0	0	0	0	0	0	0	0	0	0	0	0	0	0	0	0	0	0	0	0	0	0	0	0	0	
Rank 4's ghost cells:	744	291	0	75	0	1015	107	338	0	0	0	142	588	0	95	0	0	0	0	0	0	0	0	0	0	0	0	0	0	0	0	0	0	0	0	0	0	0	0	0	0	0	0	0	0	0	0	0	0	0	0	0	0	0	0	0	0	0	0	0	0	0	0	0	
Rank 5's ghost cells:	0	0	0	0	1005	0	144	324	0	0	0	0	134	592	85	0	0	0	0	0	0	0	0	0	0	0	0	0	0	0	0	0	997	0	0	32	69	0	187	0	0	0	0	0	0	0	0	0	0	0	0	0	0	0	0	0	0	0	0	0	0	0	0	0	
Rank 6's ghost cells:	0	33	270	480	107	145	0	965	0	97	0	0	0	0	889	0	0	0	0	0	0	0	0	0	0	0	0	0	0	0	0	0	0	0	0	517	130	0	0	0	0	0	0	0	0	0	0	0	0	0	0	0	0	0	0	0	0	0	0	0	0	0	0	0	
Rank 7's ghost cells:	0	326	341	0	350	320	965	0	0	0	0	0	0	0	0	0	0	0	0	0	0	0	0	0	0	0	0	0	0	0	0	0	46	0	0	672	0	0	0	0	0	0	0	0	0	0	0	0	0	0	0	0	0	0	0	0	0	0	0	0	0	0	0	0	
Rank 8's ghost cells:	152	0	0	507	0	0	0	0	0	832	339	257	0	0	0	0	0	0	0	0	1	0	546	149	0	0	0	0	0	0	0	0	0	0	0	0	0	0	0	0	0	0	0	0	0	0	0	0	0	0	0	0	0	0	0	0	0	0	0	0	0	0	0	0	
Rank 9's ghost cells:	0	0	0	565	0	0	97	0	832	0	188	152	0	0	511	483	0	0	0	0	0	0	0	514	0	0	0	0	0	0	44	0	0	0	0	0	0	0	0	0	0	0	0	0	0	0	0	0	0	0	0	0	0	0	0	0	0	0	0	0	0	0	0	0	
Rank 10's ghost cells:	0	0	0	0	0	0	0	0	344	187	0	1066	591	0	85	192	0	0	0	0	1016	0	11	127	0	0	0	0	46	0	51	0	0	0	0	0	0	0	0	0	0	0	0	0	0	0	0	0	0	0	0	0	0	0	0	0	0	0	0	0	0	0	0	0	
Rank 11's ghost cells:	969	0	0	176	163	0	0	0	252	154	1065	0	704	0	251	0	0	0	0	0	0	0	0	0	0	0	0	0	0	0	0	0	0	0	0	0	0	0	0	0	0	0	0	0	0	0	0	0	0	0	0	0	0	0	0	0	0	0	0	0	0	0	0	0	
Rank 12's ghost cells:	0	0	0	0	590	138	0	0	0	0	593	702	0	1134	133	74	0	0	0	0	2	0	0	0	0	0	0	0	585	0	0	0	0	0	0	0	0	0	0	0	0	0	0	0	0	0	0	0	0	0	0	0	0	0	0	0	0	0	0	0	0	0	0	0	
Rank 13's ghost cells:	0	0	0	0	0	592	0	0	0	0	0	0	1154	0	260	175	0	0	0	0	0	0	0	0	0	0	0	0	148	490	0	0	0	0	0	0	36	0	1066	0	0	0	0	0	0	0	0	0	0	0	0	0	54	0	0	0	0	0	0	0	0	0	0	0	
Rank 14's ghost cells:	0	0	0	88	90	94	893	0	0	499	75	251	134	250	0	991	0	0	0	0	0	0	0	0	0	0	0	0	0	0	0	0	0	0	0	0	695	0	25	0	0	0	0	0	0	0	0	0	0	0	0	0	0	0	0	0	0	0	0	0	0	0	0	0	
Rank 15's ghost cells:	0	0	0	0	0	0	0	0	0	488	192	0	72	172	989	0	0	0	0	0	0	0	0	11	0	0	0	0	50	5	633	614	0	0	0	0	388	0	135	0	0	0	0	0	0	0	0	0	0	0	0	0	20	0	255	0	0	0	0	0	0	0	0	0	
Rank 16's ghost cells:	0	0	0	0	0	0	0	0	0	0	0	0	0	0	0	0	0	1220	136	247	0	0	0	0	0	642	9	0	0	0	0	0	0	0	0	0	0	0	0	0	0	0	0	0	0	0	0	0	0	0	0	0	0	0	0	0	0	0	0	0	0	0	0	0	
Rank 17's ghost cells:	0	0	0	0	0	0	0	0	0	0	0	0	0	0	0	0	1222	0	108	203	210	1101	10	0	289	153	189	0	0	0	0	0	0	0	0	0	0	0	0	0	0	0	0	0	0	0	0	0	0	0	0	0	0	0	0	0	0	0	0	0	0	0	0	0	
Rank 18's ghost cells:	0	0	0	0	0	0	0	0	0	0	0	0	0	0	0	0	135	108	0	989	0	171	75	429	0	79	663	351	0	0	0	0	0	0	0	0	0	0	0	0	0	0	0	0	0	0	0	0	0	0	0	0	0	0	0	0	0	0	0	0	0	0	0	0	
Rank 19's ghost cells:	0	0	0	0	0	0	0	0	0	0	0	0	0	0	0	0	237	203	989	0	6	56	670	0	0	0	0	0	0	0	0	0	0	0	0	0	0	0	0	0	0	0	0	0	0	0	0	0	0	0	0	0	0	0	0	0	0	0	0	0	0	0	0	0	
Rank 20's ghost cells:	0	0	0	0	0	0	0	0	1	0	1028	0	2	0	0	0	0	210	0	6	0	995	255	105	0	0	0	0	580	0	94	0	0	0	0	0	0	0	0	0	0	0	0	0	0	0	0	0	0	0	0	0	0	0	0	0	0	0	0	0	0	0	0	0	
Rank 21's ghost cells:	0	0	0	0	0	0	0	0	0	0	0	0	0	0	0	0	0	1118	174	51	1025	0	246	265	86	0	274	0	538	0	243	0	0	0	0	0	0	0	0	0	0	0	0	0	0	0	0	0	0	0	0	0	0	0	0	0	0	0	0	0	0	0	0	0	
Rank 22's ghost cells:	0	0	0	0	0	0	0	0	544	0	11	0	0	0	0	0	0	10	75	672	256	236	0	1006	0	0	0	0	0	0	0	0	0	0	0	0	0	0	0	0	0	0	0	0	0	0	0	0	0	0	0	0	0	0	0	0	0	0	0	0	0	0	0	0	
Rank 23's ghost cells:	0	0	0	0	0	0	0	0	149	514	127	0	0	0	0	8	0	0	429	0	105	263	1006	0	0	0	170	0	0	0	858	0	0	0	0	0	0	0	0	0	0	0	0	0	0	0	0	0	0	0	0	0	0	0	0	0	0	0	0	0	0	0	0	0	
Rank 24's ghost cells:	0	0	0	0	0	0	0	0	0	0	0	0	0	0	0	0	0	288	0	0	0	86	0	0	0	1055	316	105	360	617	0	10	0	0	0	0	0	0	0	0	0	0	0	0	0	0	0	0	0	0	0	0	0	0	0	0	0	0	0	0	0	0	500	269	
Rank 25's ghost cells:	0	0	0	0	0	0	0	0	0	0	0	0	0	0	0	0	642	146	82	0	0	0	0	0	1040	0	376	294	0	0	0	0	0	0	0	0	0	0	0	0	0	0	0	0	0	0	0	0	0	0	0	0	0	0	0	0	0	0	0	0	0	32	369	0	
Rank 26's ghost cells:	0	0	0	0	0	0	0	0	0	0	0	0	0	0	0	0	7	200	696	0	0	279	0	191	320	377	0	873	101	76	774	364	0	0	0	0	0	0	0	0	0	0	0	0	0	0	0	0	0	0	0	0	0	0	0	0	0	0	0	0	0	0	0	0	
Rank 27's ghost cells:	0	0	0	0	0	0	0	0	0	0	0	0	0	0	0	0	0	0	351	0	0	0	0	0	105	293	838	0	0	0	0	549	0	0	0	0	0	0	0	0	0	0	0	0	0	0	0	0	0	0	0	0	0	0	0	0	0	0	0	0	229	805	50	3	
Rank 28's ghost cells:	0	0	0	0	0	0	0	0	0	0	46	0	586	148	0	45	0	0	0	0	582	516	0	0	354	0	97	0	0	984	330	14	0	0	0	0	0	0	0	0	0	0	0	0	0	0	0	0	0	0	0	0	0	0	0	0	0	0	0	0	0	0	0	0	
Rank 29's ghost cells:	0	0	0	0	0	0	0	0	0	0	0	0	0	473	0	9	0	0	0	0	0	0	0	0	625	0	76	0	982	0	146	266	0	0	0	0	0	0	94	0	0	0	0	0	0	0	0	0	0	0	0	0	908	0	0	0	0	0	0	0	0	0	0	287	
Rank 30's ghost cells:	0	0	0	0	0	0	0	0	0	44	52	0	0	0	0	636	0	0	0	0	94	234	0	856	0	0	774	0	328	133	0	1004	0	0	0	0	0	0	0	0	0	0	0	0	0	0	0	0	0	0	0	0	0	0	0	0	0	0	0	0	0	0	0	0	
Rank 31's ghost cells:	0	0	0	0	0	0	0	0	0	0	0	0	0	0	0	611	0	0	0	0	0	0	0	0	10	0	375	549	14	261	1004	0	0	0	0	0	0	0	8	0	0	0	0	0	0	0	0	0	0	0	0	0	158	0	890	0	0	0	0	0	318	0	0	21	
Rank 32's ghost cells:	0	0	0	0	0	997	0	46	0	0	0	0	0	0	0	0	0	0	0	0	0	0	0	0	0	0	0	0	0	0	0	0	0	1182	118	299	140	20	399	167	0	0	0	0	0	0	0	0	0	0	0	0	0	0	0	0	0	0	0	0	0	0	0	0	
Rank 33's ghost cells:	0	0	0	0	0	0	0	0	0	0	0	0	0	0	0	0	0	0	0	0	0	0	0	0	0	0	0	0	0	0	0	0	1175	0	245	0	0	49	109	574	87	69	948	0	0	312	0	0	0	0	0	0	0	0	0	0	0	0	0	0	0	0	0	0	
Rank 34's ghost cells:	0	0	0	0	0	0	0	0	0	0	0	0	0	0	0	0	0	0	0	0	0	0	0	0	0	0	0	0	0	0	0	0	125	247	0	1108	49	527	0	0	635	587	0	0	0	3	0	0	0	0	0	0	0	0	0	0	0	0	0	0	0	0	0	0	
Rank 35's ghost cells:	0	0	0	0	0	31	505	669	0	0	0	0	0	0	0	0	0	0	0	0	0	0	0	0	0	0	0	0	0	0	0	0	299	0	1117	0	624	2	0	0	0	0	0	0	0	0	0	0	0	0	0	0	0	0	0	0	0	0	0	0	0	0	0	0	
Rank 36's ghost cells:	0	0	0	0	0	76	143	0	0	0	0	0	0	37	699	405	0	0	0	0	0	0	0	0	0	0	0	0	0	0	0	0	136	0	55	624	0	1083	388	127	0	0	0	0	0	0	0	0	0	0	0	0	0	0	393	0	0	0	0	0	0	0	0	0	
Rank 37's ghost cells:	0	0	0	0	0	0	0	0	0	0	0	0	0	0	0	0	0	0	0	0	0	0	0	0	0	0	0	0	0	0	0	0	20	56	527	2	1087	0	40	268	133	0	0	0	448	532	28	0	0	0	0	0	34	46	175	465	0	0	0	0	0	0	0	0	
Rank 38's ghost cells:	0	0	0	0	0	198	0	0	0	0	0	0	0	1074	23	138	0	0	0	0	0	0	0	0	0	0	0	0	0	92	0	8	397	109	0	0	392	37	0	1158	0	0	0	0	0	0	0	0	0	0	0	0	586	0	16	0	0	0	0	0	0	0	0	0	
Rank 39's ghost cells:	0	0	0	0	0	0	0	0	0	0	0	0	0	0	0	0	0	0	0	0	0	0	0	0	0	0	0	0	0	0	0	0	174	561	0	0	127	269	1162	0	0	0	0	0	0	364	781	0	0	0	0	0	195	446	0	0	0	0	0	0	0	0	0	0	
Rank 40's ghost cells:	0	0	0	0	0	0	0	0	0	0	0	0	0	0	0	0	0	0	0	0	0	0	0	0	0	0	0	0	0	0	0	0	0	85	644	0	0	142	0	0	0	1039	112	272	384	604	0	0	0	0	0	0	0	0	0	0	0	0	0	0	0	0	0	0	
Rank 41's ghost cells:	0	0	0	0	0	0	0	0	0	0	0	0	0	0	0	0	0	0	0	0	0	0	0	0	0	0	0	0	0	0	0	0	0	68	587	0	0	0	0	0	1035	0	179	244	0	0	0	0	0	0	0	0	0	0	0	0	0	0	0	0	0	0	0	0	
Rank 42's ghost cells:	0	0	0	0	0	0	0	0	0	0	0	0	0	0	0	0	0	0	0	0	0	0	0	0	0	0	0	0	0	0	0	0	0	954	0	0	0	0	0	0	111	179	0	951	0	617	70	97	0	0	0	0	0	0	0	0	0	0	0	0	0	0	0	0	
Rank 43's ghost cells:	0	0	0	0	0	0	0	0	0	0	0	0	0	0	0	0	0	0	0	0	0	0	0	0	0	0	0	0	0	0	0	0	0	0	0	0	0	0	0	0	276	233	951	0	131	239	0	619	0	0	0	0	0	0	0	0	0	0	0	0	0	0	0	0	
Rank 44's ghost cells:	0	0	0	0	0	0	0	0	0	0	0	0	0	0	0	0	0	0	0	0	0	0	0	0	0	0	0	0	0	0	0	0	0	0	0	0	0	463	0	0	385	0	0	131	0	807	220	192	0	750	0	0	0	9	0	134	0	0	0	0	0	0	0	0	
Rank 45's ghost cells:	0	0	0	0	0	0	0	0	0	0	0	0	0	0	0	0	0	0	0	0	0	0	0	0	0	0	0	0	0	0	0	0	0	350	4	0	0	548	0	379	608	0	635	244	836	0	943	292	0	0	0	0	0	0	0	0	0	0	0	0	0	0	0	0	
Rank 46's ghost cells:	0	0	0	0	0	0	0	0	0	0	0	0	0	0	0	0	0	0	0	0	0	0	0	0	0	0	0	0	0	0	0	0	0	0	0	0	0	27	0	783	0	0	70	0	224	925	0	972	0	286	0	437	0	364	0	0	0	0	0	0	0	0	0	0	
Rank 47's ghost cells:	0	0	0	0	0	0	0	0	0	0	0	0	0	0	0	0	0	0	0	0	0	0	0	0	0	0	0	0	0	0	0	0	0	0	0	0	0	0	0	0	0	0	91	621	192	293	963	0	0	86	0	533	0	0	0	0	0	0	0	0	0	0	0	0	
Rank 48's ghost cells:	0	0	0	0	0	0	0	0	0	0	0	0	0	0	0	0	0	0	0	0	0	0	0	0	0	0	0	0	0	0	0	0	0	0	0	0	0	0	0	0	0	0	0	0	0	0	0	0	0	1064	330	78	0	40	0	490	197	0	0	758	317	0	0	0	
Rank 49's ghost cells:	0	0	0	0	0	0	0	0	0	0	0	0	0	0	0	0	0	0	0	0	0	0	0	0	0	0	0	0	0	0	0	0	0	0	0	0	0	0	0	0	0	0	0	0	750	0	283	85	1064	0	18	247	0	259	0	700	0	0	0	0	0	0	0	0	
Rank 50's ghost cells:	0	0	0	0	0	0	0	0	0	0	0	0	0	0	0	0	0	0	0	0	0	0	0	0	0	0	0	0	0	0	0	0	0	0	0	0	0	0	0	0	0	0	0	0	0	0	0	0	339	18	0	1000	0	386	0	4	743	544	0	59	23	0	0	295	
Rank 51's ghost cells:	0	0	0	0	0	0	0	0	0	0	0	0	0	0	0	0	0	0	0	0	0	0	0	0	0	0	0	0	0	0	0	0	0	0	0	0	0	0	0	0	0	0	0	0	0	0	439	540	74	245	1007	0	0	493	0	0	0	0	0	0	0	0	0	0	
Rank 52's ghost cells:	0	0	0	0	0	0	0	0	0	0	0	0	0	54	0	19	0	0	0	0	0	0	0	0	0	0	0	0	0	894	0	149	0	0	0	0	0	33	585	195	0	0	0	0	0	0	0	0	0	0	0	0	0	1098	349	65	0	0	0	0	10	0	0	691	
Rank 53's ghost cells:	0	0	0	0	0	0	0	0	0	0	0	0	0	0	0	0	0	0	0	0	0	0	0	0	0	0	0	0	0	0	0	0	0	0	0	0	0	47	0	459	0	0	0	0	6	0	362	0	45	259	369	488	1098	0	0	285	0	0	0	0	0	0	0	568	
Rank 54's ghost cells:	0	0	0	0	0	0	0	0	0	0	0	0	0	0	0	255	0	0	0	0	0	0	0	0	0	0	0	0	0	0	0	898	0	0	0	0	364	175	16	0	0	0	0	0	0	0	0	0	0	0	0	0	348	0	0	1099	0	0	0	0	740	0	0	35	
Rank 55's ghost cells:	0	0	0	0	0	0	0	0	0	0	0	0	0	0	0	0	0	0	0	0	0	0	0	0	0	0	0	0	0	0	0	0	0	0	0	0	0	465	0	0	0	0	0	0	139	0	0	0	480	703	8	0	58	276	1100	0	0	0	0	0	598	0	0	46	
Rank 56's ghost cells:	0	0	0	0	0	0	0	0	0	0	0	0	0	0	0	0	0	0	0	0	0	0	0	0	0	0	0	0	0	0	0	0	0	0	0	0	0	0	0	0	0	0	0	0	0	0	0	0	197	0	759	0	0	0	0	0	0	859	814	564	0	0	36	259	
Rank 57's ghost cells:	0	0	0	0	0	0	0	0	0	0	0	0	0	0	0	0	0	0	0	0	0	0	0	0	0	0	0	0	0	0	0	0	0	0	0	0	0	0	0	0	0	0	0	0	0	0	0	0	0	0	547	0	0	0	0	0	839	0	492	0	0	0	0	0	
Rank 58's ghost cells:	0	0	0	0	0	0	0	0	0	0	0	0	0	0	0	0	0	0	0	0	0	0	0	0	0	0	0	0	0	0	0	0	0	0	0	0	0	0	0	0	0	0	0	0	0	0	0	0	0	0	0	0	0	0	0	0	818	487	0	251	234	349	944	310	
Rank 59's ghost cells:	0	0	0	0	0	0	0	0	0	0	0	0	0	0	0	0	0	0	0	0	0	0	0	0	0	0	0	0	0	0	0	0	0	0	0	0	0	0	0	0	0	0	0	0	0	0	0	0	775	0	65	0	0	0	0	0	562	0	257	0	485	388	0	5	
Rank 60's ghost cells:	0	0	0	0	0	0	0	0	0	0	0	0	0	0	0	0	0	0	0	0	0	0	0	0	0	0	0	229	0	0	0	318	0	0	0	0	0	0	0	0	0	0	0	0	0	0	0	0	332	0	23	0	10	0	720	597	0	0	238	437	0	1031	59	247	
Rank 61's ghost cells:	0	0	0	0	0	0	0	0	0	0	0	0	0	0	0	0	0	0	0	0	0	0	0	0	0	32	0	805	0	0	0	0	0	0	0	0	0	0	0	0	0	0	0	0	0	0	0	0	0	0	0	0	0	0	0	0	0	0	338	388	1037	0	250	0	
Rank 62's ghost cells:	0	0	0	0	0	0	0	0	0	0	0	0	0	0	0	0	0	0	0	0	0	0	0	0	500	369	0	39	0	0	0	0	0	0	0	0	0	0	0	0	0	0	0	0	0	0	0	0	0	0	0	0	0	0	0	0	37	0	934	0	70	251	0	887	
Rank 63's ghost cells:	0	0	0	0	0	0	0	0	0	0	0	0	0	0	0	0	0	0	0	0	0	0	0	0	280	0	0	2	0	283	0	14	0	0	0	0	0	0	0	0	0	0	0	0	0	0	0	0	0	0	297	0	674	568	35	44	251	0	284	5	235	0	887	0	
=== CGSolver
 Iter          Defect            Rate
    0            249.8
    1          57.5028         0.230195
    2           33.849         0.588651
    3          23.9538         0.707667
    4          20.6715         0.862974
    5          18.0073         0.871114
    6            14.53         0.806896
    7          12.8801         0.886452
    8          12.2718         0.952771
    9          10.3543         0.843749
   10          9.35648         0.903629
   11          9.23502         0.987019
   12          8.09315         0.876354
   13          7.20658         0.890454
   14          7.25537          1.00677
   15          6.62657         0.913333
   16          6.01667         0.907962
   17          5.97557         0.993169
   18          5.56041         0.930523
   19          5.18018         0.931619
   20          5.12028         0.988436
   21          4.65909         0.909929
   22          4.49567         0.964925
   23          4.31162          0.95906
   24          3.93231         0.912025
   25          3.87858         0.986337
   26          3.71873         0.958788
   27          3.42419         0.920794
   28          3.34814         0.977792
   29          3.20511         0.957281
   30          2.96209         0.924176
   31          2.95144         0.996406
   32          2.88178         0.976396
   33          2.85759         0.991607
   34          3.01212          1.05408
   35          3.12294          1.03679
   36          3.17159          1.01558
   37          2.98248         0.940375
   38          2.38845         0.800827
   39          1.80368         0.755169
   40          1.45617         0.807333
   41          1.25614         0.862631
   42          1.16656         0.928685
   43          1.05705         0.906131
   44         0.894707         0.846415
   45          0.77518         0.866407
   46         0.673374         0.868668
   47         0.582404         0.864905
   48         0.507212         0.870894
   49         0.417917         0.823949
   50         0.344981         0.825477
   51         0.294145         0.852642
   52         0.245715         0.835353
   53         0.208899         0.850168
   54         0.179346          0.85853
   55         0.152523         0.850438
   56         0.129204         0.847113
   57         0.107772         0.834121
   58        0.0880221         0.816745
   59        0.0734195         0.834103
   60        0.0602427         0.820527
   61        0.0488276         0.810515
   62        0.0398941          0.81704
   63        0.0315425         0.790658
   64        0.0245522         0.778383
=== rate=0.865731, T=2.98324, TIT=0.0466132, IT=64

 Elapsed time: 2.98324
Rank 0: Matrix-vector product took 0.0147782 seconds
Rank 1: Matrix-vector product took 0.0144333 seconds
Rank 2: Matrix-vector product took 0.0141127 seconds
Rank 3: Matrix-vector product took 0.0151992 seconds
Rank 4: Matrix-vector product took 0.0153268 seconds
Rank 5: Matrix-vector product took 0.0153982 seconds
Rank 6: Matrix-vector product took 0.0155578 seconds
Rank 7: Matrix-vector product took 0.0149969 seconds
Rank 8: Matrix-vector product took 0.0147244 seconds
Rank 9: Matrix-vector product took 0.0153708 seconds
Rank 10: Matrix-vector product took 0.0154787 seconds
Rank 11: Matrix-vector product took 0.015445 seconds
Rank 12: Matrix-vector product took 0.0157266 seconds
Rank 13: Matrix-vector product took 0.0158273 seconds
Rank 14: Matrix-vector product took 0.0158323 seconds
Rank 15: Matrix-vector product took 0.015857 seconds
Rank 16: Matrix-vector product took 0.0143195 seconds
Rank 17: Matrix-vector product took 0.0189191 seconds
Rank 18: Matrix-vector product took 0.0149924 seconds
Rank 19: Matrix-vector product took 0.01427 seconds
Rank 20: Matrix-vector product took 0.0153117 seconds
Rank 21: Matrix-vector product took 0.015615 seconds
Rank 22: Matrix-vector product took 0.014904 seconds
Rank 23: Matrix-vector product took 0.0154429 seconds
Rank 24: Matrix-vector product took 0.0155201 seconds
Rank 25: Matrix-vector product took 0.0148705 seconds
Rank 26: Matrix-vector product took 0.0159688 seconds
Rank 27: Matrix-vector product took 0.0151571 seconds
Rank 28: Matrix-vector product took 0.0155487 seconds
Rank 29: Matrix-vector product took 0.0156813 seconds
Rank 30: Matrix-vector product took 0.0158902 seconds
Rank 31: Matrix-vector product took 0.0159162 seconds
Rank 32: Matrix-vector product took 0.0152458 seconds
Rank 33: Matrix-vector product took 0.0155805 seconds
Rank 34: Matrix-vector product took 0.0152276 seconds
Rank 35: Matrix-vector product took 0.0154094 seconds
Rank 36: Matrix-vector product took 0.0161253 seconds
Rank 37: Matrix-vector product took 0.0155271 seconds
Rank 38: Matrix-vector product took 0.0158743 seconds
Rank 39: Matrix-vector product took 0.015785 seconds
Rank 40: Matrix-vector product took 0.0151196 seconds
Rank 41: Matrix-vector product took 0.0142531 seconds
Rank 42: Matrix-vector product took 0.0150498 seconds
Rank 43: Matrix-vector product took 0.0145518 seconds
Rank 44: Matrix-vector product took 0.0150643 seconds
Rank 45: Matrix-vector product took 0.0163505 seconds
Rank 46: Matrix-vector product took 0.0158625 seconds
Rank 47: Matrix-vector product took 0.0148842 seconds
Rank 48: Matrix-vector product took 0.015242 seconds
Rank 49: Matrix-vector product took 0.0153482 seconds
Rank 50: Matrix-vector product took 0.0152199 seconds
Rank 51: Matrix-vector product took 0.0147905 seconds
Rank 52: Matrix-vector product took 0.0158632 seconds
Rank 53: Matrix-vector product took 0.0158255 seconds
Rank 54: Matrix-vector product took 0.0159067 seconds
Rank 55: Matrix-vector product took 0.0157551 seconds
Rank 56: Matrix-vector product took 0.0153071 seconds
Rank 57: Matrix-vector product took 0.0140781 seconds
Rank 58: Matrix-vector product took 0.0152442 seconds
Rank 59: Matrix-vector product took 0.0145864 seconds
Rank 60: Matrix-vector product took 0.015794 seconds
Rank 61: Matrix-vector product took 0.0148401 seconds
Rank 62: Matrix-vector product took 0.0151075 seconds
Rank 63: Matrix-vector product took 0.0157196 seconds
Average time for Matrix-vector product is 0.0153583 seconds

Rank 0: copyOwnerToAll took 0.00023296 seconds
Rank 1: copyOwnerToAll took 0.0001956 seconds
Rank 2: copyOwnerToAll took 0.00021128 seconds
Rank 3: copyOwnerToAll took 0.00031991 seconds
Rank 4: copyOwnerToAll took 0.00028033 seconds
Rank 5: copyOwnerToAll took 0.00042728 seconds
Rank 6: copyOwnerToAll took 0.000481119 seconds
Rank 7: copyOwnerToAll took 0.00035222 seconds
Rank 8: copyOwnerToAll took 0.00034953 seconds
Rank 9: copyOwnerToAll took 0.00039283 seconds
Rank 10: copyOwnerToAll took 0.00042763 seconds
Rank 11: copyOwnerToAll took 0.00030778 seconds
Rank 12: copyOwnerToAll took 0.000474239 seconds
Rank 13: copyOwnerToAll took 0.000549729 seconds
Rank 14: copyOwnerToAll took 0.00045781 seconds
Rank 15: copyOwnerToAll took 0.000530459 seconds
Rank 16: copyOwnerToAll took 0.00019998 seconds
Rank 17: copyOwnerToAll took 0.00033408 seconds
Rank 18: copyOwnerToAll took 0.00025605 seconds
Rank 19: copyOwnerToAll took 0.0002348 seconds
Rank 20: copyOwnerToAll took 0.00040311 seconds
Rank 21: copyOwnerToAll took 0.00032087 seconds
Rank 22: copyOwnerToAll took 0.00032604 seconds
Rank 23: copyOwnerToAll took 0.00042666 seconds
Rank 24: copyOwnerToAll took 0.00038555 seconds
Rank 25: copyOwnerToAll took 0.00038156 seconds
Rank 26: copyOwnerToAll took 0.00035752 seconds
Rank 27: copyOwnerToAll took 0.00050678 seconds
Rank 28: copyOwnerToAll took 0.00047599 seconds
Rank 29: copyOwnerToAll took 0.00045603 seconds
Rank 30: copyOwnerToAll took 0.0004345 seconds
Rank 31: copyOwnerToAll took 0.00049692 seconds
Rank 32: copyOwnerToAll took 0.000350169 seconds
Rank 33: copyOwnerToAll took 0.000411729 seconds
Rank 34: copyOwnerToAll took 0.000264459 seconds
Rank 35: copyOwnerToAll took 0.000401719 seconds
Rank 36: copyOwnerToAll took 0.000485539 seconds
Rank 37: copyOwnerToAll took 0.000498069 seconds
Rank 38: copyOwnerToAll took 0.000560419 seconds
Rank 39: copyOwnerToAll took 0.000435279 seconds
Rank 40: copyOwnerToAll took 0.000314979 seconds
Rank 41: copyOwnerToAll took 0.000306979 seconds
Rank 42: copyOwnerToAll took 0.000329219 seconds
Rank 43: copyOwnerToAll took 0.000282059 seconds
Rank 44: copyOwnerToAll took 0.000408969 seconds
Rank 45: copyOwnerToAll took 0.000357169 seconds
Rank 46: copyOwnerToAll took 0.000450419 seconds
Rank 47: copyOwnerToAll took 0.000340959 seconds
Rank 48: copyOwnerToAll took 0.00027786 seconds
Rank 49: copyOwnerToAll took 0.000352541 seconds
Rank 50: copyOwnerToAll took 0.000299321 seconds
Rank 51: copyOwnerToAll took 0.000321121 seconds
Rank 52: copyOwnerToAll took 0.000501921 seconds
Rank 53: copyOwnerToAll took 0.000421341 seconds
Rank 54: copyOwnerToAll took 0.000471911 seconds
Rank 55: copyOwnerToAll took 0.000379931 seconds
Rank 56: copyOwnerToAll took 0.000296111 seconds
Rank 57: copyOwnerToAll took 0.0001981 seconds
Rank 58: copyOwnerToAll took 0.00028228 seconds
Rank 59: copyOwnerToAll took 0.000302301 seconds
Rank 60: copyOwnerToAll took 0.000435631 seconds
Rank 61: copyOwnerToAll took 0.000420321 seconds
Rank 62: copyOwnerToAll took 0.000435931 seconds
Rank 63: copyOwnerToAll took 0.000429071 seconds
Average time for copyOwnertoAll is 0.000375171 seconds
