Number of nodes is: 6
Number of cores/ranks per node is: 4
METIS partitioner
Cell on rank 0 before loadbalancing: 1833
Cell on rank 1 before loadbalancing: 1836
Cell on rank 2 before loadbalancing: 1832
Cell on rank 3 before loadbalancing: 1869
Cell on rank 4 before loadbalancing: 1869
Cell on rank 5 before loadbalancing: 1869
Cell on rank 6 before loadbalancing: 1845
Cell on rank 7 before loadbalancing: 1832
Cell on rank 8 before loadbalancing: 1860
Cell on rank 9 before loadbalancing: 1867
Cell on rank 10 before loadbalancing: 1869
Cell on rank 11 before loadbalancing: 1869
Cell on rank 12 before loadbalancing: 1833
Cell on rank 13 before loadbalancing: 1858
Cell on rank 14 before loadbalancing: 1869
Cell on rank 15 before loadbalancing: 1832
Cell on rank 16 before loadbalancing: 1869
Cell on rank 17 before loadbalancing: 1869
Cell on rank 18 before loadbalancing: 1835
Cell on rank 19 before loadbalancing: 1860
Cell on rank 20 before loadbalancing: 1835
Cell on rank 21 before loadbalancing: 1832
Cell on rank 22 before loadbalancing: 1832
Cell on rank 23 before loadbalancing: 1857
Edge-cut: 8072


			Rank 0	Rank 1	Rank 2	Rank 3	Rank 4	Rank 5	Rank 6	Rank 7	Rank 8	Rank 9	Rank 10	Rank 11	Rank 12	Rank 13	Rank 14	Rank 15	Rank 16	Rank 17	Rank 18	Rank 19	Rank 20	Rank 21	Rank 22	Rank 23	
From rank 0 to: 	0	0	247	79	200	0	0	0	0	0	0	0	0	0	0	0	0	0	0	0	0	0	0	0	
From rank 1 to: 	0	0	202	0	0	0	0	0	0	0	0	0	0	0	0	0	0	0	0	0	0	0	0	0	
From rank 2 to: 	240	194	0	0	63	0	0	0	0	0	0	0	0	0	0	0	0	0	0	0	0	0	0	0	
From rank 3 to: 	78	0	0	0	86	98	0	0	0	0	0	0	41	24	0	0	0	0	0	0	0	0	0	0	
From rank 4 to: 	182	0	63	84	0	171	0	17	0	0	0	0	0	0	0	0	0	0	0	0	0	0	0	0	
From rank 5 to: 	0	0	0	94	167	0	132	11	18	0	0	0	25	99	0	0	0	0	0	0	0	0	0	0	
From rank 6 to: 	0	0	0	0	0	143	0	175	96	0	0	0	0	177	167	0	0	27	0	0	0	0	0	0	
From rank 7 to: 	0	0	0	0	19	18	175	0	149	37	0	0	0	0	0	0	0	0	0	0	0	0	0	0	
From rank 8 to: 	0	0	0	0	0	18	93	149	0	180	0	0	0	65	0	0	0	0	0	0	0	0	0	0	
From rank 9 to: 	0	0	0	0	0	0	0	30	179	0	0	201	0	0	0	0	0	0	0	0	0	0	0	0	
From rank 10 to: 	0	0	0	0	0	0	0	0	0	0	0	188	0	0	0	0	0	0	0	0	0	0	0	0	
From rank 11 to: 	0	0	0	0	0	0	0	0	0	202	192	0	0	0	0	0	0	0	0	0	0	0	0	0	
From rank 12 to: 	0	0	0	44	0	28	0	0	0	0	0	0	0	141	45	64	142	9	0	0	0	0	0	0	
From rank 13 to: 	0	0	0	22	0	101	171	0	65	0	0	0	134	0	135	0	67	132	0	0	0	0	0	0	
From rank 14 to: 	0	0	0	0	0	0	176	0	0	0	0	0	39	124	0	0	53	93	0	0	0	0	0	0	
From rank 15 to: 	0	0	0	0	0	0	0	0	0	0	0	0	64	0	0	0	197	17	159	0	19	0	140	71	
From rank 16 to: 	0	0	0	0	0	0	0	0	0	0	0	0	135	67	48	196	0	188	63	0	0	0	0	0	
From rank 17 to: 	0	0	0	0	0	0	27	0	0	0	0	0	6	130	91	12	187	0	197	0	0	0	0	0	
From rank 18 to: 	0	0	0	0	0	0	0	0	0	0	0	0	0	0	0	152	64	197	0	0	264	0	67	0	
From rank 19 to: 	0	0	0	0	0	0	0	0	0	0	0	0	0	0	0	0	0	0	0	0	179	175	68	51	
From rank 20 to: 	0	0	0	0	0	0	0	0	0	0	0	0	0	0	0	18	0	0	273	179	0	0	149	45	
From rank 21 to: 	0	0	0	0	0	0	0	0	0	0	0	0	0	0	0	0	0	0	0	190	0	0	141	106	
From rank 22 to: 	0	0	0	0	0	0	0	0	0	0	0	0	0	0	0	141	0	0	57	73	146	141	0	117	
From rank 23 to: 	0	0	0	0	0	0	0	0	0	0	0	0	0	0	0	71	0	0	0	51	51	116	119	0	

After loadbalancing process 0 has 2359 cells.
After loadbalancing process 1 has 2038 cells.
After loadbalancing process 2 has 2329 cells.
After loadbalancing process 3 has 2196 cells.
After loadbalancing process 4 has 2386 cells.
After loadbalancing process 5 has 2415 cells.
After loadbalancing process 6 has 2630 cells.
After loadbalancing process 7 has 2230 cells.
After loadbalancing process 8 has 2365 cells.
After loadbalancing process 9 has 2277 cells.
After loadbalancing process 10 has 2057 cells.
After loadbalancing process 11 has 2263 cells.
After loadbalancing process 12 has 2306 cells.
After loadbalancing process 13 has 2685 cells.
After loadbalancing process 14 has 2354 cells.
After loadbalancing process 15 has 2499 cells.
After loadbalancing process 16 has 2566 cells.
After loadbalancing process 17 has 2519 cells.
After loadbalancing process 18 has 2579 cells.
After loadbalancing process 19 has 2333 cells.
After loadbalancing process 20 has 2499 cells.
After loadbalancing process 21 has 2269 cells.
After loadbalancing process 22 has 2507 cells.
After loadbalancing process 23 has 2265 cells.


=== rate=0, T=0, TIT=0, IT=0

 Elapsed time: 0
Rank 0: Matrix-vector product took 0.00130474 seconds
Rank 1: Matrix-vector product took 0.00113708 seconds
Rank 2: Matrix-vector product took 0.0013562 seconds
Rank 3: Matrix-vector product took 0.00123449 seconds
Rank 4: Matrix-vector product took 0.00139346 seconds
Rank 5: Matrix-vector product took 0.00144136 seconds
Rank 6: Matrix-vector product took 0.00151794 seconds
Rank 7: Matrix-vector product took 0.00129943 seconds
Rank 8: Matrix-vector product took 0.00137256 seconds
Rank 9: Matrix-vector product took 0.00134533 seconds
Rank 10: Matrix-vector product took 0.00111442 seconds
Rank 11: Matrix-vector product took 0.00129636 seconds
Rank 12: Matrix-vector product took 0.00131635 seconds
Rank 13: Matrix-vector product took 0.0015822 seconds
Rank 14: Matrix-vector product took 0.00141563 seconds
Rank 15: Matrix-vector product took 0.00141147 seconds
Rank 16: Matrix-vector product took 0.0015128 seconds
Rank 17: Matrix-vector product took 0.00148367 seconds
Rank 18: Matrix-vector product took 0.00150302 seconds
Rank 19: Matrix-vector product took 0.00135486 seconds
Rank 20: Matrix-vector product took 0.00144611 seconds
Rank 21: Matrix-vector product took 0.0012787 seconds
Rank 22: Matrix-vector product took 0.00144044 seconds
Rank 23: Matrix-vector product took 0.00126958 seconds
Average time for Matrix-vector product is 0.00136784 seconds

Rank 0: copyOwnerToAll took 0.000341641 seconds
Rank 1: copyOwnerToAll took 0.000341641 seconds
Rank 2: copyOwnerToAll took 0.000341641 seconds
Rank 3: copyOwnerToAll took 0.000341641 seconds
Rank 4: copyOwnerToAll took 0.000341641 seconds
Rank 5: copyOwnerToAll took 0.000341641 seconds
Rank 6: copyOwnerToAll took 0.000341641 seconds
Rank 7: copyOwnerToAll took 0.000341641 seconds
Rank 8: copyOwnerToAll took 0.000341641 seconds
Rank 9: copyOwnerToAll took 0.000341641 seconds
Rank 10: copyOwnerToAll took 0.000341641 seconds
Rank 11: copyOwnerToAll took 0.000341641 seconds
Rank 12: copyOwnerToAll took 0.000341641 seconds
Rank 13: copyOwnerToAll took 0.000341641 seconds
Rank 14: copyOwnerToAll took 0.000341641 seconds
Rank 15: copyOwnerToAll took 0.000341641 seconds
Rank 16: copyOwnerToAll took 0.000341641 seconds
Rank 17: copyOwnerToAll took 0.000341641 seconds
Rank 18: copyOwnerToAll took 0.000341641 seconds
Rank 19: copyOwnerToAll took 0.000341641 seconds
Rank 20: copyOwnerToAll took 0.000341641 seconds
Rank 21: copyOwnerToAll took 0.000341641 seconds
Rank 22: copyOwnerToAll took 0.000341641 seconds
Rank 23: copyOwnerToAll took 0.000341641 seconds
Average time for copyOwnertoAll is 0.000420619 seconds



			Rank 0	Rank 1	Rank 2	Rank 3	Rank 4	Rank 5	Rank 6	Rank 7	Rank 8	Rank 9	Rank 10	Rank 11	Rank 12	Rank 13	Rank 14	Rank 15	Rank 16	Rank 17	Rank 18	Rank 19	Rank 20	Rank 21	Rank 22	Rank 23	
Rank 0's ghost cells:	0	0	247	79	200	0	0	0	0	0	0	0	0	0	0	0	0	0	0	0	0	0	0	0	
Rank 1's ghost cells:	0	0	202	0	0	0	0	0	0	0	0	0	0	0	0	0	0	0	0	0	0	0	0	0	
Rank 2's ghost cells:	240	194	0	0	63	0	0	0	0	0	0	0	0	0	0	0	0	0	0	0	0	0	0	0	
Rank 3's ghost cells:	78	0	0	0	86	98	0	0	0	0	0	0	41	24	0	0	0	0	0	0	0	0	0	0	
Rank 4's ghost cells:	182	0	63	84	0	171	0	17	0	0	0	0	0	0	0	0	0	0	0	0	0	0	0	0	
Rank 5's ghost cells:	0	0	0	94	167	0	132	11	18	0	0	0	25	99	0	0	0	0	0	0	0	0	0	0	
Rank 6's ghost cells:	0	0	0	0	0	143	0	175	96	0	0	0	0	177	167	0	0	27	0	0	0	0	0	0	
Rank 7's ghost cells:	0	0	0	0	19	18	175	0	149	37	0	0	0	0	0	0	0	0	0	0	0	0	0	0	
Rank 8's ghost cells:	0	0	0	0	0	18	93	149	0	180	0	0	0	65	0	0	0	0	0	0	0	0	0	0	
Rank 9's ghost cells:	0	0	0	0	0	0	0	30	179	0	0	201	0	0	0	0	0	0	0	0	0	0	0	0	
Rank 10's ghost cells:	0	0	0	0	0	0	0	0	0	0	0	188	0	0	0	0	0	0	0	0	0	0	0	0	
Rank 11's ghost cells:	0	0	0	0	0	0	0	0	0	202	192	0	0	0	0	0	0	0	0	0	0	0	0	0	
Rank 12's ghost cells:	0	0	0	44	0	28	0	0	0	0	0	0	0	141	45	64	142	9	0	0	0	0	0	0	
Rank 13's ghost cells:	0	0	0	22	0	101	171	0	65	0	0	0	134	0	135	0	67	132	0	0	0	0	0	0	
Rank 14's ghost cells:	0	0	0	0	0	0	176	0	0	0	0	0	39	124	0	0	53	93	0	0	0	0	0	0	
Rank 15's ghost cells:	0	0	0	0	0	0	0	0	0	0	0	0	64	0	0	0	197	17	159	0	19	0	140	71	
Rank 16's ghost cells:	0	0	0	0	0	0	0	0	0	0	0	0	135	67	48	196	0	188	63	0	0	0	0	0	
Rank 17's ghost cells:	0	0	0	0	0	0	27	0	0	0	0	0	6	130	91	12	187	0	197	0	0	0	0	0	
Rank 18's ghost cells:	0	0	0	0	0	0	0	0	0	0	0	0	0	0	0	152	64	197	0	0	264	0	67	0	
Rank 19's ghost cells:	0	0	0	0	0	0	0	0	0	0	0	0	0	0	0	0	0	0	0	0	179	175	68	51	
Rank 20's ghost cells:	0	0	0	0	0	0	0	0	0	0	0	0	0	0	0	18	0	0	273	179	0	0	149	45	
Rank 21's ghost cells:	0	0	0	0	0	0	0	0	0	0	0	0	0	0	0	0	0	0	0	190	0	0	141	106	
Rank 22's ghost cells:	0	0	0	0	0	0	0	0	0	0	0	0	0	0	0	141	0	0	57	73	146	141	0	117	
Rank 23's ghost cells:	0	0	0	0	0	0	0	0	0	0	0	0	0	0	0	71	0	0	0	51	51	116	119	0	
