Number of nodes is: 4
Number of cores/ranks per node is: 4
Metis Uniform CellNode
Cell on rank 0 before loadbalancing: 22211
Cell on rank 1 before loadbalancing: 22224
Cell on rank 2 before loadbalancing: 22209
Cell on rank 3 before loadbalancing: 22205
Cell on rank 4 before loadbalancing: 22265
Cell on rank 5 before loadbalancing: 22197
Cell on rank 6 before loadbalancing: 22054
Cell on rank 7 before loadbalancing: 22430
Cell on rank 8 before loadbalancing: 22183
Cell on rank 9 before loadbalancing: 22152
Cell on rank 10 before loadbalancing: 22058
Cell on rank 11 before loadbalancing: 22254
Cell on rank 12 before loadbalancing: 22433
Cell on rank 13 before loadbalancing: 22346
Cell on rank 14 before loadbalancing: 22083
Cell on rank 15 before loadbalancing: 22103
Edge-cut: 29442


			Rank 0	Rank 1	Rank 2	Rank 3	Rank 4	Rank 5	Rank 6	Rank 7	Rank 8	Rank 9	Rank 10	Rank 11	Rank 12	Rank 13	Rank 14	Rank 15	
From rank 0 to: 	0	1161	329	905	149	0	0	0	0	0	0	0	0	0	0	0	
From rank 1 to: 	1106	0	0	962	0	0	0	0	0	0	0	0	0	0	0	0	
From rank 2 to: 	320	0	0	1443	56	1064	0	0	693	141	0	0	0	0	0	0	
From rank 3 to: 	907	961	1469	0	0	0	0	0	0	0	0	0	0	0	0	0	
From rank 4 to: 	128	0	35	0	0	4	0	0	66	608	59	147	0	0	0	46	
From rank 5 to: 	0	0	1099	0	18	0	111	94	1501	526	0	40	0	0	0	349	
From rank 6 to: 	0	0	0	0	0	122	0	263	0	322	1532	729	0	0	1002	418	
From rank 7 to: 	0	0	0	0	0	85	254	0	0	675	407	18	645	144	0	596	
From rank 8 to: 	0	0	717	0	74	1532	0	0	0	1343	0	183	0	0	0	387	
From rank 9 to: 	0	0	151	0	619	626	312	676	1331	0	63	296	0	0	0	520	
From rank 10 to: 	0	0	0	0	59	0	1573	427	0	63	0	793	46	0	86	339	
From rank 11 to: 	0	0	0	0	152	40	716	18	172	252	759	0	0	0	0	615	
From rank 12 to: 	0	0	0	0	0	0	0	641	0	0	50	0	0	623	0	92	
From rank 13 to: 	0	0	0	0	0	0	0	144	0	0	0	0	621	0	0	0	
From rank 14 to: 	0	0	0	0	0	0	998	0	0	0	86	0	0	0	0	448	
From rank 15 to: 	0	0	0	0	70	355	375	624	461	539	358	624	107	0	456	0	

Edge-cut for node partition: 7999


After loadbalancing process 0 has 24755 cells.
After loadbalancing process 1 has 24292 cells.
After loadbalancing process 2 has 25926 cells.
After loadbalancing process 3 has 25542 cells.
After loadbalancing process 4 has 23358 cells.
After loadbalancing process 5 has 25935 cells.
After loadbalancing process 6 has 26419 cells.
After loadbalancing process 7 has 26746 cells.
After loadbalancing process 8 has 26442 cells.
After loadbalancing process 9 has 25444 cells.
After loadbalancing process 10 has 24978 cells.
After loadbalancing process 11 has 23615 cells.
After loadbalancing process 12 has 25254 cells.
After loadbalancing process 13 has 23839 cells.
After loadbalancing process 14 has 23111 cells.
After loadbalancing process 15 has 26072 cells.


=== rate=0, T=0, TIT=0, IT=0

 Elapsed time: 0
Rank 0: Matrix-vector product took 0.0146147 seconds
Rank 1: Matrix-vector product took 0.0143535 seconds
Rank 2: Matrix-vector product took 0.015376 seconds
Rank 3: Matrix-vector product took 0.0152497 seconds
Rank 4: Matrix-vector product took 0.013391 seconds
Rank 5: Matrix-vector product took 0.0153453 seconds
Rank 6: Matrix-vector product took 0.0157762 seconds
Rank 7: Matrix-vector product took 0.0157745 seconds
Rank 8: Matrix-vector product took 0.0155747 seconds
Rank 9: Matrix-vector product took 0.0148943 seconds
Rank 10: Matrix-vector product took 0.0149259 seconds
Rank 11: Matrix-vector product took 0.0136286 seconds
Rank 12: Matrix-vector product took 0.0150412 seconds
Rank 13: Matrix-vector product took 0.0143916 seconds
Rank 14: Matrix-vector product took 0.0133443 seconds
Rank 15: Matrix-vector product took 0.0151104 seconds
Average time for Matrix-vector product is 0.0147995 seconds

Rank 0: copyOwnerToAll took 0.000563369 seconds
Rank 1: copyOwnerToAll took 0.000563369 seconds
Rank 2: copyOwnerToAll took 0.000563369 seconds
Rank 3: copyOwnerToAll took 0.000563369 seconds
Rank 4: copyOwnerToAll took 0.000563369 seconds
Rank 5: copyOwnerToAll took 0.000563369 seconds
Rank 6: copyOwnerToAll took 0.000563369 seconds
Rank 7: copyOwnerToAll took 0.000563369 seconds
Rank 8: copyOwnerToAll took 0.000563369 seconds
Rank 9: copyOwnerToAll took 0.000563369 seconds
Rank 10: copyOwnerToAll took 0.000563369 seconds
Rank 11: copyOwnerToAll took 0.000563369 seconds
Rank 12: copyOwnerToAll took 0.000563369 seconds
Rank 13: copyOwnerToAll took 0.000563369 seconds
Rank 14: copyOwnerToAll took 0.000563369 seconds
Rank 15: copyOwnerToAll took 0.000563369 seconds
Average time for copyOwnertoAll is 0.000586577 seconds



			Rank 0	Rank 1	Rank 2	Rank 3	Rank 4	Rank 5	Rank 6	Rank 7	Rank 8	Rank 9	Rank 10	Rank 11	Rank 12	Rank 13	Rank 14	Rank 15	
Rank 0's ghost cells:	0	1161	329	905	149	0	0	0	0	0	0	0	0	0	0	0	
Rank 1's ghost cells:	1106	0	0	962	0	0	0	0	0	0	0	0	0	0	0	0	
Rank 2's ghost cells:	320	0	0	1443	56	1064	693	141	0	0	0	0	0	0	0	0	
Rank 3's ghost cells:	907	961	1469	0	0	0	0	0	0	0	0	0	0	0	0	0	
Rank 4's ghost cells:	128	0	35	0	0	4	66	608	0	59	147	0	0	0	0	46	
Rank 5's ghost cells:	0	0	1099	0	18	0	1501	526	111	0	40	0	94	0	0	349	
Rank 6's ghost cells:	0	0	717	0	74	1532	0	1343	0	0	183	0	0	0	0	387	
Rank 7's ghost cells:	0	0	151	0	619	626	1331	0	312	63	296	0	676	0	0	520	
Rank 8's ghost cells:	0	0	0	0	0	122	0	322	0	1532	729	1002	263	0	0	418	
Rank 9's ghost cells:	0	0	0	0	59	0	0	63	1573	0	793	86	427	46	0	339	
Rank 10's ghost cells:	0	0	0	0	152	40	172	252	716	759	0	0	18	0	0	615	
Rank 11's ghost cells:	0	0	0	0	0	0	0	0	998	86	0	0	0	0	0	448	
Rank 12's ghost cells:	0	0	0	0	0	85	0	675	254	407	18	0	0	645	144	596	
Rank 13's ghost cells:	0	0	0	0	0	0	0	0	0	50	0	0	641	0	623	92	
Rank 14's ghost cells:	0	0	0	0	0	0	0	0	0	0	0	0	144	621	0	0	
Rank 15's ghost cells:	0	0	0	0	70	355	461	539	375	358	624	456	624	107	0	0	
