Number of cores/ranks per node is: 21
Scotch Node cell partitioner
 Cell on rank 0 before loadbalancing: 3331710
Cell on rank 1 before loadbalancing: 3333244
Cell on rank 2 before loadbalancing: 3335046


			Rank 0	Rank 1	Rank 2	Rank 3	Rank 4	Rank 5	Rank 6	Rank 7	Rank 8	Rank 9	Rank 10	Rank 11	Rank 12	Rank 13	Rank 14	Rank 15	Rank 16	Rank 17	Rank 18	Rank 19	Rank 20	Rank 21	Rank 22	Rank 23	Rank 24	Rank 25	Rank 26	Rank 27	Rank 28	Rank 29	Rank 30	Rank 31	Rank 32	Rank 33	Rank 34	Rank 35	Rank 36	Rank 37	Rank 38	Rank 39	Rank 40	Rank 41	Rank 42	Rank 43	Rank 44	Rank 45	Rank 46	Rank 47	Rank 48	Rank 49	Rank 50	Rank 51	Rank 52	Rank 53	Rank 54	Rank 55	Rank 56	Rank 57	Rank 58	Rank 59	Rank 60	Rank 61	Rank 62	Rank 63	
From rank 0 to: 	0	2598	1481	1966	376	0	149	1754	0	79	0	0	0	0	0	0	0	0	0	0	0	0	0	0	0	0	0	0	0	0	0	370	1999	0	0	0	0	0	0	0	0	0	0	0	0	0	0	0	0	0	0	0	0	0	0	0	0	0	0	0	0	0	0	0	
From rank 1 to: 	2598	0	1164	0	2312	0	2099	128	0	0	0	0	0	0	0	0	0	0	0	0	0	0	0	0	0	0	0	0	0	0	0	2484	0	0	0	0	0	0	0	0	0	0	0	0	0	0	0	0	0	0	0	0	0	0	0	0	0	0	0	0	0	0	0	0	
From rank 2 to: 	1487	1161	0	2447	2306	0	0	0	0	0	0	0	0	0	0	0	0	0	0	0	0	0	0	0	0	0	0	513	0	3656	0	633	721	0	0	0	0	0	0	0	0	0	0	0	0	0	0	0	0	0	0	0	0	0	0	0	0	0	0	0	0	0	0	0	
From rank 3 to: 	1963	0	2445	0	2328	0	0	429	0	2831	0	0	0	0	0	0	0	0	0	0	0	0	0	0	0	0	0	0	0	0	0	0	0	0	0	0	0	0	0	0	0	0	0	0	0	0	0	0	0	0	0	0	0	0	0	0	0	0	0	0	0	0	0	0	
From rank 4 to: 	373	2323	2313	2324	0	0	712	0	1891	745	0	0	0	0	0	0	0	0	0	0	0	0	0	0	0	0	0	0	0	0	0	0	0	0	0	0	0	0	0	0	0	0	0	0	0	0	0	0	0	0	0	0	0	0	0	0	0	0	0	0	0	0	0	0	
From rank 5 to: 	0	0	0	0	0	0	2259	1091	938	0	1531	0	0	0	0	0	2807	0	716	1319	93	0	0	0	0	0	0	0	0	0	0	0	0	0	0	0	0	0	0	0	0	0	0	0	0	0	0	0	0	0	0	0	0	0	0	0	0	0	0	0	0	0	0	0	
From rank 6 to: 	146	2099	0	0	713	2259	0	2323	1616	974	92	0	0	0	0	0	0	0	0	0	0	0	0	0	0	0	0	0	0	0	0	0	0	0	0	0	0	0	0	0	0	0	0	0	0	0	0	0	0	0	0	0	0	0	0	0	0	0	0	0	0	0	0	0	
From rank 7 to: 	1756	127	0	417	0	1080	2323	0	0	1924	1039	0	0	0	0	0	934	0	0	0	0	0	0	0	0	0	0	0	0	0	0	0	0	0	0	0	0	0	0	0	0	0	0	0	0	0	0	0	0	0	0	0	0	0	0	0	0	0	0	0	0	0	0	0	
From rank 8 to: 	0	0	0	0	1895	938	1616	0	0	2202	1552	0	0	0	0	0	0	0	0	1649	0	0	0	0	0	0	0	0	0	0	0	0	0	0	0	0	0	0	0	0	0	0	0	0	0	0	0	0	0	0	0	0	0	0	0	0	0	0	0	0	0	0	0	0	
From rank 9 to: 	73	0	0	2826	738	0	974	1927	2213	0	3022	0	0	0	0	0	0	0	0	0	0	0	0	0	0	0	0	0	0	0	0	0	0	0	0	0	0	0	0	0	0	0	0	0	0	0	0	0	0	0	0	0	0	0	0	0	0	0	0	0	0	0	0	0	
From rank 10 to: 	0	0	0	0	0	1539	100	1050	1532	3021	0	0	0	0	0	0	475	0	0	682	3318	0	0	0	0	0	0	0	0	0	0	0	0	0	0	0	0	0	0	0	0	0	0	0	0	0	0	0	0	0	0	0	0	0	0	0	0	0	0	0	0	0	0	0	
From rank 11 to: 	0	0	0	0	0	0	0	0	0	0	0	0	2615	0	1990	1430	0	315	1626	0	0	0	0	0	0	0	0	0	0	0	0	0	0	0	0	0	0	0	0	0	0	0	0	0	0	0	0	0	0	0	0	0	0	0	0	0	0	0	0	0	0	0	0	0	
From rank 12 to: 	0	0	0	0	0	0	0	0	0	0	0	2615	0	2440	457	478	0	2185	0	0	0	0	0	0	0	0	0	0	0	0	0	0	0	0	0	0	0	0	0	0	0	0	0	0	0	0	0	0	0	0	0	0	0	0	0	0	0	0	0	0	0	0	0	0	
From rank 13 to: 	0	0	0	0	0	0	0	0	0	0	0	0	2439	0	2215	1171	0	561	0	0	0	1662	0	0	0	0	0	0	0	0	0	0	0	0	0	0	0	0	0	0	0	0	0	0	0	0	0	0	0	0	0	0	0	0	0	0	0	0	0	0	0	0	0	0	
From rank 14 to: 	0	0	0	0	0	0	0	0	0	0	0	1993	449	2219	0	3102	0	0	0	0	0	0	0	0	0	0	0	0	0	0	0	0	0	0	0	0	0	0	0	0	0	0	0	0	0	0	0	0	0	0	0	0	0	0	0	0	0	0	0	0	0	0	0	0	
From rank 15 to: 	0	0	0	0	0	0	0	0	0	0	0	1437	463	1188	3103	0	0	415	1519	1129	0	2196	0	0	0	0	0	0	0	0	0	0	0	0	0	0	0	0	0	0	0	0	0	0	0	0	0	0	0	0	0	0	0	0	0	0	0	0	0	0	0	0	0	0	
From rank 16 to: 	0	0	0	0	0	2787	0	934	0	0	485	0	0	0	0	0	0	2132	1492	499	2224	0	0	0	0	0	0	0	0	0	0	0	0	0	0	0	0	0	0	0	0	0	0	0	0	0	0	0	0	0	0	0	0	0	0	0	0	0	0	0	0	0	0	0	
From rank 17 to: 	0	0	0	0	0	0	0	0	0	0	0	303	2185	575	0	415	2128	0	2164	0	875	2064	0	0	0	0	0	0	0	0	0	0	0	0	0	0	0	0	0	0	0	0	0	0	0	0	0	0	0	0	0	0	0	0	0	0	0	0	0	0	0	0	0	0	
From rank 18 to: 	0	0	0	0	0	716	0	0	0	0	0	1627	0	0	0	1496	1467	2163	0	1451	176	665	0	0	0	0	0	0	0	0	0	0	0	0	0	0	0	0	0	0	0	0	0	0	0	0	0	0	0	0	0	0	0	0	0	0	0	0	0	0	0	0	0	0	
From rank 19 to: 	0	0	0	0	0	1326	0	0	1652	0	671	0	0	0	0	1129	493	0	1447	0	1922	1266	0	0	0	0	0	0	0	0	0	0	0	0	0	0	0	0	0	0	0	0	0	0	0	0	0	0	0	0	0	0	0	0	0	0	0	0	0	0	0	0	0	0	
From rank 20 to: 	0	0	0	0	0	79	0	0	0	0	3317	0	0	0	0	0	2224	856	178	1923	0	2562	0	0	0	0	0	0	0	0	0	0	0	0	0	0	0	0	0	0	0	0	0	0	0	0	0	0	0	0	0	0	0	0	0	0	0	0	0	0	0	0	0	0	
From rank 21 to: 	0	0	0	0	0	0	0	0	0	0	0	0	0	1665	0	2221	0	2060	665	1287	2567	0	0	0	0	0	0	0	0	0	0	0	0	0	0	0	0	0	0	0	0	0	0	0	0	0	0	0	0	0	0	0	0	0	0	0	0	0	0	0	0	0	0	0	
From rank 22 to: 	0	0	0	0	0	0	0	0	0	0	0	0	0	0	0	0	0	0	0	0	0	0	0	2106	0	2183	1647	0	0	0	1607	0	0	1826	516	23	0	0	0	0	0	0	0	0	0	0	0	0	0	0	0	0	0	0	0	0	0	0	0	0	0	0	0	0	
From rank 23 to: 	0	0	0	0	0	0	0	0	0	0	0	0	0	0	0	0	0	0	0	0	0	0	2106	0	2526	400	512	426	0	0	1690	0	124	0	1701	0	0	0	0	0	0	0	0	0	0	0	0	0	0	0	0	0	0	0	0	0	0	0	0	0	0	0	0	0	
From rank 24 to: 	0	0	0	0	0	0	0	0	0	0	0	0	0	0	0	0	0	0	0	0	0	0	0	2525	0	1518	1851	2101	58	0	122	0	0	0	341	0	2053	0	0	0	0	0	0	0	0	0	0	0	0	0	0	0	0	0	0	0	0	0	0	0	0	0	0	0	
From rank 25 to: 	0	0	0	0	0	0	0	0	0	0	0	0	0	0	0	0	0	0	0	0	0	0	2183	406	1522	0	3189	0	0	0	0	0	0	152	232	2010	1831	0	0	0	0	0	0	0	0	0	0	0	0	0	0	0	0	0	0	0	0	0	0	0	0	0	0	0	
From rank 26 to: 	0	0	0	0	0	0	0	0	0	0	0	0	0	0	0	0	0	0	0	0	0	0	1658	515	1841	3189	0	332	3427	0	730	0	0	0	0	0	0	0	0	0	0	0	0	0	0	0	0	0	0	0	0	0	0	0	0	0	0	0	0	0	0	0	0	0	
From rank 27 to: 	0	0	513	0	0	0	0	0	0	0	0	0	0	0	0	0	0	0	0	0	0	0	0	428	2099	0	303	0	1934	1917	568	0	1658	0	0	0	0	0	0	0	0	0	0	0	0	0	0	0	0	0	0	0	0	0	0	0	0	0	0	0	0	0	0	0	
From rank 28 to: 	0	0	0	0	0	0	0	0	0	0	0	0	0	0	0	0	0	0	0	0	0	0	0	0	57	0	3432	1934	0	2913	2039	568	23	0	0	0	0	0	0	0	0	0	0	0	0	0	0	0	0	0	0	0	0	0	0	0	0	0	0	0	0	0	0	0	
From rank 29 to: 	0	0	3668	0	0	0	0	0	0	0	0	0	0	0	0	0	0	0	0	0	0	0	0	0	0	0	0	1948	2919	0	18	2497	1174	0	0	0	0	0	0	0	0	0	0	0	0	0	0	0	0	0	0	0	0	0	0	0	0	0	0	0	0	0	0	0	
From rank 30 to: 	0	0	0	0	0	0	0	0	0	0	0	0	0	0	0	0	0	0	0	0	0	0	1605	1705	113	0	703	546	2038	16	0	2450	1735	0	0	0	0	0	0	0	0	0	0	0	0	0	0	0	0	0	0	0	0	0	0	0	0	0	0	0	0	0	0	0	
From rank 31 to: 	383	2485	630	0	0	0	0	0	0	0	0	0	0	0	0	0	0	0	0	0	0	0	0	0	0	0	0	0	561	2489	2442	0	2177	0	0	0	0	0	0	0	0	0	0	0	0	0	0	0	0	0	0	0	0	0	0	0	0	0	0	0	0	0	0	0	
From rank 32 to: 	1999	0	721	0	0	0	0	0	0	0	0	0	0	0	0	0	0	0	0	0	0	0	0	124	0	0	0	1674	25	1156	1745	2179	0	0	0	0	0	0	0	0	0	0	0	0	0	0	0	0	0	0	0	0	0	0	0	0	0	0	0	0	0	0	0	0	
From rank 33 to: 	0	0	0	0	0	0	0	0	0	0	0	0	0	0	0	0	0	0	0	0	0	0	1826	0	0	147	0	0	0	0	0	0	0	0	2328	2309	501	923	0	2233	134	0	0	0	0	0	0	0	0	0	0	0	0	0	0	0	0	0	0	0	0	0	0	0	
From rank 34 to: 	0	0	0	0	0	0	0	0	0	0	0	0	0	0	0	0	0	0	0	0	0	0	521	1701	336	227	0	0	0	0	0	0	0	2328	0	0	1839	1355	0	67	1416	0	0	0	0	0	0	0	0	0	0	0	0	0	0	0	0	0	0	0	0	0	0	0	
From rank 35 to: 	0	0	0	0	0	0	0	0	0	0	0	0	0	0	0	0	0	0	0	0	0	0	28	0	0	2010	0	0	0	0	0	0	0	2326	0	0	1526	1781	0	754	0	1540	0	0	0	0	0	0	0	0	0	0	0	0	0	0	0	0	0	0	0	0	0	0	
From rank 36 to: 	0	0	0	0	0	0	0	0	0	0	0	0	0	0	0	0	0	0	0	0	0	0	0	0	2054	1821	0	0	0	0	0	0	0	495	1841	1529	0	3135	0	0	0	0	0	0	0	0	0	0	0	0	0	0	0	0	0	0	0	0	0	0	0	0	0	0	
From rank 37 to: 	0	0	0	0	0	0	0	0	0	0	0	0	0	0	0	0	0	0	0	0	0	0	0	0	0	0	0	0	0	0	0	0	0	911	1357	1793	3136	0	0	450	661	3264	0	0	0	0	0	0	0	0	0	0	0	0	0	0	0	0	0	0	0	0	0	0	
From rank 38 to: 	0	0	0	0	0	0	0	0	0	0	0	0	0	0	0	0	0	0	0	0	0	0	0	0	0	0	0	0	0	0	0	0	0	0	0	0	0	0	0	2057	2239	0	1753	1571	0	0	0	0	0	0	0	0	0	0	0	0	0	0	0	3846	0	0	603	0	
From rank 39 to: 	0	0	0	0	0	0	0	0	0	0	0	0	0	0	0	0	0	0	0	0	0	0	0	0	0	0	0	0	0	0	0	0	0	2232	71	771	0	437	2060	0	2186	1106	1180	0	0	0	0	0	0	0	0	0	0	0	0	0	0	0	0	0	0	0	0	0	
From rank 40 to: 	0	0	0	0	0	0	0	0	0	0	0	0	0	0	0	0	0	0	0	0	0	0	0	0	0	0	0	0	0	0	0	0	0	117	1416	0	0	637	2266	2191	0	1784	119	1090	0	0	0	0	0	0	0	0	0	0	0	0	0	0	0	0	0	0	0	0	
From rank 41 to: 	0	0	0	0	0	0	0	0	0	0	0	0	0	0	0	0	0	0	0	0	0	0	0	0	0	0	0	0	0	0	0	0	0	0	0	1541	0	3249	0	1099	1788	0	2113	2367	0	0	0	0	0	0	0	0	0	0	0	0	0	0	0	0	0	0	0	0	
From rank 42 to: 	0	0	0	0	0	0	0	0	0	0	0	0	0	0	0	0	0	0	0	0	0	0	0	0	0	0	0	0	0	0	0	0	0	0	0	0	0	0	1759	1208	127	2141	0	2499	0	0	0	0	0	0	0	0	0	0	0	0	0	0	0	4	0	0	1455	992	
From rank 43 to: 	0	0	0	0	0	0	0	0	0	0	0	0	0	0	0	0	0	0	0	0	0	0	0	0	0	0	0	0	0	0	0	0	0	0	0	0	0	0	1567	0	1090	2367	2503	0	0	0	0	0	0	0	0	0	0	0	0	0	0	0	0	0	0	0	3269	0	
From rank 44 to: 	0	0	0	0	0	0	0	0	0	0	0	0	0	0	0	0	0	0	0	0	0	0	0	0	0	0	0	0	0	0	0	0	0	0	0	0	0	0	0	0	0	0	0	0	0	2722	0	2203	1767	148	1943	311	285	0	0	0	0	0	0	0	0	0	0	0	
From rank 45 to: 	0	0	0	0	0	0	0	0	0	0	0	0	0	0	0	0	0	0	0	0	0	0	0	0	0	0	0	0	0	0	0	0	0	0	0	0	0	0	0	0	0	0	0	0	2724	0	2255	1002	735	1775	63	57	0	0	0	0	0	0	0	0	0	0	0	0	
From rank 46 to: 	0	0	0	0	0	0	0	0	0	0	0	0	0	0	0	0	0	0	0	0	0	0	0	0	0	0	0	0	0	0	0	0	0	0	0	0	0	0	0	0	0	0	0	0	0	2252	0	2190	1868	324	0	1917	0	0	0	0	0	0	0	0	0	0	0	0	
From rank 47 to: 	0	0	0	0	0	0	0	0	0	0	0	0	0	0	0	0	0	0	0	0	0	0	0	0	0	0	0	0	0	0	0	0	0	0	0	0	0	0	0	0	0	0	0	0	2231	1030	2192	0	2976	0	0	0	0	0	0	0	0	0	0	0	0	0	0	0	
From rank 48 to: 	0	0	0	0	0	0	0	0	0	0	0	0	0	0	0	0	0	0	0	0	0	0	0	0	0	0	0	0	0	0	0	0	0	0	0	0	0	0	0	0	0	0	0	0	1754	754	1876	2983	0	28	0	2075	1856	0	0	0	0	0	0	0	0	0	0	0	
From rank 49 to: 	0	0	0	0	0	0	0	0	0	0	0	0	0	0	0	0	0	0	0	0	0	0	0	0	0	0	0	0	0	0	0	0	0	0	0	0	0	0	0	0	0	0	0	0	158	1771	314	0	25	0	2564	2257	0	1312	0	0	1465	0	257	0	0	0	0	0	
From rank 50 to: 	0	0	0	0	0	0	0	0	0	0	0	0	0	0	0	0	0	0	0	0	0	0	0	0	0	0	0	0	0	0	0	0	0	0	0	0	0	0	0	0	0	0	0	0	1943	59	0	0	0	2564	0	621	2445	623	0	0	0	0	2466	0	0	0	0	0	
From rank 51 to: 	0	0	0	0	0	0	0	0	0	0	0	0	0	0	0	0	0	0	0	0	0	0	0	0	0	0	0	0	0	0	0	0	0	0	0	0	0	0	0	0	0	0	0	0	317	56	1926	0	2074	2258	616	0	1380	2632	0	0	0	0	0	0	0	0	0	0	
From rank 52 to: 	0	0	0	0	0	0	0	0	0	0	0	0	0	0	0	0	0	0	0	0	0	0	0	0	0	0	0	0	0	0	0	0	0	0	0	0	0	0	0	0	0	0	0	0	292	0	0	0	1845	0	2445	1379	0	2317	1425	0	0	0	671	0	0	0	0	0	
From rank 53 to: 	0	0	0	0	0	0	0	0	0	0	0	0	0	0	0	0	0	0	0	0	0	0	0	0	0	0	0	0	0	0	0	0	0	0	0	0	0	0	0	0	0	0	0	0	0	0	0	0	0	1324	617	2632	2319	0	628	2348	994	0	669	0	0	0	0	0	
From rank 54 to: 	0	0	0	0	0	0	0	0	0	0	0	0	0	0	0	0	0	0	0	0	0	0	0	0	0	0	0	0	0	0	0	0	0	0	0	0	0	0	0	0	0	0	0	0	0	0	0	0	0	0	0	0	1425	600	0	2079	0	1964	1574	0	1809	0	0	380	
From rank 55 to: 	0	0	0	0	0	0	0	0	0	0	0	0	0	0	0	0	0	0	0	0	0	0	0	0	0	0	0	0	0	0	0	0	0	0	0	0	0	0	0	0	0	0	0	0	0	0	0	0	0	0	0	0	0	2348	2079	0	2292	713	462	0	1947	443	0	0	
From rank 56 to: 	0	0	0	0	0	0	0	0	0	0	0	0	0	0	0	0	0	0	0	0	0	0	0	0	0	0	0	0	0	0	0	0	0	0	0	0	0	0	0	0	0	0	0	0	0	0	0	0	0	1467	0	0	0	1003	0	2294	0	1355	2332	0	0	1574	0	0	
From rank 57 to: 	0	0	0	0	0	0	0	0	0	0	0	0	0	0	0	0	0	0	0	0	0	0	0	0	0	0	0	0	0	0	0	0	0	0	0	0	0	0	0	0	0	0	0	0	0	0	0	0	0	0	0	0	0	0	1969	709	1374	0	2696	0	622	1603	0	2462	
From rank 58 to: 	0	0	0	0	0	0	0	0	0	0	0	0	0	0	0	0	0	0	0	0	0	0	0	0	0	0	0	0	0	0	0	0	0	0	0	0	0	0	0	0	0	0	0	0	0	0	0	0	0	261	2465	0	676	669	1576	466	2333	2697	0	0	0	0	0	0	
From rank 59 to: 	0	0	0	0	0	0	0	0	0	0	0	0	0	0	0	0	0	0	0	0	0	0	0	0	0	0	0	0	0	0	0	0	0	0	0	0	0	0	3856	0	0	0	4	0	0	0	0	0	0	0	0	0	0	0	0	0	0	0	0	0	3275	513	3117	867	
From rank 60 to: 	0	0	0	0	0	0	0	0	0	0	0	0	0	0	0	0	0	0	0	0	0	0	0	0	0	0	0	0	0	0	0	0	0	0	0	0	0	0	0	0	0	0	0	0	0	0	0	0	0	0	0	0	0	0	1796	1947	0	619	0	3275	0	1710	339	1432	
From rank 61 to: 	0	0	0	0	0	0	0	0	0	0	0	0	0	0	0	0	0	0	0	0	0	0	0	0	0	0	0	0	0	0	0	0	0	0	0	0	0	0	0	0	0	0	0	0	0	0	0	0	0	0	0	0	0	0	0	435	1574	1586	0	503	1710	0	2951	1114	
From rank 62 to: 	0	0	0	0	0	0	0	0	0	0	0	0	0	0	0	0	0	0	0	0	0	0	0	0	0	0	0	0	0	0	0	0	0	0	0	0	0	0	602	0	0	0	1454	3264	0	0	0	0	0	0	0	0	0	0	0	0	0	0	0	3120	334	2951	0	3075	
From rank 63 to: 	0	0	0	0	0	0	0	0	0	0	0	0	0	0	0	0	0	0	0	0	0	0	0	0	0	0	0	0	0	0	0	0	0	0	0	0	0	0	0	0	0	0	1009	0	0	0	0	0	0	0	0	0	0	0	387	0	0	2460	0	870	1451	1114	3041	0	


After loadbalancing process 44 has 176915 cells.
After loadbalancing process 52 has 175897 cells.
After loadbalancing process 28 has 161390 cells.
After loadbalancing process 55 has 177171 cells.
After loadbalancing process 12 has 158245 cells.
After loadbalancing process 49 has 178118 cells.
After loadbalancing process 25 has 162613 cells.
After loadbalancing process 14 has 157690 cells.
After loadbalancing process 46 has 175102 cells.
After loadbalancing process 57 has 178755 cells.
After loadbalancing process 9 has 162958 cells.
After loadbalancing process 24 has 162074 cells.
After loadbalancing process 47 has 173813 cells.
After loadbalancing process 36 has 161325 cells.
After loadbalancing process 0 has 163340 cells.
After loadbalancing process 34 has 162279 cells.
After loadbalancing process 15 has 162950 cells.
After loadbalancing process 58 has 177424 cells.
After loadbalancing process 7 has 162288 cells.
After loadbalancing process 18 has 162259 cells.
After loadbalancing process 45 has 176442 cells.
After loadbalancing process 35 has 162561 cells.
After loadbalancing process 19 has 162634 cells.
After loadbalancing process 56 has 177607 cells.
After loadbalancing process 10 has 163840 cells.
After loadbalancing process 11 has 158295 cells.
After loadbalancing process 8 has 161773 cells.
After loadbalancing process 3 has 159978 cells.
After loadbalancing process 51 has 178421 cells.
After loadbalancing process 48 has 176805 cells.
After loadbalancing process 53 has 178379 cells.
After loadbalancing process 23 has 161832 cells.
After loadbalancing process 20 has 162328 cells.
After loadbalancing process 16 has 162851 cells.
After loadbalancing process 5 has 162864 cells.
After loadbalancing process 32 has 161079 cells.
After loadbalancing process 40 has 162216 cells.
After loadbalancing process 27 has 160816 cells.
After loadbalancing process 33 has 162528 cells.
After loadbalancing process 50 has 177986 cells.
After loadbalancing process 43 has 161851 cells.
After loadbalancing process 38 has 163217 cells.
After loadbalancing process 37 has 162514 cells.
After loadbalancing process 60 has 178325 cells.
After loadbalancing process 42 has 161620 cells.
After loadbalancing process 30 has 163171 cells.
After loadbalancing process 26 has 162062 cells.
After loadbalancing process 4 has 162455 cells.
After loadbalancing process 59 has 177627 cells.
After loadbalancing process 29 has 162444 cells.
After loadbalancing process 62 has 180001 cells.
After loadbalancing process 54 has 176232 cells.
After loadbalancing process 61 has 177622 cells.
After loadbalancing process 13 has 158325 cells.
After loadbalancing process 17 has 162092 cells.
After loadbalancing process 6 has 162458 cells.
After loadbalancing process 31 has 162009 cells.
After loadbalancing process 1 has 163022 cells.
After loadbalancing process 39 has 162453 cells.
After loadbalancing process 2 has 163689 cells.
After loadbalancing process 41 has 163757 cells.
After loadbalancing process 21 has 160397 cells.
After loadbalancing process 63 has 177181 cells.
After loadbalancing process 22 has 162396 cells.


=== CGSolver
 Iter          Defect            Rate
    0          655.439
    1          142.721         0.217749
    2          82.6009         0.578756
    3          58.7897         0.711732
    4          50.8898         0.865625
    5          47.6611         0.936555
    6          37.6634         0.790232
    7          31.4375         0.834696
    8          31.1353         0.990387
    9          27.3259         0.877652
   10          23.0872         0.844885
   11          22.8634         0.990305
   12          21.4763         0.939329
   13          18.2237          0.84855
   14          18.1834         0.997792
   15          17.7251         0.974795
   16          15.2226         0.858814
   17          15.0409         0.988067
   18          15.0418          1.00006
   19          13.1407         0.873611
   20          12.9884         0.988404
   21          12.9158         0.994417
   22          11.6087         0.898795
   23          11.5045         0.991028
   24            11.21         0.974398
   25          10.3432         0.922675
   26          10.3907          1.00459
   27           9.8731         0.950189
   28          9.30757          0.94272
   29          9.53212          1.02413
   30          9.13045         0.957861
   31          9.22754          1.01063
   32          10.2967          1.11586
   33          10.9719          1.06558
   34          12.0802          1.10102
   35           12.228          1.01223
   36          9.96472         0.814912
   37           8.0914         0.812005
   38           6.8693         0.848962
   39          5.76757         0.839617
   40          5.02066         0.870498
   41          4.39946          0.87627
   42          3.96828         0.901994
   43          3.54876         0.894282
   44          2.97801         0.839169
   45          2.69385         0.904582
   46          2.40075         0.891194
   47          1.98825         0.828181
   48          1.84187         0.926377
   49          1.63398         0.887133
   50          1.39945         0.856463
   51           1.3541         0.967595
   52          1.20278         0.888253
   53          1.09504         0.910422
   54          1.05073         0.959538
   55         0.953498         0.907461
   56         0.918267         0.963051
   57          0.86561         0.942656
   58         0.841221         0.971825
   59          0.80226         0.953685
   60         0.782942          0.97592
   61         0.771287         0.985115
   62         0.730754         0.947447
   63         0.741002          1.01402
   64         0.689403         0.930365
   65          0.68124          0.98816
   66         0.637086         0.935186
   67          0.58155         0.912829
   68         0.528499         0.908776
   69         0.451733         0.854748
   70          0.37885         0.838659
   71         0.310684         0.820071
   72          0.25947         0.835157
   73          0.22649         0.872894
   74         0.225889          0.99735
   75         0.224684         0.994663
   76         0.236696          1.05346
   77         0.233911         0.988235
   78         0.230468         0.985282
   79         0.220635         0.957334
   80         0.204269         0.925824
   81         0.178612         0.874395
   82         0.166547         0.932454
   83         0.148885         0.893952
   84         0.134865         0.905835
   85         0.123835         0.918213
   86         0.119663         0.966307
   87         0.114296         0.955147
   88         0.109376          0.95696
   89         0.104444         0.954907
   90         0.103348         0.989507
   91        0.0966781          0.93546
   92        0.0925809          0.95762
   93        0.0893522         0.965126
   94        0.0824341         0.922574
   95        0.0761564         0.923847
   96         0.071485          0.93866
   97        0.0635009         0.888311
=== rate=0.90912, T=40.6274, TIT=0.41884, IT=97

 Elapsed time: 40.6274
Rank 0: Matrix-vector product took 0.133718 seconds
Rank 1: Matrix-vector product took 0.132842 seconds
Rank 2: Matrix-vector product took 0.133518 seconds
Rank 3: Matrix-vector product took 0.130053 seconds
Rank 4: Matrix-vector product took 0.132849 seconds
Rank 5: Matrix-vector product took 0.13339 seconds
Rank 6: Matrix-vector product took 0.132669 seconds
Rank 7: Matrix-vector product took 0.133059 seconds
Rank 8: Matrix-vector product took 0.132323 seconds
Rank 9: Matrix-vector product took 0.133687 seconds
Rank 10: Matrix-vector product took 0.133891 seconds
Rank 11: Matrix-vector product took 0.129826 seconds
Rank 12: Matrix-vector product took 0.129222 seconds
Rank 13: Matrix-vector product took 0.129116 seconds
Rank 14: Matrix-vector product took 0.128933 seconds
Rank 15: Matrix-vector product took 0.132343 seconds
Rank 16: Matrix-vector product took 0.133726 seconds
Rank 17: Matrix-vector product took 0.13191 seconds
Rank 18: Matrix-vector product took 0.133301 seconds
Rank 19: Matrix-vector product took 0.134951 seconds
Rank 20: Matrix-vector product took 0.133083 seconds
Rank 21: Matrix-vector product took 0.13343 seconds
Rank 22: Matrix-vector product took 0.132974 seconds
Rank 23: Matrix-vector product took 0.132132 seconds
Rank 24: Matrix-vector product took 0.132085 seconds
Rank 25: Matrix-vector product took 0.13331 seconds
Rank 26: Matrix-vector product took 0.132229 seconds
Rank 27: Matrix-vector product took 0.132155 seconds
Rank 28: Matrix-vector product took 0.132017 seconds
Rank 29: Matrix-vector product took 0.132583 seconds
Rank 30: Matrix-vector product took 0.132974 seconds
Rank 31: Matrix-vector product took 0.132362 seconds
Rank 32: Matrix-vector product took 0.131586 seconds
Rank 33: Matrix-vector product took 0.133438 seconds
Rank 34: Matrix-vector product took 0.132906 seconds
Rank 35: Matrix-vector product took 0.132414 seconds
Rank 36: Matrix-vector product took 0.131479 seconds
Rank 37: Matrix-vector product took 0.132867 seconds
Rank 38: Matrix-vector product took 0.133692 seconds
Rank 39: Matrix-vector product took 0.132517 seconds
Rank 40: Matrix-vector product took 0.132902 seconds
Rank 41: Matrix-vector product took 0.133583 seconds
Rank 42: Matrix-vector product took 0.131863 seconds
Rank 43: Matrix-vector product took 0.13273 seconds
Rank 44: Matrix-vector product took 0.144685 seconds
Rank 45: Matrix-vector product took 0.144287 seconds
Rank 46: Matrix-vector product took 0.142741 seconds
Rank 47: Matrix-vector product took 0.141432 seconds
Rank 48: Matrix-vector product took 0.144549 seconds
Rank 49: Matrix-vector product took 0.145328 seconds
Rank 50: Matrix-vector product took 0.146432 seconds
Rank 51: Matrix-vector product took 0.145656 seconds
Rank 52: Matrix-vector product took 0.14406 seconds
Rank 53: Matrix-vector product took 0.145943 seconds
Rank 54: Matrix-vector product took 0.144724 seconds
Rank 55: Matrix-vector product took 0.144834 seconds
Rank 56: Matrix-vector product took 0.144942 seconds
Rank 57: Matrix-vector product took 0.146342 seconds
Rank 58: Matrix-vector product took 0.144969 seconds
Rank 59: Matrix-vector product took 0.149089 seconds
Rank 60: Matrix-vector product took 0.146031 seconds
Rank 61: Matrix-vector product took 0.147265 seconds
Rank 62: Matrix-vector product took 0.14717 seconds
Rank 63: Matrix-vector product took 0.144767 seconds
Average time for Matrix-vector product is 0.136467 seconds

Rank 0: copyOwnerToAll took 0.00099034 seconds
Rank 1: copyOwnerToAll took 0.00099034 seconds
Rank 2: copyOwnerToAll took 0.00099034 seconds
Rank 3: copyOwnerToAll took 0.00099034 seconds
Rank 4: copyOwnerToAll took 0.00099034 seconds
Rank 5: copyOwnerToAll took 0.00099034 seconds
Rank 6: copyOwnerToAll took 0.00099034 seconds
Rank 7: copyOwnerToAll took 0.00099034 seconds
Rank 8: copyOwnerToAll took 0.00099034 seconds
Rank 9: copyOwnerToAll took 0.00099034 seconds
Rank 10: copyOwnerToAll took 0.00099034 seconds
Rank 11: copyOwnerToAll took 0.00099034 seconds
Rank 12: copyOwnerToAll took 0.00099034 seconds
Rank 13: copyOwnerToAll took 0.00099034 seconds
Rank 14: copyOwnerToAll took 0.00099034 seconds
Rank 15: copyOwnerToAll took 0.00099034 seconds
Rank 16: copyOwnerToAll took 0.00099034 seconds
Rank 17: copyOwnerToAll took 0.00099034 seconds
Rank 18: copyOwnerToAll took 0.00099034 seconds
Rank 19: copyOwnerToAll took 0.00099034 seconds
Rank 20: copyOwnerToAll took 0.00099034 seconds
Rank 21: copyOwnerToAll took 0.00099034 seconds
Rank 22: copyOwnerToAll took 0.00099034 seconds
Rank 23: copyOwnerToAll took 0.00099034 seconds
Rank 24: copyOwnerToAll took 0.00099034 seconds
Rank 25: copyOwnerToAll took 0.00099034 seconds
Rank 26: copyOwnerToAll took 0.00099034 seconds
Rank 27: copyOwnerToAll took 0.00099034 seconds
Rank 28: copyOwnerToAll took 0.00099034 seconds
Rank 29: copyOwnerToAll took 0.00099034 seconds
Rank 30: copyOwnerToAll took 0.00099034 seconds
Rank 31: copyOwnerToAll took 0.00099034 seconds
Rank 32: copyOwnerToAll took 0.00099034 seconds
Rank 33: copyOwnerToAll took 0.00099034 seconds
Rank 34: copyOwnerToAll took 0.00099034 seconds
Rank 35: copyOwnerToAll took 0.00099034 seconds
Rank 36: copyOwnerToAll took 0.00099034 seconds
Rank 37: copyOwnerToAll took 0.00099034 seconds
Rank 38: copyOwnerToAll took 0.00099034 seconds
Rank 39: copyOwnerToAll took 0.00099034 seconds
Rank 40: copyOwnerToAll took 0.00099034 seconds
Rank 41: copyOwnerToAll took 0.00099034 seconds
Rank 42: copyOwnerToAll took 0.00099034 seconds
Rank 43: copyOwnerToAll took 0.00099034 seconds
Rank 44: copyOwnerToAll took 0.00099034 seconds
Rank 45: copyOwnerToAll took 0.00099034 seconds
Rank 46: copyOwnerToAll took 0.00099034 seconds
Rank 47: copyOwnerToAll took 0.00099034 seconds
Rank 48: copyOwnerToAll took 0.00099034 seconds
Rank 49: copyOwnerToAll took 0.00099034 seconds
Rank 50: copyOwnerToAll took 0.00099034 seconds
Rank 51: copyOwnerToAll took 0.00099034 seconds
Rank 52: copyOwnerToAll took 0.00099034 seconds
Rank 53: copyOwnerToAll took 0.00099034 seconds
Rank 54: copyOwnerToAll took 0.00099034 seconds
Rank 55: copyOwnerToAll took 0.00099034 seconds
Rank 56: copyOwnerToAll took 0.00099034 seconds
Rank 57: copyOwnerToAll took 0.00099034 seconds
Rank 58: copyOwnerToAll took 0.00099034 seconds
Rank 59: copyOwnerToAll took 0.00099034 seconds
Rank 60: copyOwnerToAll took 0.00099034 seconds
Rank 61: copyOwnerToAll took 0.00099034 seconds
Rank 62: copyOwnerToAll took 0.00099034 seconds
Rank 63: copyOwnerToAll took 0.00099034 seconds
Average time for copyOwnertoAll is 0.00101011 seconds



			Rank 0	Rank 1	Rank 2	Rank 3	Rank 4	Rank 5	Rank 6	Rank 7	Rank 8	Rank 9	Rank 10	Rank 11	Rank 12	Rank 13	Rank 14	Rank 15	Rank 16	Rank 17	Rank 18	Rank 19	Rank 20	Rank 21	Rank 22	Rank 23	Rank 24	Rank 25	Rank 26	Rank 27	Rank 28	Rank 29	Rank 30	Rank 31	Rank 32	Rank 33	Rank 34	Rank 35	Rank 36	Rank 37	Rank 38	Rank 39	Rank 40	Rank 41	Rank 42	Rank 43	Rank 44	Rank 45	Rank 46	Rank 47	Rank 48	Rank 49	Rank 50	Rank 51	Rank 52	Rank 53	Rank 54	Rank 55	Rank 56	Rank 57	Rank 58	Rank 59	Rank 60	Rank 61	Rank 62	Rank 63	
Rank 0's ghost cells:	0	2598	1481	1966	376	0	149	1754	0	79	0	0	0	0	0	0	0	0	0	0	0	0	0	0	0	0	0	0	0	0	0	370	1999	0	0	0	0	0	0	0	0	0	0	0	0	0	0	0	0	0	0	0	0	0	0	0	0	0	0	0	0	0	0	0	
Rank 1's ghost cells:	2598	0	1164	0	2312	0	2099	128	0	0	0	0	0	0	0	0	0	0	0	0	0	0	0	0	0	0	0	0	0	0	0	2484	0	0	0	0	0	0	0	0	0	0	0	0	0	0	0	0	0	0	0	0	0	0	0	0	0	0	0	0	0	0	0	0	
Rank 2's ghost cells:	1487	1161	0	2447	2306	0	0	0	0	0	0	0	0	0	0	0	0	0	0	0	0	0	0	0	0	0	0	513	0	3656	0	633	721	0	0	0	0	0	0	0	0	0	0	0	0	0	0	0	0	0	0	0	0	0	0	0	0	0	0	0	0	0	0	0	
Rank 3's ghost cells:	1963	0	2445	0	2328	0	0	429	0	2831	0	0	0	0	0	0	0	0	0	0	0	0	0	0	0	0	0	0	0	0	0	0	0	0	0	0	0	0	0	0	0	0	0	0	0	0	0	0	0	0	0	0	0	0	0	0	0	0	0	0	0	0	0	0	
Rank 4's ghost cells:	373	2323	2313	2324	0	0	712	0	1891	745	0	0	0	0	0	0	0	0	0	0	0	0	0	0	0	0	0	0	0	0	0	0	0	0	0	0	0	0	0	0	0	0	0	0	0	0	0	0	0	0	0	0	0	0	0	0	0	0	0	0	0	0	0	0	
Rank 5's ghost cells:	0	0	0	0	0	0	2259	1091	938	0	1531	0	0	0	0	0	2807	0	716	1319	93	0	0	0	0	0	0	0	0	0	0	0	0	0	0	0	0	0	0	0	0	0	0	0	0	0	0	0	0	0	0	0	0	0	0	0	0	0	0	0	0	0	0	0	
Rank 6's ghost cells:	146	2099	0	0	713	2259	0	2323	1616	974	92	0	0	0	0	0	0	0	0	0	0	0	0	0	0	0	0	0	0	0	0	0	0	0	0	0	0	0	0	0	0	0	0	0	0	0	0	0	0	0	0	0	0	0	0	0	0	0	0	0	0	0	0	0	
Rank 7's ghost cells:	1756	127	0	417	0	1080	2323	0	0	1924	1039	0	0	0	0	0	934	0	0	0	0	0	0	0	0	0	0	0	0	0	0	0	0	0	0	0	0	0	0	0	0	0	0	0	0	0	0	0	0	0	0	0	0	0	0	0	0	0	0	0	0	0	0	0	
Rank 8's ghost cells:	0	0	0	0	1895	938	1616	0	0	2202	1552	0	0	0	0	0	0	0	0	1649	0	0	0	0	0	0	0	0	0	0	0	0	0	0	0	0	0	0	0	0	0	0	0	0	0	0	0	0	0	0	0	0	0	0	0	0	0	0	0	0	0	0	0	0	
Rank 9's ghost cells:	73	0	0	2826	738	0	974	1927	2213	0	3022	0	0	0	0	0	0	0	0	0	0	0	0	0	0	0	0	0	0	0	0	0	0	0	0	0	0	0	0	0	0	0	0	0	0	0	0	0	0	0	0	0	0	0	0	0	0	0	0	0	0	0	0	0	
Rank 10's ghost cells:	0	0	0	0	0	1539	100	1050	1532	3021	0	0	0	0	0	0	475	0	0	682	3318	0	0	0	0	0	0	0	0	0	0	0	0	0	0	0	0	0	0	0	0	0	0	0	0	0	0	0	0	0	0	0	0	0	0	0	0	0	0	0	0	0	0	0	
Rank 11's ghost cells:	0	0	0	0	0	0	0	0	0	0	0	0	2615	0	1990	1430	0	315	1626	0	0	0	0	0	0	0	0	0	0	0	0	0	0	0	0	0	0	0	0	0	0	0	0	0	0	0	0	0	0	0	0	0	0	0	0	0	0	0	0	0	0	0	0	0	
Rank 12's ghost cells:	0	0	0	0	0	0	0	0	0	0	0	2615	0	2440	457	478	0	2185	0	0	0	0	0	0	0	0	0	0	0	0	0	0	0	0	0	0	0	0	0	0	0	0	0	0	0	0	0	0	0	0	0	0	0	0	0	0	0	0	0	0	0	0	0	0	
Rank 13's ghost cells:	0	0	0	0	0	0	0	0	0	0	0	0	2439	0	2215	1171	0	561	0	0	0	1662	0	0	0	0	0	0	0	0	0	0	0	0	0	0	0	0	0	0	0	0	0	0	0	0	0	0	0	0	0	0	0	0	0	0	0	0	0	0	0	0	0	0	
Rank 14's ghost cells:	0	0	0	0	0	0	0	0	0	0	0	1993	449	2219	0	3102	0	0	0	0	0	0	0	0	0	0	0	0	0	0	0	0	0	0	0	0	0	0	0	0	0	0	0	0	0	0	0	0	0	0	0	0	0	0	0	0	0	0	0	0	0	0	0	0	
Rank 15's ghost cells:	0	0	0	0	0	0	0	0	0	0	0	1437	463	1188	3103	0	0	415	1519	1129	0	2196	0	0	0	0	0	0	0	0	0	0	0	0	0	0	0	0	0	0	0	0	0	0	0	0	0	0	0	0	0	0	0	0	0	0	0	0	0	0	0	0	0	0	
Rank 16's ghost cells:	0	0	0	0	0	2787	0	934	0	0	485	0	0	0	0	0	0	2132	1492	499	2224	0	0	0	0	0	0	0	0	0	0	0	0	0	0	0	0	0	0	0	0	0	0	0	0	0	0	0	0	0	0	0	0	0	0	0	0	0	0	0	0	0	0	0	
Rank 17's ghost cells:	0	0	0	0	0	0	0	0	0	0	0	303	2185	575	0	415	2128	0	2164	0	875	2064	0	0	0	0	0	0	0	0	0	0	0	0	0	0	0	0	0	0	0	0	0	0	0	0	0	0	0	0	0	0	0	0	0	0	0	0	0	0	0	0	0	0	
Rank 18's ghost cells:	0	0	0	0	0	716	0	0	0	0	0	1627	0	0	0	1496	1467	2163	0	1451	176	665	0	0	0	0	0	0	0	0	0	0	0	0	0	0	0	0	0	0	0	0	0	0	0	0	0	0	0	0	0	0	0	0	0	0	0	0	0	0	0	0	0	0	
Rank 19's ghost cells:	0	0	0	0	0	1326	0	0	1652	0	671	0	0	0	0	1129	493	0	1447	0	1922	1266	0	0	0	0	0	0	0	0	0	0	0	0	0	0	0	0	0	0	0	0	0	0	0	0	0	0	0	0	0	0	0	0	0	0	0	0	0	0	0	0	0	0	
Rank 20's ghost cells:	0	0	0	0	0	79	0	0	0	0	3317	0	0	0	0	0	2224	856	178	1923	0	2562	0	0	0	0	0	0	0	0	0	0	0	0	0	0	0	0	0	0	0	0	0	0	0	0	0	0	0	0	0	0	0	0	0	0	0	0	0	0	0	0	0	0	
Rank 21's ghost cells:	0	0	0	0	0	0	0	0	0	0	0	0	0	1665	0	2221	0	2060	665	1287	2567	0	0	0	0	0	0	0	0	0	0	0	0	0	0	0	0	0	0	0	0	0	0	0	0	0	0	0	0	0	0	0	0	0	0	0	0	0	0	0	0	0	0	0	
Rank 22's ghost cells:	0	0	0	0	0	0	0	0	0	0	0	0	0	0	0	0	0	0	0	0	0	0	0	2106	0	2183	1647	0	0	0	1607	0	0	1826	516	23	0	0	0	0	0	0	0	0	0	0	0	0	0	0	0	0	0	0	0	0	0	0	0	0	0	0	0	0	
Rank 23's ghost cells:	0	0	0	0	0	0	0	0	0	0	0	0	0	0	0	0	0	0	0	0	0	0	2106	0	2526	400	512	426	0	0	1690	0	124	0	1701	0	0	0	0	0	0	0	0	0	0	0	0	0	0	0	0	0	0	0	0	0	0	0	0	0	0	0	0	0	
Rank 24's ghost cells:	0	0	0	0	0	0	0	0	0	0	0	0	0	0	0	0	0	0	0	0	0	0	0	2525	0	1518	1851	2101	58	0	122	0	0	0	341	0	2053	0	0	0	0	0	0	0	0	0	0	0	0	0	0	0	0	0	0	0	0	0	0	0	0	0	0	0	
Rank 25's ghost cells:	0	0	0	0	0	0	0	0	0	0	0	0	0	0	0	0	0	0	0	0	0	0	2183	406	1522	0	3189	0	0	0	0	0	0	152	232	2010	1831	0	0	0	0	0	0	0	0	0	0	0	0	0	0	0	0	0	0	0	0	0	0	0	0	0	0	0	
Rank 26's ghost cells:	0	0	0	0	0	0	0	0	0	0	0	0	0	0	0	0	0	0	0	0	0	0	1658	515	1841	3189	0	332	3427	0	730	0	0	0	0	0	0	0	0	0	0	0	0	0	0	0	0	0	0	0	0	0	0	0	0	0	0	0	0	0	0	0	0	0	
Rank 27's ghost cells:	0	0	513	0	0	0	0	0	0	0	0	0	0	0	0	0	0	0	0	0	0	0	0	428	2099	0	303	0	1934	1917	568	0	1658	0	0	0	0	0	0	0	0	0	0	0	0	0	0	0	0	0	0	0	0	0	0	0	0	0	0	0	0	0	0	0	
Rank 28's ghost cells:	0	0	0	0	0	0	0	0	0	0	0	0	0	0	0	0	0	0	0	0	0	0	0	0	57	0	3432	1934	0	2913	2039	568	23	0	0	0	0	0	0	0	0	0	0	0	0	0	0	0	0	0	0	0	0	0	0	0	0	0	0	0	0	0	0	0	
Rank 29's ghost cells:	0	0	3668	0	0	0	0	0	0	0	0	0	0	0	0	0	0	0	0	0	0	0	0	0	0	0	0	1948	2919	0	18	2497	1174	0	0	0	0	0	0	0	0	0	0	0	0	0	0	0	0	0	0	0	0	0	0	0	0	0	0	0	0	0	0	0	
Rank 30's ghost cells:	0	0	0	0	0	0	0	0	0	0	0	0	0	0	0	0	0	0	0	0	0	0	1605	1705	113	0	703	546	2038	16	0	2450	1735	0	0	0	0	0	0	0	0	0	0	0	0	0	0	0	0	0	0	0	0	0	0	0	0	0	0	0	0	0	0	0	
Rank 31's ghost cells:	383	2485	630	0	0	0	0	0	0	0	0	0	0	0	0	0	0	0	0	0	0	0	0	0	0	0	0	0	561	2489	2442	0	2177	0	0	0	0	0	0	0	0	0	0	0	0	0	0	0	0	0	0	0	0	0	0	0	0	0	0	0	0	0	0	0	
Rank 32's ghost cells:	1999	0	721	0	0	0	0	0	0	0	0	0	0	0	0	0	0	0	0	0	0	0	0	124	0	0	0	1674	25	1156	1745	2179	0	0	0	0	0	0	0	0	0	0	0	0	0	0	0	0	0	0	0	0	0	0	0	0	0	0	0	0	0	0	0	0	
Rank 33's ghost cells:	0	0	0	0	0	0	0	0	0	0	0	0	0	0	0	0	0	0	0	0	0	0	1826	0	0	147	0	0	0	0	0	0	0	0	2328	2309	501	923	0	2233	134	0	0	0	0	0	0	0	0	0	0	0	0	0	0	0	0	0	0	0	0	0	0	0	
Rank 34's ghost cells:	0	0	0	0	0	0	0	0	0	0	0	0	0	0	0	0	0	0	0	0	0	0	521	1701	336	227	0	0	0	0	0	0	0	2328	0	0	1839	1355	0	67	1416	0	0	0	0	0	0	0	0	0	0	0	0	0	0	0	0	0	0	0	0	0	0	0	
Rank 35's ghost cells:	0	0	0	0	0	0	0	0	0	0	0	0	0	0	0	0	0	0	0	0	0	0	28	0	0	2010	0	0	0	0	0	0	0	2326	0	0	1526	1781	0	754	0	1540	0	0	0	0	0	0	0	0	0	0	0	0	0	0	0	0	0	0	0	0	0	0	
Rank 36's ghost cells:	0	0	0	0	0	0	0	0	0	0	0	0	0	0	0	0	0	0	0	0	0	0	0	0	2054	1821	0	0	0	0	0	0	0	495	1841	1529	0	3135	0	0	0	0	0	0	0	0	0	0	0	0	0	0	0	0	0	0	0	0	0	0	0	0	0	0	
Rank 37's ghost cells:	0	0	0	0	0	0	0	0	0	0	0	0	0	0	0	0	0	0	0	0	0	0	0	0	0	0	0	0	0	0	0	0	0	911	1357	1793	3136	0	0	450	661	3264	0	0	0	0	0	0	0	0	0	0	0	0	0	0	0	0	0	0	0	0	0	0	
Rank 38's ghost cells:	0	0	0	0	0	0	0	0	0	0	0	0	0	0	0	0	0	0	0	0	0	0	0	0	0	0	0	0	0	0	0	0	0	0	0	0	0	0	0	2057	2239	0	1753	1571	0	0	0	0	0	0	0	0	0	0	0	0	0	0	0	3846	0	0	603	0	
Rank 39's ghost cells:	0	0	0	0	0	0	0	0	0	0	0	0	0	0	0	0	0	0	0	0	0	0	0	0	0	0	0	0	0	0	0	0	0	2232	71	771	0	437	2060	0	2186	1106	1180	0	0	0	0	0	0	0	0	0	0	0	0	0	0	0	0	0	0	0	0	0	
Rank 40's ghost cells:	0	0	0	0	0	0	0	0	0	0	0	0	0	0	0	0	0	0	0	0	0	0	0	0	0	0	0	0	0	0	0	0	0	117	1416	0	0	637	2266	2191	0	1784	119	1090	0	0	0	0	0	0	0	0	0	0	0	0	0	0	0	0	0	0	0	0	
Rank 41's ghost cells:	0	0	0	0	0	0	0	0	0	0	0	0	0	0	0	0	0	0	0	0	0	0	0	0	0	0	0	0	0	0	0	0	0	0	0	1541	0	3249	0	1099	1788	0	2113	2367	0	0	0	0	0	0	0	0	0	0	0	0	0	0	0	0	0	0	0	0	
Rank 42's ghost cells:	0	0	0	0	0	0	0	0	0	0	0	0	0	0	0	0	0	0	0	0	0	0	0	0	0	0	0	0	0	0	0	0	0	0	0	0	0	0	1759	1208	127	2141	0	2499	0	0	0	0	0	0	0	0	0	0	0	0	0	0	0	4	0	0	1455	992	
Rank 43's ghost cells:	0	0	0	0	0	0	0	0	0	0	0	0	0	0	0	0	0	0	0	0	0	0	0	0	0	0	0	0	0	0	0	0	0	0	0	0	0	0	1567	0	1090	2367	2503	0	0	0	0	0	0	0	0	0	0	0	0	0	0	0	0	0	0	0	3269	0	
Rank 44's ghost cells:	0	0	0	0	0	0	0	0	0	0	0	0	0	0	0	0	0	0	0	0	0	0	0	0	0	0	0	0	0	0	0	0	0	0	0	0	0	0	0	0	0	0	0	0	0	2722	0	2203	1767	148	1943	311	285	0	0	0	0	0	0	0	0	0	0	0	
Rank 45's ghost cells:	0	0	0	0	0	0	0	0	0	0	0	0	0	0	0	0	0	0	0	0	0	0	0	0	0	0	0	0	0	0	0	0	0	0	0	0	0	0	0	0	0	0	0	0	2724	0	2255	1002	735	1775	63	57	0	0	0	0	0	0	0	0	0	0	0	0	
Rank 46's ghost cells:	0	0	0	0	0	0	0	0	0	0	0	0	0	0	0	0	0	0	0	0	0	0	0	0	0	0	0	0	0	0	0	0	0	0	0	0	0	0	0	0	0	0	0	0	0	2252	0	2190	1868	324	0	1917	0	0	0	0	0	0	0	0	0	0	0	0	
Rank 47's ghost cells:	0	0	0	0	0	0	0	0	0	0	0	0	0	0	0	0	0	0	0	0	0	0	0	0	0	0	0	0	0	0	0	0	0	0	0	0	0	0	0	0	0	0	0	0	2231	1030	2192	0	2976	0	0	0	0	0	0	0	0	0	0	0	0	0	0	0	
Rank 48's ghost cells:	0	0	0	0	0	0	0	0	0	0	0	0	0	0	0	0	0	0	0	0	0	0	0	0	0	0	0	0	0	0	0	0	0	0	0	0	0	0	0	0	0	0	0	0	1754	754	1876	2983	0	28	0	2075	1856	0	0	0	0	0	0	0	0	0	0	0	
Rank 49's ghost cells:	0	0	0	0	0	0	0	0	0	0	0	0	0	0	0	0	0	0	0	0	0	0	0	0	0	0	0	0	0	0	0	0	0	0	0	0	0	0	0	0	0	0	0	0	158	1771	314	0	25	0	2564	2257	0	1312	0	0	1465	0	257	0	0	0	0	0	
Rank 50's ghost cells:	0	0	0	0	0	0	0	0	0	0	0	0	0	0	0	0	0	0	0	0	0	0	0	0	0	0	0	0	0	0	0	0	0	0	0	0	0	0	0	0	0	0	0	0	1943	59	0	0	0	2564	0	621	2445	623	0	0	0	0	2466	0	0	0	0	0	
Rank 51's ghost cells:	0	0	0	0	0	0	0	0	0	0	0	0	0	0	0	0	0	0	0	0	0	0	0	0	0	0	0	0	0	0	0	0	0	0	0	0	0	0	0	0	0	0	0	0	317	56	1926	0	2074	2258	616	0	1380	2632	0	0	0	0	0	0	0	0	0	0	
Rank 52's ghost cells:	0	0	0	0	0	0	0	0	0	0	0	0	0	0	0	0	0	0	0	0	0	0	0	0	0	0	0	0	0	0	0	0	0	0	0	0	0	0	0	0	0	0	0	0	292	0	0	0	1845	0	2445	1379	0	2317	1425	0	0	0	671	0	0	0	0	0	
Rank 53's ghost cells:	0	0	0	0	0	0	0	0	0	0	0	0	0	0	0	0	0	0	0	0	0	0	0	0	0	0	0	0	0	0	0	0	0	0	0	0	0	0	0	0	0	0	0	0	0	0	0	0	0	1324	617	2632	2319	0	628	2348	994	0	669	0	0	0	0	0	
Rank 54's ghost cells:	0	0	0	0	0	0	0	0	0	0	0	0	0	0	0	0	0	0	0	0	0	0	0	0	0	0	0	0	0	0	0	0	0	0	0	0	0	0	0	0	0	0	0	0	0	0	0	0	0	0	0	0	1425	600	0	2079	0	1964	1574	0	1809	0	0	380	
Rank 55's ghost cells:	0	0	0	0	0	0	0	0	0	0	0	0	0	0	0	0	0	0	0	0	0	0	0	0	0	0	0	0	0	0	0	0	0	0	0	0	0	0	0	0	0	0	0	0	0	0	0	0	0	0	0	0	0	2348	2079	0	2292	713	462	0	1947	443	0	0	
Rank 56's ghost cells:	0	0	0	0	0	0	0	0	0	0	0	0	0	0	0	0	0	0	0	0	0	0	0	0	0	0	0	0	0	0	0	0	0	0	0	0	0	0	0	0	0	0	0	0	0	0	0	0	0	1467	0	0	0	1003	0	2294	0	1355	2332	0	0	1574	0	0	
Rank 57's ghost cells:	0	0	0	0	0	0	0	0	0	0	0	0	0	0	0	0	0	0	0	0	0	0	0	0	0	0	0	0	0	0	0	0	0	0	0	0	0	0	0	0	0	0	0	0	0	0	0	0	0	0	0	0	0	0	1969	709	1374	0	2696	0	622	1603	0	2462	
Rank 58's ghost cells:	0	0	0	0	0	0	0	0	0	0	0	0	0	0	0	0	0	0	0	0	0	0	0	0	0	0	0	0	0	0	0	0	0	0	0	0	0	0	0	0	0	0	0	0	0	0	0	0	0	261	2465	0	676	669	1576	466	2333	2697	0	0	0	0	0	0	
Rank 59's ghost cells:	0	0	0	0	0	0	0	0	0	0	0	0	0	0	0	0	0	0	0	0	0	0	0	0	0	0	0	0	0	0	0	0	0	0	0	0	0	0	3856	0	0	0	4	0	0	0	0	0	0	0	0	0	0	0	0	0	0	0	0	0	3275	513	3117	867	
Rank 60's ghost cells:	0	0	0	0	0	0	0	0	0	0	0	0	0	0	0	0	0	0	0	0	0	0	0	0	0	0	0	0	0	0	0	0	0	0	0	0	0	0	0	0	0	0	0	0	0	0	0	0	0	0	0	0	0	0	1796	1947	0	619	0	3275	0	1710	339	1432	
Rank 61's ghost cells:	0	0	0	0	0	0	0	0	0	0	0	0	0	0	0	0	0	0	0	0	0	0	0	0	0	0	0	0	0	0	0	0	0	0	0	0	0	0	0	0	0	0	0	0	0	0	0	0	0	0	0	0	0	0	0	435	1574	1586	0	503	1710	0	2951	1114	
Rank 62's ghost cells:	0	0	0	0	0	0	0	0	0	0	0	0	0	0	0	0	0	0	0	0	0	0	0	0	0	0	0	0	0	0	0	0	0	0	0	0	0	0	602	0	0	0	1454	3264	0	0	0	0	0	0	0	0	0	0	0	0	0	0	0	3120	334	2951	0	3075	
Rank 63's ghost cells:	0	0	0	0	0	0	0	0	0	0	0	0	0	0	0	0	0	0	0	0	0	0	0	0	0	0	0	0	0	0	0	0	0	0	0	0	0	0	0	0	0	0	1009	0	0	0	0	0	0	0	0	0	0	0	387	0	0	2460	0	870	1451	1114	3041	0	
