Number of cores/ranks per node is: 32
Scotch Node cell partitioner
 Cell on rank 0 before loadbalancing: 497728
Cell on rank 1 before loadbalancing: 502272


			Rank 0	Rank 1	Rank 2	Rank 3	Rank 4	Rank 5	Rank 6	Rank 7	Rank 8	Rank 9	Rank 10	Rank 11	Rank 12	Rank 13	Rank 14	Rank 15	Rank 16	Rank 17	Rank 18	Rank 19	Rank 20	Rank 21	Rank 22	Rank 23	Rank 24	Rank 25	Rank 26	Rank 27	Rank 28	Rank 29	Rank 30	Rank 31	Rank 32	Rank 33	Rank 34	Rank 35	Rank 36	Rank 37	Rank 38	Rank 39	Rank 40	Rank 41	Rank 42	Rank 43	Rank 44	Rank 45	Rank 46	Rank 47	Rank 48	Rank 49	Rank 50	Rank 51	Rank 52	Rank 53	Rank 54	Rank 55	Rank 56	Rank 57	Rank 58	Rank 59	Rank 60	Rank 61	Rank 62	Rank 63	
From rank 0 to: 	0	635	565	137	465	166	24	17	0	0	0	0	0	0	0	0	0	0	0	0	0	0	0	0	0	0	0	124	0	551	0	0	0	0	0	0	0	0	0	0	0	0	0	0	0	0	0	0	0	0	0	0	0	0	0	0	0	0	0	0	0	0	0	0	
From rank 1 to: 	636	0	55	482	0	398	0	173	0	0	0	0	0	0	0	0	0	0	0	0	0	0	0	0	0	0	232	423	0	37	0	0	0	0	41	0	0	3	0	0	0	0	0	0	0	123	0	703	0	0	0	0	0	0	0	0	0	0	0	0	0	0	0	0	
From rank 2 to: 	570	55	0	614	143	0	318	0	417	0	0	7	0	0	0	0	0	0	0	0	0	0	0	32	0	0	33	0	0	250	0	518	0	0	0	0	0	0	0	0	0	0	0	0	0	0	0	0	0	0	0	0	0	0	0	0	0	0	0	0	0	0	0	0	
From rank 3 to: 	137	486	617	0	0	0	181	352	272	446	0	27	0	0	0	0	242	0	0	0	0	0	0	0	0	0	484	0	0	0	0	137	0	0	0	0	0	0	0	0	0	0	0	0	0	283	0	0	0	0	0	0	0	0	0	0	0	0	0	0	0	0	0	0	
From rank 4 to: 	468	0	139	0	0	656	592	0	0	0	0	0	0	0	0	0	0	0	0	0	0	0	0	0	0	0	0	0	0	0	0	0	0	0	0	0	0	0	0	0	0	0	0	0	0	0	0	0	0	0	0	0	0	0	0	0	0	0	0	0	0	0	0	0	
From rank 5 to: 	165	395	0	0	655	0	128	563	0	0	0	0	0	0	0	0	0	0	0	0	0	0	0	0	0	0	0	0	0	0	0	0	0	0	0	0	0	0	0	0	0	0	0	0	0	0	482	44	0	0	0	0	0	0	0	0	0	0	0	0	0	0	0	0	
From rank 6 to: 	19	0	315	175	574	127	0	607	2	0	169	532	0	0	0	0	0	0	0	0	0	0	0	0	0	0	0	0	0	0	0	0	0	0	0	0	0	0	0	0	0	0	0	0	0	0	0	0	0	0	0	0	0	0	0	0	0	0	0	0	0	0	0	0	
From rank 7 to: 	12	172	0	352	0	566	605	0	0	195	480	13	0	0	0	0	0	0	0	0	0	0	0	0	0	0	0	0	0	0	0	0	0	0	0	0	0	0	0	0	0	0	0	0	365	210	154	25	0	0	0	0	0	0	0	0	0	0	0	0	0	0	0	0	
From rank 8 to: 	0	0	417	261	0	0	2	0	0	348	0	495	0	0	484	13	332	0	0	0	0	0	0	489	0	0	0	0	0	0	0	101	0	0	0	0	0	0	0	0	0	0	0	0	0	0	0	0	0	0	0	0	0	0	0	0	0	0	0	0	0	0	0	0	
From rank 9 to: 	0	0	0	453	0	0	0	195	344	0	526	314	5	170	64	406	492	0	0	0	0	0	0	0	0	0	0	0	0	0	0	0	0	0	0	0	0	0	0	0	0	0	0	0	0	125	0	0	0	0	0	0	0	0	0	0	0	0	0	0	565	0	10	0	
From rank 10 to: 	0	0	0	0	0	0	181	482	0	526	0	589	104	410	0	0	0	0	0	0	0	0	0	0	0	0	0	0	0	0	0	0	0	0	0	0	0	0	0	0	0	0	0	0	107	2	0	0	0	0	0	0	0	0	0	0	0	0	0	0	18	381	0	0	
From rank 11 to: 	0	0	7	28	0	0	533	19	495	329	573	0	493	22	91	0	0	0	0	0	0	0	0	0	0	0	0	0	0	0	0	0	0	0	0	0	0	0	0	0	0	0	0	0	0	0	0	0	0	0	0	0	0	0	0	0	0	0	0	0	0	0	0	0	
From rank 12 to: 	0	0	0	0	0	0	0	0	0	8	100	490	0	613	531	96	0	0	0	0	0	0	0	0	0	0	0	0	0	0	0	0	0	0	0	0	0	0	0	0	0	0	0	0	0	0	0	0	0	0	0	0	0	0	0	0	0	0	0	0	0	0	0	0	
From rank 13 to: 	0	0	0	0	0	0	0	0	0	178	408	18	616	0	0	553	0	0	0	0	0	0	0	0	0	0	0	0	0	0	0	0	0	0	0	0	0	0	0	0	0	0	0	0	0	0	0	0	0	0	0	0	0	0	0	0	0	0	0	0	27	72	0	552	
From rank 14 to: 	0	0	0	0	0	0	0	0	482	74	0	98	531	0	0	580	52	0	14	0	0	494	0	144	0	0	0	0	0	0	0	0	0	0	0	0	0	0	0	0	0	0	0	0	0	0	0	0	0	0	0	0	0	0	0	0	0	0	0	0	0	0	0	0	
From rank 15 to: 	0	0	0	0	0	0	0	0	8	406	0	0	92	553	581	0	349	0	352	0	0	55	0	0	0	0	0	0	0	0	0	0	0	0	0	0	0	0	0	0	0	0	0	0	0	0	0	0	0	0	0	0	118	0	0	0	0	0	0	0	32	0	465	4	
From rank 16 to: 	0	0	0	228	0	0	0	0	338	492	0	0	0	0	48	354	0	736	292	0	0	98	0	244	0	0	300	0	0	0	0	60	0	0	0	0	0	72	0	0	0	0	0	0	0	24	0	0	0	0	0	130	167	0	0	0	0	0	0	0	147	0	10	0	
From rank 17 to: 	0	0	0	0	0	0	0	0	0	0	0	0	0	0	0	0	736	0	211	580	0	79	189	327	138	303	404	0	0	0	0	76	0	0	0	0	0	192	1	0	0	0	0	0	0	0	0	0	0	0	46	479	18	0	0	0	0	0	0	0	0	0	0	0	
From rank 18 to: 	0	0	0	0	0	0	0	0	0	0	0	0	0	0	14	349	291	211	0	504	261	534	0	0	0	0	0	0	0	0	0	0	0	0	0	0	0	0	0	0	0	0	0	0	0	0	0	0	0	0	0	9	385	0	407	0	0	0	0	0	0	0	0	0	
From rank 19 to: 	0	0	0	0	0	0	0	0	0	0	0	0	0	0	0	0	0	572	525	0	322	72	437	0	130	239	0	0	0	0	0	0	0	0	0	0	0	0	0	0	0	0	0	0	0	0	0	0	0	0	560	49	0	0	223	0	0	0	0	0	0	0	0	0	
From rank 20 to: 	0	0	0	0	0	0	0	0	0	0	0	0	0	0	0	0	0	0	271	324	0	580	623	34	0	0	0	0	0	0	0	0	0	0	0	0	0	0	0	0	0	0	0	0	0	0	0	0	0	0	0	0	0	0	0	0	0	0	0	0	0	0	0	0	
From rank 21 to: 	0	0	0	0	0	0	0	0	0	0	0	0	0	0	482	58	98	83	532	67	580	0	78	610	0	0	0	0	0	0	0	0	0	0	0	0	0	0	0	0	0	0	0	0	0	0	0	0	0	0	0	0	0	0	0	0	0	0	0	0	0	0	0	0	
From rank 22 to: 	0	0	0	0	0	0	0	0	0	0	0	0	0	0	0	0	0	197	0	438	622	68	0	545	0	231	0	0	0	0	486	0	0	0	0	0	0	0	0	0	0	0	0	0	0	0	0	0	0	0	0	0	0	0	0	0	0	0	0	0	0	0	0	0	
From rank 23 to: 	0	0	32	0	0	0	0	0	503	0	0	0	0	0	130	0	250	327	0	0	33	613	550	0	0	0	0	0	0	0	83	503	0	0	0	0	0	0	0	0	0	0	0	0	0	0	0	0	0	0	0	0	0	0	0	0	0	0	0	0	0	0	0	0	
From rank 24 to: 	0	0	0	0	0	0	0	0	0	0	0	0	0	0	0	0	0	136	0	131	0	0	0	0	0	759	139	672	296	0	0	0	0	0	39	763	0	69	272	0	0	0	0	0	0	0	0	0	0	0	167	0	0	0	0	0	0	0	0	0	0	0	0	0	
From rank 25 to: 	0	0	0	0	0	0	0	0	0	0	0	0	0	0	0	0	0	293	0	246	0	0	244	0	771	0	388	118	234	0	511	98	0	0	0	0	0	0	0	0	0	0	0	0	0	0	0	0	0	0	0	0	0	0	0	0	0	0	0	0	0	0	0	0	
From rank 26 to: 	0	237	31	466	0	0	0	0	0	0	0	0	0	0	0	0	299	412	0	0	0	0	0	0	134	388	0	481	15	129	0	385	0	0	19	0	0	525	0	0	0	0	0	0	0	123	0	0	0	0	0	0	0	0	0	0	0	0	0	0	0	0	0	0	
From rank 27 to: 	120	423	0	0	0	0	0	0	0	0	0	0	0	0	0	0	0	0	0	0	0	0	0	0	686	118	475	0	229	451	0	0	0	0	573	7	0	17	0	0	0	0	0	0	0	0	0	0	0	0	0	0	0	0	0	0	0	0	0	0	0	0	0	0	
From rank 28 to: 	0	0	0	0	0	0	0	0	0	0	0	0	0	0	0	0	0	0	0	0	0	0	0	0	294	245	17	235	0	739	466	123	0	0	0	0	0	0	0	0	0	0	0	0	0	0	0	0	0	0	0	0	0	0	0	0	0	0	0	0	0	0	0	0	
From rank 29 to: 	540	37	257	0	0	0	0	0	0	0	0	0	0	0	0	0	0	0	0	0	0	0	0	0	0	0	139	451	738	0	0	441	0	0	0	0	0	0	0	0	0	0	0	0	0	0	0	0	0	0	0	0	0	0	0	0	0	0	0	0	0	0	0	0	
From rank 30 to: 	0	0	0	0	0	0	0	0	0	0	0	0	0	0	0	0	0	0	0	0	0	0	486	83	0	511	0	0	468	0	0	679	0	0	0	0	0	0	0	0	0	0	0	0	0	0	0	0	0	0	0	0	0	0	0	0	0	0	0	0	0	0	0	0	
From rank 31 to: 	0	0	514	132	0	0	0	0	99	0	0	0	0	0	0	0	63	81	0	0	0	0	0	505	0	88	385	0	121	442	685	0	0	0	0	0	0	0	0	0	0	0	0	0	0	0	0	0	0	0	0	0	0	0	0	0	0	0	0	0	0	0	0	0	
From rank 32 to: 	0	0	0	0	0	0	0	0	0	0	0	0	0	0	0	0	0	0	0	0	0	0	0	0	0	0	0	0	0	0	0	0	0	508	79	616	0	0	167	451	0	0	0	0	0	0	0	0	0	0	0	0	0	0	0	0	0	0	0	0	0	0	0	0	
From rank 33 to: 	0	0	0	0	0	0	0	0	0	0	0	0	0	0	0	0	0	0	0	0	0	0	0	0	0	0	0	0	0	0	0	0	507	0	578	13	319	2	0	334	0	524	0	0	0	0	0	0	0	0	0	0	0	0	0	0	0	0	0	0	0	0	0	0	
From rank 34 to: 	0	41	0	0	0	0	0	0	0	0	0	0	0	0	0	0	0	0	0	0	0	0	0	0	39	0	19	574	0	0	0	0	77	578	0	535	90	499	0	38	28	144	0	0	0	47	0	492	0	0	0	0	0	0	0	0	0	0	0	0	0	0	0	0	
From rank 35 to: 	0	0	0	0	0	0	0	0	0	0	0	0	0	0	0	0	0	0	0	0	0	0	0	0	759	0	0	7	0	0	0	0	617	8	552	0	0	139	582	74	0	0	0	0	0	0	0	0	0	0	0	0	0	0	0	0	0	0	0	0	0	0	0	0	
From rank 36 to: 	0	0	0	0	0	0	0	0	0	0	0	0	0	0	0	0	0	0	0	0	0	0	0	0	0	0	0	0	0	0	0	0	0	313	86	0	0	348	0	401	714	178	0	0	0	209	0	0	268	0	0	48	0	0	0	0	0	433	0	0	34	0	0	0	
From rank 37 to: 	0	3	0	0	0	0	0	0	0	0	0	0	0	0	0	0	72	181	0	0	0	0	0	0	65	0	525	17	0	0	0	0	0	4	500	131	351	0	414	253	0	0	0	0	0	400	0	0	111	0	10	542	0	0	0	0	0	0	0	0	71	0	0	0	
From rank 38 to: 	0	0	0	0	0	0	0	0	0	0	0	0	0	0	0	0	0	1	0	0	0	0	0	0	272	0	0	0	0	0	0	0	169	0	0	578	0	417	0	554	0	0	0	0	0	0	0	0	45	220	479	86	0	0	0	0	0	0	0	0	0	0	0	0	
From rank 39 to: 	0	0	0	0	0	0	0	0	0	0	0	0	0	0	0	0	0	0	0	0	0	0	0	0	0	0	0	0	0	0	0	0	452	335	38	71	401	254	546	0	0	0	0	0	0	0	0	0	385	300	0	0	0	0	0	0	0	0	0	0	0	0	0	0	
From rank 40 to: 	0	0	0	0	0	0	0	0	0	0	0	0	0	0	0	0	0	0	0	0	0	0	0	0	0	0	0	0	0	0	0	0	0	0	28	0	713	0	0	0	0	530	37	696	176	510	12	164	0	0	0	0	0	0	0	0	295	340	0	0	86	0	0	0	
From rank 41 to: 	0	0	0	0	0	0	0	0	0	0	0	0	0	0	0	0	0	0	0	0	0	0	0	0	0	0	0	0	0	0	0	0	0	522	145	0	179	0	0	0	525	0	585	138	0	0	5	544	0	0	0	0	0	0	0	0	0	0	0	0	0	0	0	0	
From rank 42 to: 	0	0	0	0	0	0	0	0	0	0	0	0	0	0	0	0	0	0	0	0	0	0	0	0	0	0	0	0	0	0	0	0	0	0	0	0	0	0	0	0	37	586	0	696	0	0	549	13	0	0	0	0	0	0	0	0	0	0	0	0	0	0	0	0	
From rank 43 to: 	0	0	0	0	0	0	0	0	0	0	0	0	0	0	0	0	0	0	0	0	0	0	0	0	0	0	0	0	0	0	0	0	0	0	0	0	0	0	0	0	702	140	700	0	399	0	88	0	0	0	0	0	0	0	0	0	462	0	0	0	0	0	0	0	
From rank 44 to: 	0	0	0	0	0	0	0	365	0	0	107	0	0	0	0	0	0	0	0	0	0	0	0	0	0	0	0	0	0	0	0	0	0	0	0	0	0	0	0	0	161	0	0	399	0	576	549	6	0	0	0	0	0	0	0	0	134	0	0	0	77	620	0	0	
From rank 45 to: 	0	117	0	268	0	0	0	210	0	125	2	0	0	0	0	0	26	0	0	0	0	0	0	0	0	0	105	0	0	0	0	0	0	0	43	0	207	400	0	0	500	0	0	0	576	0	17	549	0	0	0	0	0	0	0	0	0	0	0	0	587	0	0	0	
From rank 46 to: 	0	0	0	0	0	482	0	154	0	0	0	0	0	0	0	0	0	0	0	0	0	0	0	0	0	0	0	0	0	0	0	0	0	0	0	0	0	0	0	0	8	5	549	99	549	32	0	631	0	0	0	0	0	0	0	0	0	0	0	0	0	0	0	0	
From rank 47 to: 	0	702	0	0	0	44	0	25	0	0	0	0	0	0	0	0	0	0	0	0	0	0	0	0	0	0	0	0	0	0	0	0	0	0	504	0	0	0	0	0	160	544	13	0	6	549	631	0	0	0	0	0	0	0	0	0	0	0	0	0	0	0	0	0	
From rank 48 to: 	0	0	0	0	0	0	0	0	0	0	0	0	0	0	0	0	0	0	0	0	0	0	0	0	0	0	0	0	0	0	0	0	0	0	0	0	272	119	41	385	0	0	0	0	0	0	0	0	0	588	39	527	30	471	0	102	0	397	3	0	0	0	0	0	
From rank 49 to: 	0	0	0	0	0	0	0	0	0	0	0	0	0	0	0	0	0	0	0	0	0	0	0	0	0	0	0	0	0	0	0	0	0	0	0	0	0	0	208	309	0	0	0	0	0	0	0	0	588	0	521	34	0	0	0	534	0	0	0	0	0	0	0	0	
From rank 50 to: 	0	0	0	0	0	0	0	0	0	0	0	0	0	0	0	0	0	46	0	561	0	0	0	0	167	0	0	0	0	0	0	0	0	0	0	0	0	10	484	0	0	0	0	0	0	0	0	0	49	521	0	568	0	0	459	150	0	0	0	0	0	0	0	0	
From rank 51 to: 	0	0	0	0	0	0	0	0	0	0	0	0	0	0	0	0	130	464	9	49	0	0	0	0	0	0	0	0	0	0	0	0	0	0	0	0	46	540	96	0	0	0	0	0	0	0	0	0	530	34	569	0	404	108	215	90	0	131	0	0	207	0	0	0	
From rank 52 to: 	0	0	0	0	0	0	0	0	0	0	0	0	0	0	0	118	161	14	368	0	0	0	0	0	0	0	0	0	0	0	0	0	0	0	0	0	0	0	0	0	0	0	0	0	0	0	0	0	28	0	0	419	0	443	399	0	0	50	263	0	111	0	672	0	
From rank 53 to: 	0	0	0	0	0	0	0	0	0	0	0	0	0	0	0	0	0	0	0	0	0	0	0	0	0	0	0	0	0	0	0	0	0	0	0	0	0	0	0	0	0	0	0	0	0	0	0	0	480	0	0	108	442	0	207	483	0	122	583	0	0	0	0	0	
From rank 54 to: 	0	0	0	0	0	0	0	0	0	0	0	0	0	0	0	0	0	0	407	221	0	0	0	0	0	0	0	0	0	0	0	0	0	0	0	0	0	0	0	0	0	0	0	0	0	0	0	0	0	0	449	215	399	220	0	606	0	0	0	0	0	0	0	0	
From rank 55 to: 	0	0	0	0	0	0	0	0	0	0	0	0	0	0	0	0	0	0	0	0	0	0	0	0	0	0	0	0	0	0	0	0	0	0	0	0	0	0	0	0	0	0	0	0	0	0	0	0	100	530	149	101	0	483	599	0	0	0	0	0	0	0	0	0	
From rank 56 to: 	0	0	0	0	0	0	0	0	0	0	0	0	0	0	0	0	0	0	0	0	0	0	0	0	0	0	0	0	0	0	0	0	0	0	0	0	0	0	0	0	280	0	0	463	131	0	0	0	0	0	0	0	0	0	0	0	0	546	48	494	134	416	47	0	
From rank 57 to: 	0	0	0	0	0	0	0	0	0	0	0	0	0	0	0	0	0	0	0	0	0	0	0	0	0	0	0	0	0	0	0	0	0	0	0	0	426	0	0	0	340	0	0	0	0	0	0	0	396	0	0	132	49	128	0	0	548	0	543	8	341	0	67	0	
From rank 58 to: 	0	0	0	0	0	0	0	0	0	0	0	0	0	0	0	0	0	0	0	0	0	0	0	0	0	0	0	0	0	0	0	0	0	0	0	0	0	0	0	0	0	0	0	0	0	0	0	0	3	0	0	0	248	582	0	0	47	543	0	604	0	0	542	0	
From rank 59 to: 	0	0	0	0	0	0	0	0	0	0	0	0	0	0	0	0	0	0	0	0	0	0	0	0	0	0	0	0	0	0	0	0	0	0	0	0	0	0	0	0	0	0	0	0	0	0	0	0	0	0	0	0	0	0	0	0	495	8	604	0	0	176	78	470	
From rank 60 to: 	0	0	0	0	0	0	0	0	0	566	18	0	0	30	0	44	151	0	0	0	0	0	0	0	0	0	0	0	0	0	0	0	0	0	0	0	31	65	0	0	87	0	0	0	87	587	0	0	0	0	0	207	112	0	0	0	134	340	0	0	0	620	595	80	
From rank 61 to: 	0	0	0	0	0	0	0	0	0	0	381	0	0	78	0	0	0	0	0	0	0	0	0	0	0	0	0	0	0	0	0	0	0	0	0	0	0	0	0	0	0	0	0	0	620	0	0	0	0	0	0	0	0	0	0	0	413	0	0	171	620	0	95	611	
From rank 62 to: 	0	0	0	0	0	0	0	0	0	10	0	0	0	0	0	465	14	0	0	0	0	0	0	0	0	0	0	0	0	0	0	0	0	0	0	0	0	0	0	0	0	0	0	0	0	0	0	0	0	0	0	0	677	0	0	0	50	83	542	100	603	95	0	674	
From rank 63 to: 	0	0	0	0	0	0	0	0	0	0	0	0	0	552	0	4	0	0	0	0	0	0	0	0	0	0	0	0	0	0	0	0	0	0	0	0	0	0	0	0	0	0	0	0	0	0	0	0	0	0	0	0	0	0	0	0	0	0	0	470	77	610	682	0	




=== CGSolver
 Iter          Defect            Rate
    0            249.8
    1          56.7161         0.227046
    2          33.2634         0.586489
    3           23.759         0.714268
    4          20.8218         0.876376
    5          18.1194         0.870213
    6          14.3544         0.792213
    7          12.7257         0.886534
    8          12.1344         0.953536
    9          10.0954         0.831961
   10          9.12418           0.9038
   11           9.0621         0.993196
   12           7.8889         0.870537
   13          7.03436         0.891679
   14          7.12923          1.01349
   15          6.49105         0.910484
   16          5.85955         0.902713
   17          5.87737          1.00304
   18          5.55802         0.945664
   19          5.06551         0.911387
   20          4.99902         0.986875
   21          4.62464         0.925109
   22          4.30661         0.931231
   23          4.30182         0.998889
   24           3.9513         0.918519
   25          3.73904         0.946282
   26          3.71111         0.992529
   27          3.38218         0.911365
   28          3.22142          0.95247
   29          3.17216         0.984709
   30          2.91105         0.917687
   31          2.83605         0.974235
   32          2.87705          1.01446
   33          2.84746         0.989716
   34          3.01921          1.06031
   35          3.20137          1.06033
   36          3.10577         0.970138
   37           2.8093         0.904541
   38          2.23676         0.796198
   39          1.63091          0.72914
   40          1.28288         0.786604
   41          1.09869         0.856428
   42          1.01272         0.921749
   43         0.944758         0.932892
   44         0.807242         0.854443
   45         0.674334         0.835356
   46         0.593774         0.880535
   47         0.517066         0.870813
   48         0.435596         0.842437
   49         0.357128          0.81986
   50         0.289653         0.811063
   51         0.247516         0.854528
   52         0.210366         0.849908
   53         0.177323         0.842927
   54         0.154831         0.873157
   55         0.133041         0.859264
   56         0.111995         0.841809
   57        0.0950322          0.84854
   58        0.0780364         0.821157
   59        0.0625968         0.802149
   60        0.0510682         0.815828
   61        0.0402062         0.787304
   62        0.0311464         0.774666
   63        0.0247714         0.795321
=== rate=0.863873, T=3.03166, TIT=0.0481216, IT=63

 Elapsed time: 3.03166
Rank 0: Matrix-vector product took 0.0148181 seconds
Rank 1: Matrix-vector product took 0.0151139 seconds
Rank 2: Matrix-vector product took 0.0149059 seconds
Rank 3: Matrix-vector product took 0.0154209 seconds
Rank 4: Matrix-vector product took 0.0138373 seconds
Rank 5: Matrix-vector product took 0.0143577 seconds
Rank 6: Matrix-vector product took 0.0145292 seconds
Rank 7: Matrix-vector product took 0.0150502 seconds
Rank 8: Matrix-vector product took 0.0149098 seconds
Rank 9: Matrix-vector product took 0.0154627 seconds
Rank 10: Matrix-vector product took 0.0145764 seconds
Rank 11: Matrix-vector product took 0.0144894 seconds
Rank 12: Matrix-vector product took 0.0138412 seconds
Rank 13: Matrix-vector product took 0.0142578 seconds
Rank 14: Matrix-vector product took 0.0144269 seconds
Rank 15: Matrix-vector product took 0.0150421 seconds
Rank 16: Matrix-vector product took 0.0155447 seconds
Rank 17: Matrix-vector product took 0.0155213 seconds
Rank 18: Matrix-vector product took 0.014829 seconds
Rank 19: Matrix-vector product took 0.0150221 seconds
Rank 20: Matrix-vector product took 0.0139532 seconds
Rank 21: Matrix-vector product took 0.0147236 seconds
Rank 22: Matrix-vector product took 0.0145132 seconds
Rank 23: Matrix-vector product took 0.0148945 seconds
Rank 24: Matrix-vector product took 0.0153282 seconds
Rank 25: Matrix-vector product took 0.0146818 seconds
Rank 26: Matrix-vector product took 0.0155035 seconds
Rank 27: Matrix-vector product took 0.0147398 seconds
Rank 28: Matrix-vector product took 0.0141136 seconds
Rank 29: Matrix-vector product took 0.0146316 seconds
Rank 30: Matrix-vector product took 0.0140858 seconds
Rank 31: Matrix-vector product took 0.0150947 seconds
Rank 32: Matrix-vector product took 0.0140652 seconds
Rank 33: Matrix-vector product took 0.0144169 seconds
Rank 34: Matrix-vector product took 0.0154335 seconds
Rank 35: Matrix-vector product took 0.0197673 seconds
Rank 36: Matrix-vector product took 0.0151611 seconds
Rank 37: Matrix-vector product took 0.0156736 seconds
Rank 38: Matrix-vector product took 0.014757 seconds
Rank 39: Matrix-vector product took 0.0148855 seconds
Rank 40: Matrix-vector product took 0.015494 seconds
Rank 41: Matrix-vector product took 0.0147421 seconds
Rank 42: Matrix-vector product took 0.0141024 seconds
Rank 43: Matrix-vector product took 0.0144681 seconds
Rank 44: Matrix-vector product took 0.017804 seconds
Rank 45: Matrix-vector product took 0.0155367 seconds
Rank 46: Matrix-vector product took 0.0146727 seconds
Rank 47: Matrix-vector product took 0.0152339 seconds
Rank 48: Matrix-vector product took 0.0150118 seconds
Rank 49: Matrix-vector product took 0.0142725 seconds
Rank 50: Matrix-vector product took 0.014917 seconds
Rank 51: Matrix-vector product took 0.0154581 seconds
Rank 52: Matrix-vector product took 0.0150284 seconds
Rank 53: Matrix-vector product took 0.0143406 seconds
Rank 54: Matrix-vector product took 0.014409 seconds
Rank 55: Matrix-vector product took 0.0140276 seconds
Rank 56: Matrix-vector product took 0.0146382 seconds
Rank 57: Matrix-vector product took 0.015007 seconds
Rank 58: Matrix-vector product took 0.0145206 seconds
Rank 59: Matrix-vector product took 0.0141671 seconds
Rank 60: Matrix-vector product took 0.0157523 seconds
Rank 61: Matrix-vector product took 0.0151818 seconds
Rank 62: Matrix-vector product took 0.0151227 seconds
Rank 63: Matrix-vector product took 0.0145377 seconds
Average time for Matrix-vector product is 0.0149192 seconds

Rank 0: copyOwnerToAll took 0.0004771 seconds
Rank 1: copyOwnerToAll took 0.0004771 seconds
Rank 2: copyOwnerToAll took 0.0004771 seconds
Rank 3: copyOwnerToAll took 0.0004771 seconds
Rank 4: copyOwnerToAll took 0.0004771 seconds
Rank 5: copyOwnerToAll took 0.0004771 seconds
Rank 6: copyOwnerToAll took 0.0004771 seconds
Rank 7: copyOwnerToAll took 0.0004771 seconds
Rank 8: copyOwnerToAll took 0.0004771 seconds
Rank 9: copyOwnerToAll took 0.0004771 seconds
Rank 10: copyOwnerToAll took 0.0004771 seconds
Rank 11: copyOwnerToAll took 0.0004771 seconds
Rank 12: copyOwnerToAll took 0.0004771 seconds
Rank 13: copyOwnerToAll took 0.0004771 seconds
Rank 14: copyOwnerToAll took 0.0004771 seconds
Rank 15: copyOwnerToAll took 0.0004771 seconds
Rank 16: copyOwnerToAll took 0.0004771 seconds
Rank 17: copyOwnerToAll took 0.0004771 seconds
Rank 18: copyOwnerToAll took 0.0004771 seconds
Rank 19: copyOwnerToAll took 0.0004771 seconds
Rank 20: copyOwnerToAll took 0.0004771 seconds
Rank 21: copyOwnerToAll took 0.0004771 seconds
Rank 22: copyOwnerToAll took 0.0004771 seconds
Rank 23: copyOwnerToAll took 0.0004771 seconds
Rank 24: copyOwnerToAll took 0.0004771 seconds
Rank 25: copyOwnerToAll took 0.0004771 seconds
Rank 26: copyOwnerToAll took 0.0004771 seconds
Rank 27: copyOwnerToAll took 0.0004771 seconds
Rank 28: copyOwnerToAll took 0.0004771 seconds
Rank 29: copyOwnerToAll took 0.0004771 seconds
Rank 30: copyOwnerToAll took 0.0004771 seconds
Rank 31: copyOwnerToAll took 0.0004771 seconds
Rank 32: copyOwnerToAll took 0.0004771 seconds
Rank 33: copyOwnerToAll took 0.0004771 seconds
Rank 34: copyOwnerToAll took 0.0004771 seconds
Rank 35: copyOwnerToAll took 0.0004771 seconds
Rank 36: copyOwnerToAll took 0.0004771 seconds
Rank 37: copyOwnerToAll took 0.0004771 seconds
Rank 38: copyOwnerToAll took 0.0004771 seconds
Rank 39: copyOwnerToAll took 0.0004771 seconds
Rank 40: copyOwnerToAll took 0.0004771 seconds
Rank 41: copyOwnerToAll took 0.0004771 seconds
Rank 42: copyOwnerToAll took 0.0004771 seconds
Rank 43: copyOwnerToAll took 0.0004771 seconds
Rank 44: copyOwnerToAll took 0.0004771 seconds
Rank 45: copyOwnerToAll took 0.0004771 seconds
Rank 46: copyOwnerToAll took 0.0004771 seconds
Rank 47: copyOwnerToAll took 0.0004771 seconds
Rank 48: copyOwnerToAll took 0.0004771 seconds
Rank 49: copyOwnerToAll took 0.0004771 seconds
Rank 50: copyOwnerToAll took 0.0004771 seconds
Rank 51: copyOwnerToAll took 0.0004771 seconds
Rank 52: copyOwnerToAll took 0.0004771 seconds
Rank 53: copyOwnerToAll took 0.0004771 seconds
Rank 54: copyOwnerToAll took 0.0004771 seconds
Rank 55: copyOwnerToAll took 0.0004771 seconds
Rank 56: copyOwnerToAll took 0.0004771 seconds
Rank 57: copyOwnerToAll took 0.0004771 seconds
Rank 58: copyOwnerToAll took 0.0004771 seconds
Rank 59: copyOwnerToAll took 0.0004771 seconds
Rank 60: copyOwnerToAll took 0.0004771 seconds
Rank 61: copyOwnerToAll took 0.0004771 seconds
Rank 62: copyOwnerToAll took 0.0004771 seconds
Rank 63: copyOwnerToAll took 0.0004771 seconds
Average time for copyOwnertoAll is 0.000528017 seconds



			Rank 0	Rank 1	Rank 2	Rank 3	Rank 4	Rank 5	Rank 6	Rank 7	Rank 8	Rank 9	Rank 10	Rank 11	Rank 12	Rank 13	Rank 14	Rank 15	Rank 16	Rank 17	Rank 18	Rank 19	Rank 20	Rank 21	Rank 22	Rank 23	Rank 24	Rank 25	Rank 26	Rank 27	Rank 28	Rank 29	Rank 30	Rank 31	Rank 32	Rank 33	Rank 34	Rank 35	Rank 36	Rank 37	Rank 38	Rank 39	Rank 40	Rank 41	Rank 42	Rank 43	Rank 44	Rank 45	Rank 46	Rank 47	Rank 48	Rank 49	Rank 50	Rank 51	Rank 52	Rank 53	Rank 54	Rank 55	Rank 56	Rank 57	Rank 58	Rank 59	Rank 60	Rank 61	Rank 62	Rank 63	
Rank 0's ghost cells:	0	635	565	137	465	166	24	17	0	0	0	0	0	0	0	0	0	0	0	0	0	0	0	0	0	0	0	124	0	551	0	0	0	0	0	0	0	0	0	0	0	0	0	0	0	0	0	0	0	0	0	0	0	0	0	0	0	0	0	0	0	0	0	0	
Rank 1's ghost cells:	636	0	55	482	0	398	0	173	0	0	0	0	0	0	0	0	0	0	0	0	0	0	0	0	0	0	232	423	0	37	0	0	0	0	41	0	0	3	0	0	0	0	0	0	0	123	0	703	0	0	0	0	0	0	0	0	0	0	0	0	0	0	0	0	
Rank 2's ghost cells:	570	55	0	614	143	0	318	0	417	0	0	7	0	0	0	0	0	0	0	0	0	0	0	32	0	0	33	0	0	250	0	518	0	0	0	0	0	0	0	0	0	0	0	0	0	0	0	0	0	0	0	0	0	0	0	0	0	0	0	0	0	0	0	0	
Rank 3's ghost cells:	137	486	617	0	0	0	181	352	272	446	0	27	0	0	0	0	242	0	0	0	0	0	0	0	0	0	484	0	0	0	0	137	0	0	0	0	0	0	0	0	0	0	0	0	0	283	0	0	0	0	0	0	0	0	0	0	0	0	0	0	0	0	0	0	
Rank 4's ghost cells:	468	0	139	0	0	656	592	0	0	0	0	0	0	0	0	0	0	0	0	0	0	0	0	0	0	0	0	0	0	0	0	0	0	0	0	0	0	0	0	0	0	0	0	0	0	0	0	0	0	0	0	0	0	0	0	0	0	0	0	0	0	0	0	0	
Rank 5's ghost cells:	165	395	0	0	655	0	128	563	0	0	0	0	0	0	0	0	0	0	0	0	0	0	0	0	0	0	0	0	0	0	0	0	0	0	0	0	0	0	0	0	0	0	0	0	0	0	482	44	0	0	0	0	0	0	0	0	0	0	0	0	0	0	0	0	
Rank 6's ghost cells:	19	0	315	175	574	127	0	607	2	0	169	532	0	0	0	0	0	0	0	0	0	0	0	0	0	0	0	0	0	0	0	0	0	0	0	0	0	0	0	0	0	0	0	0	0	0	0	0	0	0	0	0	0	0	0	0	0	0	0	0	0	0	0	0	
Rank 7's ghost cells:	12	172	0	352	0	566	605	0	0	195	480	13	0	0	0	0	0	0	0	0	0	0	0	0	0	0	0	0	0	0	0	0	0	0	0	0	0	0	0	0	0	0	0	0	365	210	154	25	0	0	0	0	0	0	0	0	0	0	0	0	0	0	0	0	
Rank 8's ghost cells:	0	0	417	261	0	0	2	0	0	348	0	495	0	0	484	13	332	0	0	0	0	0	0	489	0	0	0	0	0	0	0	101	0	0	0	0	0	0	0	0	0	0	0	0	0	0	0	0	0	0	0	0	0	0	0	0	0	0	0	0	0	0	0	0	
Rank 9's ghost cells:	0	0	0	453	0	0	0	195	344	0	526	314	5	170	64	406	492	0	0	0	0	0	0	0	0	0	0	0	0	0	0	0	0	0	0	0	0	0	0	0	0	0	0	0	0	125	0	0	0	0	0	0	0	0	0	0	0	0	0	0	565	0	10	0	
Rank 10's ghost cells:	0	0	0	0	0	0	181	482	0	526	0	589	104	410	0	0	0	0	0	0	0	0	0	0	0	0	0	0	0	0	0	0	0	0	0	0	0	0	0	0	0	0	0	0	107	2	0	0	0	0	0	0	0	0	0	0	0	0	0	0	18	381	0	0	
Rank 11's ghost cells:	0	0	7	28	0	0	533	19	495	329	573	0	493	22	91	0	0	0	0	0	0	0	0	0	0	0	0	0	0	0	0	0	0	0	0	0	0	0	0	0	0	0	0	0	0	0	0	0	0	0	0	0	0	0	0	0	0	0	0	0	0	0	0	0	
Rank 12's ghost cells:	0	0	0	0	0	0	0	0	0	8	100	490	0	613	531	96	0	0	0	0	0	0	0	0	0	0	0	0	0	0	0	0	0	0	0	0	0	0	0	0	0	0	0	0	0	0	0	0	0	0	0	0	0	0	0	0	0	0	0	0	0	0	0	0	
Rank 13's ghost cells:	0	0	0	0	0	0	0	0	0	178	408	18	616	0	0	553	0	0	0	0	0	0	0	0	0	0	0	0	0	0	0	0	0	0	0	0	0	0	0	0	0	0	0	0	0	0	0	0	0	0	0	0	0	0	0	0	0	0	0	0	27	72	0	552	
Rank 14's ghost cells:	0	0	0	0	0	0	0	0	482	74	0	98	531	0	0	580	52	0	14	0	0	494	0	144	0	0	0	0	0	0	0	0	0	0	0	0	0	0	0	0	0	0	0	0	0	0	0	0	0	0	0	0	0	0	0	0	0	0	0	0	0	0	0	0	
Rank 15's ghost cells:	0	0	0	0	0	0	0	0	8	406	0	0	92	553	581	0	349	0	352	0	0	55	0	0	0	0	0	0	0	0	0	0	0	0	0	0	0	0	0	0	0	0	0	0	0	0	0	0	0	0	0	0	118	0	0	0	0	0	0	0	32	0	465	4	
Rank 16's ghost cells:	0	0	0	228	0	0	0	0	338	492	0	0	0	0	48	354	0	736	292	0	0	98	0	244	0	0	300	0	0	0	0	60	0	0	0	0	0	72	0	0	0	0	0	0	0	24	0	0	0	0	0	130	167	0	0	0	0	0	0	0	147	0	10	0	
Rank 17's ghost cells:	0	0	0	0	0	0	0	0	0	0	0	0	0	0	0	0	736	0	211	580	0	79	189	327	138	303	404	0	0	0	0	76	0	0	0	0	0	192	1	0	0	0	0	0	0	0	0	0	0	0	46	479	18	0	0	0	0	0	0	0	0	0	0	0	
Rank 18's ghost cells:	0	0	0	0	0	0	0	0	0	0	0	0	0	0	14	349	291	211	0	504	261	534	0	0	0	0	0	0	0	0	0	0	0	0	0	0	0	0	0	0	0	0	0	0	0	0	0	0	0	0	0	9	385	0	407	0	0	0	0	0	0	0	0	0	
Rank 19's ghost cells:	0	0	0	0	0	0	0	0	0	0	0	0	0	0	0	0	0	572	525	0	322	72	437	0	130	239	0	0	0	0	0	0	0	0	0	0	0	0	0	0	0	0	0	0	0	0	0	0	0	0	560	49	0	0	223	0	0	0	0	0	0	0	0	0	
Rank 20's ghost cells:	0	0	0	0	0	0	0	0	0	0	0	0	0	0	0	0	0	0	271	324	0	580	623	34	0	0	0	0	0	0	0	0	0	0	0	0	0	0	0	0	0	0	0	0	0	0	0	0	0	0	0	0	0	0	0	0	0	0	0	0	0	0	0	0	
Rank 21's ghost cells:	0	0	0	0	0	0	0	0	0	0	0	0	0	0	482	58	98	83	532	67	580	0	78	610	0	0	0	0	0	0	0	0	0	0	0	0	0	0	0	0	0	0	0	0	0	0	0	0	0	0	0	0	0	0	0	0	0	0	0	0	0	0	0	0	
Rank 22's ghost cells:	0	0	0	0	0	0	0	0	0	0	0	0	0	0	0	0	0	197	0	438	622	68	0	545	0	231	0	0	0	0	486	0	0	0	0	0	0	0	0	0	0	0	0	0	0	0	0	0	0	0	0	0	0	0	0	0	0	0	0	0	0	0	0	0	
Rank 23's ghost cells:	0	0	32	0	0	0	0	0	503	0	0	0	0	0	130	0	250	327	0	0	33	613	550	0	0	0	0	0	0	0	83	503	0	0	0	0	0	0	0	0	0	0	0	0	0	0	0	0	0	0	0	0	0	0	0	0	0	0	0	0	0	0	0	0	
Rank 24's ghost cells:	0	0	0	0	0	0	0	0	0	0	0	0	0	0	0	0	0	136	0	131	0	0	0	0	0	759	139	672	296	0	0	0	0	0	39	763	0	69	272	0	0	0	0	0	0	0	0	0	0	0	167	0	0	0	0	0	0	0	0	0	0	0	0	0	
Rank 25's ghost cells:	0	0	0	0	0	0	0	0	0	0	0	0	0	0	0	0	0	293	0	246	0	0	244	0	771	0	388	118	234	0	511	98	0	0	0	0	0	0	0	0	0	0	0	0	0	0	0	0	0	0	0	0	0	0	0	0	0	0	0	0	0	0	0	0	
Rank 26's ghost cells:	0	237	31	466	0	0	0	0	0	0	0	0	0	0	0	0	299	412	0	0	0	0	0	0	134	388	0	481	15	129	0	385	0	0	19	0	0	525	0	0	0	0	0	0	0	123	0	0	0	0	0	0	0	0	0	0	0	0	0	0	0	0	0	0	
Rank 27's ghost cells:	120	423	0	0	0	0	0	0	0	0	0	0	0	0	0	0	0	0	0	0	0	0	0	0	686	118	475	0	229	451	0	0	0	0	573	7	0	17	0	0	0	0	0	0	0	0	0	0	0	0	0	0	0	0	0	0	0	0	0	0	0	0	0	0	
Rank 28's ghost cells:	0	0	0	0	0	0	0	0	0	0	0	0	0	0	0	0	0	0	0	0	0	0	0	0	294	245	17	235	0	739	466	123	0	0	0	0	0	0	0	0	0	0	0	0	0	0	0	0	0	0	0	0	0	0	0	0	0	0	0	0	0	0	0	0	
Rank 29's ghost cells:	540	37	257	0	0	0	0	0	0	0	0	0	0	0	0	0	0	0	0	0	0	0	0	0	0	0	139	451	738	0	0	441	0	0	0	0	0	0	0	0	0	0	0	0	0	0	0	0	0	0	0	0	0	0	0	0	0	0	0	0	0	0	0	0	
Rank 30's ghost cells:	0	0	0	0	0	0	0	0	0	0	0	0	0	0	0	0	0	0	0	0	0	0	486	83	0	511	0	0	468	0	0	679	0	0	0	0	0	0	0	0	0	0	0	0	0	0	0	0	0	0	0	0	0	0	0	0	0	0	0	0	0	0	0	0	
Rank 31's ghost cells:	0	0	514	132	0	0	0	0	99	0	0	0	0	0	0	0	63	81	0	0	0	0	0	505	0	88	385	0	121	442	685	0	0	0	0	0	0	0	0	0	0	0	0	0	0	0	0	0	0	0	0	0	0	0	0	0	0	0	0	0	0	0	0	0	
Rank 32's ghost cells:	0	0	0	0	0	0	0	0	0	0	0	0	0	0	0	0	0	0	0	0	0	0	0	0	0	0	0	0	0	0	0	0	0	508	79	616	0	0	167	451	0	0	0	0	0	0	0	0	0	0	0	0	0	0	0	0	0	0	0	0	0	0	0	0	
Rank 33's ghost cells:	0	0	0	0	0	0	0	0	0	0	0	0	0	0	0	0	0	0	0	0	0	0	0	0	0	0	0	0	0	0	0	0	507	0	578	13	319	2	0	334	0	524	0	0	0	0	0	0	0	0	0	0	0	0	0	0	0	0	0	0	0	0	0	0	
Rank 34's ghost cells:	0	41	0	0	0	0	0	0	0	0	0	0	0	0	0	0	0	0	0	0	0	0	0	0	39	0	19	574	0	0	0	0	77	578	0	535	90	499	0	38	28	144	0	0	0	47	0	492	0	0	0	0	0	0	0	0	0	0	0	0	0	0	0	0	
Rank 35's ghost cells:	0	0	0	0	0	0	0	0	0	0	0	0	0	0	0	0	0	0	0	0	0	0	0	0	759	0	0	7	0	0	0	0	617	8	552	0	0	139	582	74	0	0	0	0	0	0	0	0	0	0	0	0	0	0	0	0	0	0	0	0	0	0	0	0	
Rank 36's ghost cells:	0	0	0	0	0	0	0	0	0	0	0	0	0	0	0	0	0	0	0	0	0	0	0	0	0	0	0	0	0	0	0	0	0	313	86	0	0	348	0	401	714	178	0	0	0	209	0	0	268	0	0	48	0	0	0	0	0	433	0	0	34	0	0	0	
Rank 37's ghost cells:	0	3	0	0	0	0	0	0	0	0	0	0	0	0	0	0	72	181	0	0	0	0	0	0	65	0	525	17	0	0	0	0	0	4	500	131	351	0	414	253	0	0	0	0	0	400	0	0	111	0	10	542	0	0	0	0	0	0	0	0	71	0	0	0	
Rank 38's ghost cells:	0	0	0	0	0	0	0	0	0	0	0	0	0	0	0	0	0	1	0	0	0	0	0	0	272	0	0	0	0	0	0	0	169	0	0	578	0	417	0	554	0	0	0	0	0	0	0	0	45	220	479	86	0	0	0	0	0	0	0	0	0	0	0	0	
Rank 39's ghost cells:	0	0	0	0	0	0	0	0	0	0	0	0	0	0	0	0	0	0	0	0	0	0	0	0	0	0	0	0	0	0	0	0	452	335	38	71	401	254	546	0	0	0	0	0	0	0	0	0	385	300	0	0	0	0	0	0	0	0	0	0	0	0	0	0	
Rank 40's ghost cells:	0	0	0	0	0	0	0	0	0	0	0	0	0	0	0	0	0	0	0	0	0	0	0	0	0	0	0	0	0	0	0	0	0	0	28	0	713	0	0	0	0	530	37	696	176	510	12	164	0	0	0	0	0	0	0	0	295	340	0	0	86	0	0	0	
Rank 41's ghost cells:	0	0	0	0	0	0	0	0	0	0	0	0	0	0	0	0	0	0	0	0	0	0	0	0	0	0	0	0	0	0	0	0	0	522	145	0	179	0	0	0	525	0	585	138	0	0	5	544	0	0	0	0	0	0	0	0	0	0	0	0	0	0	0	0	
Rank 42's ghost cells:	0	0	0	0	0	0	0	0	0	0	0	0	0	0	0	0	0	0	0	0	0	0	0	0	0	0	0	0	0	0	0	0	0	0	0	0	0	0	0	0	37	586	0	696	0	0	549	13	0	0	0	0	0	0	0	0	0	0	0	0	0	0	0	0	
Rank 43's ghost cells:	0	0	0	0	0	0	0	0	0	0	0	0	0	0	0	0	0	0	0	0	0	0	0	0	0	0	0	0	0	0	0	0	0	0	0	0	0	0	0	0	702	140	700	0	399	0	88	0	0	0	0	0	0	0	0	0	462	0	0	0	0	0	0	0	
Rank 44's ghost cells:	0	0	0	0	0	0	0	365	0	0	107	0	0	0	0	0	0	0	0	0	0	0	0	0	0	0	0	0	0	0	0	0	0	0	0	0	0	0	0	0	161	0	0	399	0	576	549	6	0	0	0	0	0	0	0	0	134	0	0	0	77	620	0	0	
Rank 45's ghost cells:	0	117	0	268	0	0	0	210	0	125	2	0	0	0	0	0	26	0	0	0	0	0	0	0	0	0	105	0	0	0	0	0	0	0	43	0	207	400	0	0	500	0	0	0	576	0	17	549	0	0	0	0	0	0	0	0	0	0	0	0	587	0	0	0	
Rank 46's ghost cells:	0	0	0	0	0	482	0	154	0	0	0	0	0	0	0	0	0	0	0	0	0	0	0	0	0	0	0	0	0	0	0	0	0	0	0	0	0	0	0	0	8	5	549	99	549	32	0	631	0	0	0	0	0	0	0	0	0	0	0	0	0	0	0	0	
Rank 47's ghost cells:	0	702	0	0	0	44	0	25	0	0	0	0	0	0	0	0	0	0	0	0	0	0	0	0	0	0	0	0	0	0	0	0	0	0	504	0	0	0	0	0	160	544	13	0	6	549	631	0	0	0	0	0	0	0	0	0	0	0	0	0	0	0	0	0	
Rank 48's ghost cells:	0	0	0	0	0	0	0	0	0	0	0	0	0	0	0	0	0	0	0	0	0	0	0	0	0	0	0	0	0	0	0	0	0	0	0	0	272	119	41	385	0	0	0	0	0	0	0	0	0	588	39	527	30	471	0	102	0	397	3	0	0	0	0	0	
Rank 49's ghost cells:	0	0	0	0	0	0	0	0	0	0	0	0	0	0	0	0	0	0	0	0	0	0	0	0	0	0	0	0	0	0	0	0	0	0	0	0	0	0	208	309	0	0	0	0	0	0	0	0	588	0	521	34	0	0	0	534	0	0	0	0	0	0	0	0	
Rank 50's ghost cells:	0	0	0	0	0	0	0	0	0	0	0	0	0	0	0	0	0	46	0	561	0	0	0	0	167	0	0	0	0	0	0	0	0	0	0	0	0	10	484	0	0	0	0	0	0	0	0	0	49	521	0	568	0	0	459	150	0	0	0	0	0	0	0	0	
Rank 51's ghost cells:	0	0	0	0	0	0	0	0	0	0	0	0	0	0	0	0	130	464	9	49	0	0	0	0	0	0	0	0	0	0	0	0	0	0	0	0	46	540	96	0	0	0	0	0	0	0	0	0	530	34	569	0	404	108	215	90	0	131	0	0	207	0	0	0	
Rank 52's ghost cells:	0	0	0	0	0	0	0	0	0	0	0	0	0	0	0	118	161	14	368	0	0	0	0	0	0	0	0	0	0	0	0	0	0	0	0	0	0	0	0	0	0	0	0	0	0	0	0	0	28	0	0	419	0	443	399	0	0	50	263	0	111	0	672	0	
Rank 53's ghost cells:	0	0	0	0	0	0	0	0	0	0	0	0	0	0	0	0	0	0	0	0	0	0	0	0	0	0	0	0	0	0	0	0	0	0	0	0	0	0	0	0	0	0	0	0	0	0	0	0	480	0	0	108	442	0	207	483	0	122	583	0	0	0	0	0	
Rank 54's ghost cells:	0	0	0	0	0	0	0	0	0	0	0	0	0	0	0	0	0	0	407	221	0	0	0	0	0	0	0	0	0	0	0	0	0	0	0	0	0	0	0	0	0	0	0	0	0	0	0	0	0	0	449	215	399	220	0	606	0	0	0	0	0	0	0	0	
Rank 55's ghost cells:	0	0	0	0	0	0	0	0	0	0	0	0	0	0	0	0	0	0	0	0	0	0	0	0	0	0	0	0	0	0	0	0	0	0	0	0	0	0	0	0	0	0	0	0	0	0	0	0	100	530	149	101	0	483	599	0	0	0	0	0	0	0	0	0	
Rank 56's ghost cells:	0	0	0	0	0	0	0	0	0	0	0	0	0	0	0	0	0	0	0	0	0	0	0	0	0	0	0	0	0	0	0	0	0	0	0	0	0	0	0	0	280	0	0	463	131	0	0	0	0	0	0	0	0	0	0	0	0	546	48	494	134	416	47	0	
Rank 57's ghost cells:	0	0	0	0	0	0	0	0	0	0	0	0	0	0	0	0	0	0	0	0	0	0	0	0	0	0	0	0	0	0	0	0	0	0	0	0	426	0	0	0	340	0	0	0	0	0	0	0	396	0	0	132	49	128	0	0	548	0	543	8	341	0	67	0	
Rank 58's ghost cells:	0	0	0	0	0	0	0	0	0	0	0	0	0	0	0	0	0	0	0	0	0	0	0	0	0	0	0	0	0	0	0	0	0	0	0	0	0	0	0	0	0	0	0	0	0	0	0	0	3	0	0	0	248	582	0	0	47	543	0	604	0	0	542	0	
Rank 59's ghost cells:	0	0	0	0	0	0	0	0	0	0	0	0	0	0	0	0	0	0	0	0	0	0	0	0	0	0	0	0	0	0	0	0	0	0	0	0	0	0	0	0	0	0	0	0	0	0	0	0	0	0	0	0	0	0	0	0	495	8	604	0	0	176	78	470	
Rank 60's ghost cells:	0	0	0	0	0	0	0	0	0	566	18	0	0	30	0	44	151	0	0	0	0	0	0	0	0	0	0	0	0	0	0	0	0	0	0	0	31	65	0	0	87	0	0	0	87	587	0	0	0	0	0	207	112	0	0	0	134	340	0	0	0	620	595	80	
Rank 61's ghost cells:	0	0	0	0	0	0	0	0	0	0	381	0	0	78	0	0	0	0	0	0	0	0	0	0	0	0	0	0	0	0	0	0	0	0	0	0	0	0	0	0	0	0	0	0	620	0	0	0	0	0	0	0	0	0	0	0	413	0	0	171	620	0	95	611	
Rank 62's ghost cells:	0	0	0	0	0	0	0	0	0	10	0	0	0	0	0	465	14	0	0	0	0	0	0	0	0	0	0	0	0	0	0	0	0	0	0	0	0	0	0	0	0	0	0	0	0	0	0	0	0	0	0	0	677	0	0	0	50	83	542	100	603	95	0	674	
Rank 63's ghost cells:	0	0	0	0	0	0	0	0	0	0	0	0	0	552	0	4	0	0	0	0	0	0	0	0	0	0	0	0	0	0	0	0	0	0	0	0	0	0	0	0	0	0	0	0	0	0	0	0	0	0	0	0	0	0	0	0	0	0	0	470	77	610	682	0	
