Number of cores/ranks per node is: 64
Metis Node cell partitioner
 
===================================================================================
=   BAD TERMINATION OF ONE OF YOUR APPLICATION PROCESSES
=   PID 5083 RUNNING AT n001
=   EXIT CODE: 136
=   CLEANING UP REMAINING PROCESSES
=   YOU CAN IGNORE THE BELOW CLEANUP MESSAGES
===================================================================================
YOUR APPLICATION TERMINATED WITH THE EXIT STRING: Floating point exception (signal 8)
This typically refers to a problem with your application.
Please see the FAQ page for debugging suggestions
