Number of cores/ranks per node is: 21
Scotch partitioner
Cell on rank 0 before loadbalancing: 15641
Cell on rank 1 before loadbalancing: 15619
Cell on rank 2 before loadbalancing: 15657
Cell on rank 3 before loadbalancing: 15513
Cell on rank 4 before loadbalancing: 15481
Cell on rank 5 before loadbalancing: 15514
Cell on rank 6 before loadbalancing: 15781
Cell on rank 7 before loadbalancing: 15636
Cell on rank 8 before loadbalancing: 15558
Cell on rank 9 before loadbalancing: 15781
Cell on rank 10 before loadbalancing: 15578
Cell on rank 11 before loadbalancing: 15693
Cell on rank 12 before loadbalancing: 15647
Cell on rank 13 before loadbalancing: 15776
Cell on rank 14 before loadbalancing: 15472
Cell on rank 15 before loadbalancing: 15504
Cell on rank 16 before loadbalancing: 15781
Cell on rank 17 before loadbalancing: 15781
Cell on rank 18 before loadbalancing: 15496
Cell on rank 19 before loadbalancing: 15469
Cell on rank 20 before loadbalancing: 15746
Cell on rank 21 before loadbalancing: 15544
Cell on rank 22 before loadbalancing: 15583
Cell on rank 23 before loadbalancing: 15675
Cell on rank 24 before loadbalancing: 15492
Cell on rank 25 before loadbalancing: 15781
Cell on rank 26 before loadbalancing: 15781
Cell on rank 27 before loadbalancing: 15714
Cell on rank 28 before loadbalancing: 15708
Cell on rank 29 before loadbalancing: 15548
Cell on rank 30 before loadbalancing: 15469
Cell on rank 31 before loadbalancing: 15536
Cell on rank 32 before loadbalancing: 15551
Cell on rank 33 before loadbalancing: 15781
Cell on rank 34 before loadbalancing: 15504
Cell on rank 35 before loadbalancing: 15506
Cell on rank 36 before loadbalancing: 15470
Cell on rank 37 before loadbalancing: 15781
Cell on rank 38 before loadbalancing: 15773
Cell on rank 39 before loadbalancing: 15552
Cell on rank 40 before loadbalancing: 15772
Cell on rank 41 before loadbalancing: 15718
Cell on rank 42 before loadbalancing: 15573
Cell on rank 43 before loadbalancing: 15628
Cell on rank 44 before loadbalancing: 15671
Cell on rank 45 before loadbalancing: 15698
Cell on rank 46 before loadbalancing: 15611
Cell on rank 47 before loadbalancing: 15669
Cell on rank 48 before loadbalancing: 15622
Cell on rank 49 before loadbalancing: 15540
Cell on rank 50 before loadbalancing: 15469
Cell on rank 51 before loadbalancing: 15503
Cell on rank 52 before loadbalancing: 15469
Cell on rank 53 before loadbalancing: 15778
Cell on rank 54 before loadbalancing: 15781
Cell on rank 55 before loadbalancing: 15777
Cell on rank 56 before loadbalancing: 15625
Cell on rank 57 before loadbalancing: 15781
Cell on rank 58 before loadbalancing: 15475
Cell on rank 59 before loadbalancing: 15770
Cell on rank 60 before loadbalancing: 15672
Cell on rank 61 before loadbalancing: 15469
Cell on rank 62 before loadbalancing: 15587
Cell on rank 63 before loadbalancing: 15469
			Rank 0	Rank 1	Rank 2	Rank 3	Rank 4	Rank 5	Rank 6	Rank 7	Rank 8	Rank 9	Rank 10	Rank 11	Rank 12	Rank 13	Rank 14	Rank 15	Rank 16	Rank 17	Rank 18	Rank 19	Rank 20	Rank 21	Rank 22	Rank 23	Rank 24	Rank 25	Rank 26	Rank 27	Rank 28	Rank 29	Rank 30	Rank 31	Rank 32	Rank 33	Rank 34	Rank 35	Rank 36	Rank 37	Rank 38	Rank 39	Rank 40	Rank 41	Rank 42	Rank 43	Rank 44	Rank 45	Rank 46	Rank 47	Rank 48	Rank 49	Rank 50	Rank 51	Rank 52	Rank 53	Rank 54	Rank 55	Rank 56	Rank 57	Rank 58	Rank 59	Rank 60	Rank 61	Rank 62	Rank 63	
From rank 0 to: 	0	595	356	155	879	0	0	49	0	0	0	0	0	0	0	0	0	0	0	0	0	0	0	0	0	0	0	0	0	0	0	0	0	0	0	0	0	0	0	0	0	0	0	0	0	0	0	0	0	0	0	0	0	0	0	0	0	172	0	0	630	0	0	0	
From rank 1 to: 	589	0	0	375	237	0	0	186	0	0	0	0	0	0	0	0	0	0	0	0	0	0	0	0	0	18	394	548	0	0	0	0	28	0	262	0	0	0	0	0	0	0	0	0	0	0	0	0	0	0	0	0	0	0	0	0	316	467	0	0	2	0	0	0	
From rank 2 to: 	370	0	0	707	205	0	438	59	0	0	0	0	0	0	358	0	0	0	0	0	0	0	0	0	0	0	0	0	0	0	0	0	0	0	0	0	0	0	0	0	0	0	0	0	0	0	0	0	0	173	0	0	0	0	0	0	0	0	0	0	126	401	0	0	
From rank 3 to: 	156	355	708	0	0	0	100	424	0	0	8	29	663	0	165	0	0	0	0	0	101	0	0	0	0	0	156	0	0	0	0	0	52	0	0	0	0	0	0	0	0	0	0	0	0	0	0	0	0	101	0	0	0	0	0	68	445	0	0	0	42	321	0	0	
From rank 4 to: 	877	237	202	0	0	816	247	279	0	0	0	0	0	0	0	0	0	0	0	0	0	0	0	0	0	213	0	179	0	0	0	0	0	0	0	0	0	0	0	0	0	0	0	0	0	0	0	0	0	0	0	0	0	0	0	0	0	0	0	0	0	0	0	0	
From rank 5 to: 	0	0	0	0	817	0	378	266	0	0	0	0	0	0	0	0	0	0	0	0	0	0	0	0	0	368	0	0	0	0	0	0	0	0	0	0	0	0	0	0	0	0	0	0	0	0	0	0	0	0	0	0	0	0	0	0	0	0	0	0	0	0	0	0	
From rank 6 to: 	0	0	437	100	233	378	0	702	0	0	593	66	0	0	72	0	0	0	0	0	0	0	0	0	0	0	0	0	0	0	0	0	0	0	0	0	0	0	0	0	0	0	0	0	0	0	0	0	0	0	0	0	0	0	0	0	0	0	0	0	0	0	0	0	
From rank 7 to: 	51	192	59	428	284	284	699	0	0	0	0	384	68	0	0	0	0	0	0	0	63	14	0	0	595	207	223	0	0	0	0	0	0	0	0	0	0	0	0	0	0	0	0	0	0	0	0	0	0	0	0	0	0	0	0	0	0	0	0	0	0	0	0	0	
From rank 8 to: 	0	0	0	0	0	0	0	0	0	679	592	39	0	0	91	477	0	0	0	0	0	0	0	0	0	0	0	0	0	0	0	0	0	0	0	0	0	0	0	0	0	0	0	0	0	0	0	0	0	0	0	0	0	0	0	0	0	0	0	0	0	0	0	0	
From rank 9 to: 	0	0	0	0	0	0	0	0	681	0	35	553	0	424	2	97	463	188	0	0	0	0	0	0	0	0	0	0	0	0	0	0	0	0	0	0	0	0	0	0	0	0	0	0	0	0	0	0	0	0	0	0	0	0	0	0	0	0	0	0	0	0	0	0	
From rank 10 to: 	0	0	0	8	0	0	613	0	592	33	0	701	0	0	459	0	0	0	0	0	0	0	0	0	0	0	0	0	0	0	0	0	0	0	0	0	0	0	0	0	0	0	0	0	0	0	0	0	0	0	0	0	0	0	0	0	0	0	0	0	0	0	0	0	
From rank 11 to: 	0	0	0	29	0	0	62	384	35	560	701	0	409	183	100	0	123	92	0	0	84	531	0	0	176	0	0	0	0	0	0	0	0	0	0	0	0	0	0	0	0	0	0	0	0	0	0	0	0	0	0	0	0	0	0	0	0	0	0	0	0	0	0	0	
From rank 12 to: 	0	0	0	657	0	0	0	74	0	0	0	408	0	586	456	0	0	27	0	0	425	0	0	0	0	0	0	0	0	0	0	0	8	0	0	0	0	0	0	0	305	0	0	0	0	0	0	0	0	152	0	30	153	0	0	377	23	0	0	0	0	0	0	0	
From rank 13 to: 	0	0	0	0	0	0	0	0	0	424	0	169	586	0	156	593	0	407	0	0	0	0	0	0	0	0	0	0	0	0	0	0	0	0	0	0	0	0	0	0	52	0	194	0	0	0	0	0	0	0	0	85	523	0	0	0	0	0	0	0	0	0	0	0	
From rank 14 to: 	0	0	356	150	0	0	72	0	97	2	459	103	452	166	0	677	0	0	0	0	0	0	0	0	0	0	0	0	0	0	0	0	0	0	0	0	0	0	0	0	0	0	0	0	0	0	0	0	0	457	0	58	0	0	0	0	0	0	0	0	0	0	0	0	
From rank 15 to: 	0	0	0	0	0	0	0	0	475	94	0	0	0	591	677	0	0	0	0	0	0	0	0	0	0	0	0	0	0	0	0	0	0	0	0	0	0	0	0	0	0	0	0	0	0	0	0	0	0	31	0	549	4	0	0	0	0	0	0	0	0	0	0	0	
From rank 16 to: 	0	0	0	0	0	0	0	0	0	468	0	124	0	0	0	0	0	655	535	84	0	534	76	0	0	0	0	0	0	0	0	0	0	0	0	0	0	0	0	0	0	0	0	0	0	0	0	0	0	0	0	0	0	0	0	0	0	0	0	0	0	0	0	0	
From rank 17 to: 	0	0	0	0	0	0	0	0	0	188	0	82	27	405	0	0	655	0	3	567	433	85	39	81	0	0	0	0	0	0	0	0	0	0	0	0	0	0	0	0	142	0	449	37	0	0	0	0	0	0	0	0	0	0	0	0	0	0	0	0	0	0	0	0	
From rank 18 to: 	0	0	0	0	0	0	0	0	0	0	0	0	0	0	0	0	535	3	0	687	0	0	546	92	0	0	0	0	0	0	0	0	0	0	0	0	0	0	0	0	0	0	0	0	0	0	0	0	0	0	0	0	0	0	0	0	0	0	0	0	0	0	0	0	
From rank 19 to: 	0	0	0	0	0	0	0	0	0	0	0	0	0	0	0	0	86	566	682	0	0	0	56	452	0	0	0	0	0	0	0	0	0	0	0	0	0	0	0	0	0	0	163	551	0	0	0	0	0	0	0	0	0	0	0	0	0	0	0	0	0	0	0	0	
From rank 20 to: 	0	0	0	95	0	0	0	59	0	0	0	86	422	0	0	0	0	434	0	0	0	624	109	402	76	0	524	0	87	0	0	0	214	12	0	0	0	0	0	0	355	131	0	0	0	0	0	0	0	0	0	0	0	0	0	0	0	0	0	0	0	0	0	0	
From rank 21 to: 	0	0	0	0	0	0	0	14	0	0	0	563	0	0	0	0	534	85	0	0	630	0	496	0	697	0	14	0	8	0	0	0	0	0	0	0	0	0	0	0	0	0	0	0	0	0	0	0	0	0	0	0	0	0	0	0	0	0	0	0	0	0	0	0	
From rank 22 to: 	0	0	0	0	0	0	0	0	0	0	0	0	0	0	0	0	62	39	536	56	120	494	0	662	20	0	0	0	50	595	0	0	0	0	0	0	0	0	0	0	0	0	0	0	0	0	0	0	0	0	0	0	0	0	0	0	0	0	0	0	0	0	0	0	
From rank 23 to: 	0	0	0	0	0	0	0	0	0	0	0	0	0	0	0	0	0	81	93	455	403	0	654	0	0	0	0	0	427	56	0	0	0	55	0	0	0	0	0	0	0	578	0	262	0	0	0	0	0	0	0	0	0	0	0	0	0	0	0	0	0	0	0	0	
From rank 24 to: 	0	0	0	0	0	0	0	590	0	0	0	198	0	0	0	0	0	0	0	0	76	698	20	0	0	475	566	0	11	403	0	2	0	0	0	0	0	0	0	0	0	0	0	0	0	0	0	0	0	0	0	0	0	0	0	0	0	0	0	0	0	0	0	0	
From rank 25 to: 	0	18	0	0	200	368	0	201	0	0	0	0	0	0	0	0	0	0	0	0	0	0	0	0	475	0	159	626	0	11	0	367	0	0	0	0	0	0	0	0	0	0	0	0	0	0	0	0	0	0	0	0	0	0	0	0	0	0	0	0	0	0	0	0	
From rank 26 to: 	0	379	0	163	0	0	0	223	0	0	0	0	0	0	0	0	0	0	0	0	524	14	0	0	565	158	0	534	445	81	0	41	378	110	70	0	0	0	0	0	0	0	0	0	0	0	0	0	0	0	0	0	0	0	0	0	36	0	0	0	0	0	0	0	
From rank 27 to: 	0	545	0	0	179	0	0	0	0	0	0	0	0	0	0	0	0	0	0	0	0	0	0	0	0	628	534	0	53	0	484	230	0	24	442	0	0	0	0	0	0	0	0	0	0	0	0	0	0	0	0	0	0	0	0	0	0	0	0	0	0	0	0	0	
From rank 28 to: 	0	0	0	0	0	0	0	0	0	0	0	0	0	0	0	0	0	0	0	0	103	8	50	427	11	0	443	53	0	692	564	68	0	640	0	154	0	0	0	0	0	0	0	0	0	0	0	0	0	0	0	0	0	0	0	0	0	0	0	0	0	0	0	0	
From rank 29 to: 	0	0	0	0	0	0	0	0	0	0	0	0	0	0	0	0	0	0	0	0	0	0	596	67	402	11	88	0	682	0	24	626	0	0	0	0	0	0	0	0	0	0	0	0	0	0	0	0	0	0	0	0	0	0	0	0	0	0	0	0	0	0	0	0	
From rank 30 to: 	0	0	0	0	0	0	0	0	0	0	0	0	0	0	0	0	0	0	0	0	0	0	0	0	0	0	0	485	550	24	0	645	0	20	91	561	0	0	0	0	0	0	0	0	0	0	0	0	0	0	0	0	0	0	0	0	0	0	0	0	0	0	0	0	
From rank 31 to: 	0	0	0	0	0	0	0	0	0	0	0	0	0	0	0	0	0	0	0	0	0	0	0	0	2	368	52	230	67	637	645	0	0	0	0	0	0	0	0	0	0	0	0	0	0	0	0	0	0	0	0	0	0	0	0	0	0	0	0	0	0	0	0	0	
From rank 32 to: 	0	29	0	53	0	0	0	0	0	0	0	0	8	0	0	0	0	0	0	0	219	0	0	0	0	0	382	0	0	0	0	0	0	579	419	0	0	0	95	345	375	256	0	0	51	168	0	0	0	0	0	0	0	0	40	0	686	0	0	43	0	0	0	0	
From rank 33 to: 	0	0	0	0	0	0	0	0	0	0	0	0	0	0	0	0	0	0	0	0	11	0	0	44	0	0	118	20	643	0	20	0	590	0	142	551	0	0	454	0	0	527	0	0	180	0	0	0	0	0	0	0	0	0	0	0	0	0	0	0	0	0	0	0	
From rank 34 to: 	0	262	0	0	0	0	0	0	0	0	0	0	0	0	0	0	0	0	0	0	0	0	0	0	0	0	70	438	0	0	92	0	419	140	0	553	0	373	86	114	0	0	0	0	0	0	0	0	0	0	0	0	0	0	0	0	183	445	25	0	0	0	0	0	
From rank 35 to: 	0	0	0	0	0	0	0	0	0	0	0	0	0	0	0	0	0	0	0	0	0	0	0	0	0	0	0	0	161	0	555	0	0	555	557	0	502	149	105	0	0	0	0	0	0	0	0	0	0	0	0	0	0	0	0	0	0	0	0	0	0	0	0	0	
From rank 36 to: 	0	0	0	0	0	0	0	0	0	0	0	0	0	0	0	0	0	0	0	0	0	0	0	0	0	0	0	0	0	0	0	0	0	0	0	518	0	708	686	0	0	0	0	0	0	0	0	0	0	0	0	0	0	0	0	0	0	0	0	0	0	0	0	0	
From rank 37 to: 	0	0	0	0	0	0	0	0	0	0	0	0	0	0	0	0	0	0	0	0	0	0	0	0	0	0	0	0	0	0	0	0	0	0	374	140	709	0	134	420	0	0	0	0	0	0	0	0	0	0	0	0	0	0	0	0	0	123	480	0	0	0	0	0	
From rank 38 to: 	0	0	0	0	0	0	0	0	0	0	0	0	0	0	0	0	0	0	0	0	0	0	0	0	0	0	0	0	0	0	0	0	100	450	89	110	677	134	0	677	0	0	0	0	551	0	0	0	0	0	0	0	0	0	0	0	0	0	0	0	0	0	0	0	
From rank 39 to: 	0	0	0	0	0	0	0	0	0	0	0	0	0	0	0	0	0	0	0	0	0	0	0	0	0	0	0	0	0	0	0	0	343	0	114	0	0	420	676	0	0	0	0	0	130	428	0	0	0	0	0	0	0	0	142	0	15	0	144	516	0	0	0	0	
From rank 40 to: 	0	0	0	0	0	0	0	0	0	0	0	0	308	52	0	0	0	140	0	0	357	0	0	0	0	0	0	0	0	0	0	0	362	0	0	0	0	0	0	0	0	419	491	159	0	390	0	92	0	0	0	0	207	47	62	506	97	0	0	0	0	0	0	0	
From rank 41 to: 	0	0	0	0	0	0	0	0	0	0	0	0	0	0	0	0	0	0	0	0	129	0	0	577	0	0	0	0	0	0	0	0	255	528	0	0	0	0	0	0	419	0	0	534	449	246	0	58	0	0	0	0	0	0	0	0	0	0	0	0	0	0	0	0	
From rank 42 to: 	0	0	0	0	0	0	0	0	0	0	0	0	0	195	0	0	0	448	0	163	0	0	0	0	0	0	0	0	0	0	0	0	0	0	0	0	0	0	0	0	496	0	0	454	0	0	0	420	0	0	0	0	464	236	0	0	0	0	0	0	0	0	0	0	
From rank 43 to: 	0	0	0	0	0	0	0	0	0	0	0	0	0	0	0	0	0	36	0	559	0	0	0	264	0	0	0	0	0	0	0	0	0	0	0	0	0	0	0	0	162	537	452	0	0	21	0	621	0	0	0	0	0	0	0	0	0	0	0	0	0	0	0	0	
From rank 44 to: 	0	0	0	0	0	0	0	0	0	0	0	0	0	0	0	0	0	0	0	0	0	0	0	0	0	0	0	0	0	0	0	0	50	172	0	0	0	0	551	122	0	459	0	0	0	694	297	199	0	0	0	0	0	0	0	0	0	0	0	0	0	0	0	0	
From rank 45 to: 	0	0	0	0	0	0	0	0	0	0	0	0	0	0	0	0	0	0	0	0	0	0	0	0	0	0	0	0	0	0	0	0	169	0	0	0	0	0	0	428	391	247	0	21	702	0	350	321	0	0	0	0	0	0	587	62	0	0	0	0	0	0	0	0	
From rank 46 to: 	0	0	0	0	0	0	0	0	0	0	0	0	0	0	0	0	0	0	0	0	0	0	0	0	0	0	0	0	0	0	0	0	0	0	0	0	0	0	0	0	0	0	0	0	306	359	0	837	0	0	0	0	0	303	79	0	0	0	0	0	0	0	0	0	
From rank 47 to: 	0	0	0	0	0	0	0	0	0	0	0	0	0	0	0	0	0	0	0	0	0	0	0	0	0	0	0	0	0	0	0	0	0	0	0	0	0	0	0	0	100	58	423	620	199	321	838	0	0	0	0	0	0	263	23	11	0	0	0	0	0	0	0	0	
From rank 48 to: 	0	0	0	0	0	0	0	0	0	0	0	0	0	0	0	0	0	0	0	0	0	0	0	0	0	0	0	0	0	0	0	0	0	0	0	0	0	0	0	0	0	0	0	0	0	0	0	0	0	536	521	40	0	0	305	348	0	0	0	72	0	72	0	636	
From rank 49 to: 	0	0	185	104	0	0	0	0	0	0	0	0	151	0	456	31	0	0	0	0	0	0	0	0	0	0	0	0	0	0	0	0	0	0	0	0	0	0	0	0	0	0	0	0	0	0	0	0	536	0	72	552	18	0	0	405	0	0	0	0	0	490	0	11	
From rank 50 to: 	0	0	0	0	0	0	0	0	0	0	0	0	0	0	0	0	0	0	0	0	0	0	0	0	0	0	0	0	0	0	0	0	0	0	0	0	0	0	0	0	0	0	0	0	0	0	0	0	521	71	0	719	97	374	85	51	0	0	0	0	0	0	0	0	
From rank 51 to: 	0	0	0	0	0	0	0	0	0	0	0	0	39	84	59	550	0	0	0	0	0	0	0	0	0	0	0	0	0	0	0	0	0	0	0	0	0	0	0	0	0	0	0	0	0	0	0	0	43	558	723	0	543	13	0	102	0	0	0	0	0	0	0	0	
From rank 52 to: 	0	0	0	0	0	0	0	0	0	0	0	0	146	542	0	4	0	0	0	0	0	0	0	0	0	0	0	0	0	0	0	0	0	0	0	0	0	0	0	0	204	0	466	0	0	0	0	0	0	19	91	546	0	504	0	433	0	0	0	0	0	0	0	0	
From rank 53 to: 	0	0	0	0	0	0	0	0	0	0	0	0	0	0	0	0	0	0	0	0	0	0	0	0	0	0	0	0	0	0	0	0	0	0	0	0	0	0	0	0	43	0	238	0	0	0	301	261	0	0	371	13	499	0	506	129	0	0	0	0	0	0	0	0	
From rank 54 to: 	0	0	0	0	0	0	0	0	0	0	0	0	0	0	0	0	0	0	0	0	0	0	0	0	0	0	0	0	0	0	0	0	41	0	0	0	0	0	0	142	62	0	0	0	0	596	79	24	305	0	77	0	0	506	0	695	20	0	0	439	0	0	0	0	
From rank 55 to: 	0	0	0	64	0	0	0	0	0	0	0	0	375	0	0	0	0	0	0	0	0	0	0	0	0	0	0	0	0	0	0	0	0	0	0	0	0	0	0	0	497	0	0	0	0	62	0	11	354	408	48	100	427	129	703	0	364	0	0	108	0	163	0	11	
From rank 56 to: 	0	312	0	442	0	0	0	0	0	0	0	0	23	0	0	0	0	0	0	0	0	0	0	0	0	0	36	0	0	0	0	0	687	0	197	0	0	0	0	19	101	0	0	0	0	0	0	0	0	0	0	0	0	0	20	365	0	461	33	580	18	479	0	10	
From rank 57 to: 	168	465	0	0	0	0	0	0	0	0	0	0	0	0	0	0	0	0	0	0	0	0	0	0	0	0	0	0	0	0	0	0	0	0	445	0	0	132	0	0	0	0	0	0	0	0	0	0	0	0	0	0	0	0	0	0	461	0	630	36	452	34	121	0	
From rank 58 to: 	0	0	0	0	0	0	0	0	0	0	0	0	0	0	0	0	0	0	0	0	0	0	0	0	0	0	0	0	0	0	0	0	0	0	25	0	0	482	0	168	0	0	0	0	0	0	0	0	0	0	0	0	0	0	0	0	33	630	0	585	0	0	445	0	
From rank 59 to: 	0	0	0	0	0	0	0	0	0	0	0	0	0	0	0	0	0	0	0	0	0	0	0	0	0	0	0	0	0	0	0	0	43	0	0	0	0	0	0	516	0	0	0	0	0	0	0	0	68	0	0	0	0	0	433	107	580	42	582	0	0	76	68	457	
From rank 60 to: 	629	2	125	46	0	0	0	0	0	0	0	0	0	0	0	0	0	0	0	0	0	0	0	0	0	0	0	0	0	0	0	0	0	0	0	0	0	0	0	0	0	0	0	0	0	0	0	0	0	0	0	0	0	0	0	0	26	443	0	0	0	623	660	123	
From rank 61 to: 	0	0	402	321	0	0	0	0	0	0	0	0	0	0	0	0	0	0	0	0	0	0	0	0	0	0	0	0	0	0	0	0	0	0	0	0	0	0	0	0	0	0	0	0	0	0	0	0	74	490	0	0	0	0	0	160	471	35	0	85	605	0	54	686	
From rank 62 to: 	0	0	0	0	0	0	0	0	0	0	0	0	0	0	0	0	0	0	0	0	0	0	0	0	0	0	0	0	0	0	0	0	0	0	0	0	0	0	0	0	0	0	0	0	0	0	0	0	0	0	0	0	0	0	0	0	0	144	442	79	666	46	0	539	
From rank 63 to: 	0	0	0	0	0	0	0	0	0	0	0	0	0	0	0	0	0	0	0	0	0	0	0	0	0	0	0	0	0	0	0	0	0	0	0	0	0	0	0	0	0	0	0	0	0	0	0	0	645	11	0	0	0	0	0	11	10	0	0	459	128	687	539	0	
loadb
After loadbalancing process 36 has 17382 cells.
After loadbalancing process 31 has 17537 cells.
After loadbalancing process 30 has 17845 cells.
After loadbalancing process 35 has 18090 cells.
After loadbalancing process 29 has 18044 cells.
After loadbalancing process 46 has 17495 cells.
After loadbalancing process 58 has 17843 cells.
After loadbalancing process 9 has 18224 cells.
After loadbalancing process 37 has 18161 cells.
After loadbalancing process 8 has 17436 cells.
After loadbalancing process 50 has 17387 cells.
After loadbalancing process 16 has 18257 cells.
After loadbalancing process 47 has 18525 cells.
After loadbalancing process 38 has 18561 cells.
After loadbalancing process 19 has 18025 cells.
After loadbalancing process 6 has 18362 cells.
After loadbalancing process 53 has 18139 cells.
After loadbalancing process 39 has 18480 cells.
After loadbalancing process 21 has 18585 cells.
After loadbalancing process 10 has 17984 cells.
After loadbalancing process 48 has 18152 cells.
After loadbalancing process 41 has 18913 cells.
After loadbalancing process 23 has 18739 cells.
After loadbalancing process 28 has 18921 cells.
After loadbalancing process 2 has 18494 cells.
After loadbalancing process 22 has 18217 cells.
After loadbalancing process 62 has 17503 cells.
After loadbalancing process 13 has 18965 cells.
After loadbalancing process 14 has 18521 cells.
After loadbalancing process 52 has 18424 cells.
After loadbalancing process 17 has 18974 cells.
After loadbalancing process 45 has 18976 cells.
After loadbalancing process 61 has 18852 cells.
After loadbalancing process 59 has 18742 cells.
After loadbalancing process 34 has 18704 cells.
After loadbalancing process 3 has 19407 cells.
After loadbalancing process 42 has 18449 cells.
After loadbalancing process 44 has 18215 cells.
After loadbalancing process 27 has 18833 cells.
After loadbalancing process 25 has 18206 cells.
After loadbalancing process 57 has 18725 cells.
After loadbalancing process 56 has 19408 cells.
After loadbalancing process 15 has 17925 cells.
After loadbalancing process 20 has 19376 cells.
After loadbalancing process 24 has 18531 cells.
After loadbalancing process 12 has 19328 cells.
After loadbalancing process 60 has 18349 cells.
After loadbalancing process 54 has 18767 cells.
After loadbalancing process 55 has 19601 cells.
After loadbalancing process 18 has 17359 cells.
After loadbalancing process 43 has 18280 cells.
After loadbalancing process 32 has 19299 cells.
After loadbalancing process 33 has 19081 cells.
After loadbalancing process 1 has 19041 cells.
After loadbalancing process 5 has 17343 cells.
After loadbalancing process 63 has 17959 cells.
After loadbalancing process 40 has 19461 cells.
After loadbalancing process 0 has 18477 cells.
After loadbalancing process 26 has 19502 cells.
After loadbalancing process 4 has 18531 cells.
After loadbalancing process 11 has 19162 cells.
After loadbalancing process 7 has 19187 cells.
After loadbalancing process 49 has 18551 cells.
After loadbalancing process 51 has 18217 cells.
			Rank 0	Rank 1	Rank 2	Rank 3	Rank 4	Rank 5	Rank 6	Rank 7	Rank 8	Rank 9	Rank 10	Rank 11	Rank 12	Rank 13	Rank 14	Rank 15	Rank 16	Rank 17	Rank 18	Rank 19	Rank 20	Rank 21	Rank 22	Rank 23	Rank 24	Rank 25	Rank 26	Rank 27	Rank 28	Rank 29	Rank 30	Rank 31	Rank 32	Rank 33	Rank 34	Rank 35	Rank 36	Rank 37	Rank 38	Rank 39	Rank 40	Rank 41	Rank 42	Rank 43	Rank 44	Rank 45	Rank 46	Rank 47	Rank 48	Rank 49	Rank 50	Rank 51	Rank 52	Rank 53	Rank 54	Rank 55	Rank 56	Rank 57	Rank 58	Rank 59	Rank 60	Rank 61	Rank 62	Rank 63	
Rank 0's ghost cells:	0	595	356	155	879	0	0	49	0	0	0	0	0	0	0	0	0	0	0	0	0	0	0	0	0	0	0	0	0	0	0	0	0	0	0	0	0	0	0	0	0	0	0	0	0	0	0	0	0	0	0	0	0	0	0	0	0	172	0	0	630	0	0	0	
Rank 1's ghost cells:	589	0	0	375	237	0	0	186	0	0	0	0	0	0	0	0	0	0	0	0	0	0	0	0	0	18	394	548	0	0	0	0	28	0	262	0	0	0	0	0	0	0	0	0	0	0	0	0	0	0	0	0	0	0	0	0	316	467	0	0	2	0	0	0	
Rank 2's ghost cells:	370	0	0	707	205	0	438	59	0	0	0	0	0	0	358	0	0	0	0	0	0	0	0	0	0	0	0	0	0	0	0	0	0	0	0	0	0	0	0	0	0	0	0	0	0	0	0	0	0	173	0	0	0	0	0	0	0	0	0	0	126	401	0	0	
Rank 3's ghost cells:	156	355	708	0	0	0	100	424	0	0	8	29	663	0	165	0	0	0	0	0	101	0	0	0	0	0	156	0	0	0	0	0	52	0	0	0	0	0	0	0	0	0	0	0	0	0	0	0	0	101	0	0	0	0	0	68	445	0	0	0	42	321	0	0	
Rank 4's ghost cells:	877	237	202	0	0	816	247	279	0	0	0	0	0	0	0	0	0	0	0	0	0	0	0	0	0	213	0	179	0	0	0	0	0	0	0	0	0	0	0	0	0	0	0	0	0	0	0	0	0	0	0	0	0	0	0	0	0	0	0	0	0	0	0	0	
Rank 5's ghost cells:	0	0	0	0	817	0	378	266	0	0	0	0	0	0	0	0	0	0	0	0	0	0	0	0	0	368	0	0	0	0	0	0	0	0	0	0	0	0	0	0	0	0	0	0	0	0	0	0	0	0	0	0	0	0	0	0	0	0	0	0	0	0	0	0	
Rank 6's ghost cells:	0	0	437	100	233	378	0	702	0	0	593	66	0	0	72	0	0	0	0	0	0	0	0	0	0	0	0	0	0	0	0	0	0	0	0	0	0	0	0	0	0	0	0	0	0	0	0	0	0	0	0	0	0	0	0	0	0	0	0	0	0	0	0	0	
Rank 7's ghost cells:	51	192	59	428	284	284	699	0	0	0	0	384	68	0	0	0	0	0	0	0	63	14	0	0	595	207	223	0	0	0	0	0	0	0	0	0	0	0	0	0	0	0	0	0	0	0	0	0	0	0	0	0	0	0	0	0	0	0	0	0	0	0	0	0	
Rank 8's ghost cells:	0	0	0	0	0	0	0	0	0	679	592	39	0	0	91	477	0	0	0	0	0	0	0	0	0	0	0	0	0	0	0	0	0	0	0	0	0	0	0	0	0	0	0	0	0	0	0	0	0	0	0	0	0	0	0	0	0	0	0	0	0	0	0	0	
Rank 9's ghost cells:	0	0	0	0	0	0	0	0	681	0	35	553	0	424	2	97	463	188	0	0	0	0	0	0	0	0	0	0	0	0	0	0	0	0	0	0	0	0	0	0	0	0	0	0	0	0	0	0	0	0	0	0	0	0	0	0	0	0	0	0	0	0	0	0	
Rank 10's ghost cells:	0	0	0	8	0	0	613	0	592	33	0	701	0	0	459	0	0	0	0	0	0	0	0	0	0	0	0	0	0	0	0	0	0	0	0	0	0	0	0	0	0	0	0	0	0	0	0	0	0	0	0	0	0	0	0	0	0	0	0	0	0	0	0	0	
Rank 11's ghost cells:	0	0	0	29	0	0	62	384	35	560	701	0	409	183	100	0	123	92	0	0	84	531	0	0	176	0	0	0	0	0	0	0	0	0	0	0	0	0	0	0	0	0	0	0	0	0	0	0	0	0	0	0	0	0	0	0	0	0	0	0	0	0	0	0	
Rank 12's ghost cells:	0	0	0	657	0	0	0	74	0	0	0	408	0	586	456	0	0	27	0	0	425	0	0	0	0	0	0	0	0	0	0	0	8	0	0	0	0	0	0	0	305	0	0	0	0	0	0	0	0	152	0	30	153	0	0	377	23	0	0	0	0	0	0	0	
Rank 13's ghost cells:	0	0	0	0	0	0	0	0	0	424	0	169	586	0	156	593	0	407	0	0	0	0	0	0	0	0	0	0	0	0	0	0	0	0	0	0	0	0	0	0	52	0	194	0	0	0	0	0	0	0	0	85	523	0	0	0	0	0	0	0	0	0	0	0	
Rank 14's ghost cells:	0	0	356	150	0	0	72	0	97	2	459	103	452	166	0	677	0	0	0	0	0	0	0	0	0	0	0	0	0	0	0	0	0	0	0	0	0	0	0	0	0	0	0	0	0	0	0	0	0	457	0	58	0	0	0	0	0	0	0	0	0	0	0	0	
Rank 15's ghost cells:	0	0	0	0	0	0	0	0	475	94	0	0	0	591	677	0	0	0	0	0	0	0	0	0	0	0	0	0	0	0	0	0	0	0	0	0	0	0	0	0	0	0	0	0	0	0	0	0	0	31	0	549	4	0	0	0	0	0	0	0	0	0	0	0	
Rank 16's ghost cells:	0	0	0	0	0	0	0	0	0	468	0	124	0	0	0	0	0	655	535	84	0	534	76	0	0	0	0	0	0	0	0	0	0	0	0	0	0	0	0	0	0	0	0	0	0	0	0	0	0	0	0	0	0	0	0	0	0	0	0	0	0	0	0	0	
Rank 17's ghost cells:	0	0	0	0	0	0	0	0	0	188	0	82	27	405	0	0	655	0	3	567	433	85	39	81	0	0	0	0	0	0	0	0	0	0	0	0	0	0	0	0	142	0	449	37	0	0	0	0	0	0	0	0	0	0	0	0	0	0	0	0	0	0	0	0	
Rank 18's ghost cells:	0	0	0	0	0	0	0	0	0	0	0	0	0	0	0	0	535	3	0	687	0	0	546	92	0	0	0	0	0	0	0	0	0	0	0	0	0	0	0	0	0	0	0	0	0	0	0	0	0	0	0	0	0	0	0	0	0	0	0	0	0	0	0	0	
Rank 19's ghost cells:	0	0	0	0	0	0	0	0	0	0	0	0	0	0	0	0	86	566	682	0	0	0	56	452	0	0	0	0	0	0	0	0	0	0	0	0	0	0	0	0	0	0	163	551	0	0	0	0	0	0	0	0	0	0	0	0	0	0	0	0	0	0	0	0	
Rank 20's ghost cells:	0	0	0	95	0	0	0	59	0	0	0	86	422	0	0	0	0	434	0	0	0	624	109	402	76	0	524	0	87	0	0	0	214	12	0	0	0	0	0	0	355	131	0	0	0	0	0	0	0	0	0	0	0	0	0	0	0	0	0	0	0	0	0	0	
Rank 21's ghost cells:	0	0	0	0	0	0	0	14	0	0	0	563	0	0	0	0	534	85	0	0	630	0	496	0	697	0	14	0	8	0	0	0	0	0	0	0	0	0	0	0	0	0	0	0	0	0	0	0	0	0	0	0	0	0	0	0	0	0	0	0	0	0	0	0	
Rank 22's ghost cells:	0	0	0	0	0	0	0	0	0	0	0	0	0	0	0	0	62	39	536	56	120	494	0	662	20	0	0	0	50	595	0	0	0	0	0	0	0	0	0	0	0	0	0	0	0	0	0	0	0	0	0	0	0	0	0	0	0	0	0	0	0	0	0	0	
Rank 23's ghost cells:	0	0	0	0	0	0	0	0	0	0	0	0	0	0	0	0	0	81	93	455	403	0	654	0	0	0	0	0	427	56	0	0	0	55	0	0	0	0	0	0	0	578	0	262	0	0	0	0	0	0	0	0	0	0	0	0	0	0	0	0	0	0	0	0	
Rank 24's ghost cells:	0	0	0	0	0	0	0	590	0	0	0	198	0	0	0	0	0	0	0	0	76	698	20	0	0	475	566	0	11	403	0	2	0	0	0	0	0	0	0	0	0	0	0	0	0	0	0	0	0	0	0	0	0	0	0	0	0	0	0	0	0	0	0	0	
Rank 25's ghost cells:	0	18	0	0	200	368	0	201	0	0	0	0	0	0	0	0	0	0	0	0	0	0	0	0	475	0	159	626	0	11	0	367	0	0	0	0	0	0	0	0	0	0	0	0	0	0	0	0	0	0	0	0	0	0	0	0	0	0	0	0	0	0	0	0	
Rank 26's ghost cells:	0	379	0	163	0	0	0	223	0	0	0	0	0	0	0	0	0	0	0	0	524	14	0	0	565	158	0	534	445	81	0	41	378	110	70	0	0	0	0	0	0	0	0	0	0	0	0	0	0	0	0	0	0	0	0	0	36	0	0	0	0	0	0	0	
Rank 27's ghost cells:	0	545	0	0	179	0	0	0	0	0	0	0	0	0	0	0	0	0	0	0	0	0	0	0	0	628	534	0	53	0	484	230	0	24	442	0	0	0	0	0	0	0	0	0	0	0	0	0	0	0	0	0	0	0	0	0	0	0	0	0	0	0	0	0	
Rank 28's ghost cells:	0	0	0	0	0	0	0	0	0	0	0	0	0	0	0	0	0	0	0	0	103	8	50	427	11	0	443	53	0	692	564	68	0	640	0	154	0	0	0	0	0	0	0	0	0	0	0	0	0	0	0	0	0	0	0	0	0	0	0	0	0	0	0	0	
Rank 29's ghost cells:	0	0	0	0	0	0	0	0	0	0	0	0	0	0	0	0	0	0	0	0	0	0	596	67	402	11	88	0	682	0	24	626	0	0	0	0	0	0	0	0	0	0	0	0	0	0	0	0	0	0	0	0	0	0	0	0	0	0	0	0	0	0	0	0	
Rank 30's ghost cells:	0	0	0	0	0	0	0	0	0	0	0	0	0	0	0	0	0	0	0	0	0	0	0	0	0	0	0	485	550	24	0	645	0	20	91	561	0	0	0	0	0	0	0	0	0	0	0	0	0	0	0	0	0	0	0	0	0	0	0	0	0	0	0	0	
Rank 31's ghost cells:	0	0	0	0	0	0	0	0	0	0	0	0	0	0	0	0	0	0	0	0	0	0	0	0	2	368	52	230	67	637	645	0	0	0	0	0	0	0	0	0	0	0	0	0	0	0	0	0	0	0	0	0	0	0	0	0	0	0	0	0	0	0	0	0	
Rank 32's ghost cells:	0	29	0	53	0	0	0	0	0	0	0	0	8	0	0	0	0	0	0	0	219	0	0	0	0	0	382	0	0	0	0	0	0	579	419	0	0	0	95	345	375	256	0	0	51	168	0	0	0	0	0	0	0	0	40	0	686	0	0	43	0	0	0	0	
Rank 33's ghost cells:	0	0	0	0	0	0	0	0	0	0	0	0	0	0	0	0	0	0	0	0	11	0	0	44	0	0	118	20	643	0	20	0	590	0	142	551	0	0	454	0	0	527	0	0	180	0	0	0	0	0	0	0	0	0	0	0	0	0	0	0	0	0	0	0	
Rank 34's ghost cells:	0	262	0	0	0	0	0	0	0	0	0	0	0	0	0	0	0	0	0	0	0	0	0	0	0	0	70	438	0	0	92	0	419	140	0	553	0	373	86	114	0	0	0	0	0	0	0	0	0	0	0	0	0	0	0	0	183	445	25	0	0	0	0	0	
Rank 35's ghost cells:	0	0	0	0	0	0	0	0	0	0	0	0	0	0	0	0	0	0	0	0	0	0	0	0	0	0	0	0	161	0	555	0	0	555	557	0	502	149	105	0	0	0	0	0	0	0	0	0	0	0	0	0	0	0	0	0	0	0	0	0	0	0	0	0	
Rank 36's ghost cells:	0	0	0	0	0	0	0	0	0	0	0	0	0	0	0	0	0	0	0	0	0	0	0	0	0	0	0	0	0	0	0	0	0	0	0	518	0	708	686	0	0	0	0	0	0	0	0	0	0	0	0	0	0	0	0	0	0	0	0	0	0	0	0	0	
Rank 37's ghost cells:	0	0	0	0	0	0	0	0	0	0	0	0	0	0	0	0	0	0	0	0	0	0	0	0	0	0	0	0	0	0	0	0	0	0	374	140	709	0	134	420	0	0	0	0	0	0	0	0	0	0	0	0	0	0	0	0	0	123	480	0	0	0	0	0	
Rank 38's ghost cells:	0	0	0	0	0	0	0	0	0	0	0	0	0	0	0	0	0	0	0	0	0	0	0	0	0	0	0	0	0	0	0	0	100	450	89	110	677	134	0	677	0	0	0	0	551	0	0	0	0	0	0	0	0	0	0	0	0	0	0	0	0	0	0	0	
Rank 39's ghost cells:	0	0	0	0	0	0	0	0	0	0	0	0	0	0	0	0	0	0	0	0	0	0	0	0	0	0	0	0	0	0	0	0	343	0	114	0	0	420	676	0	0	0	0	0	130	428	0	0	0	0	0	0	0	0	142	0	15	0	144	516	0	0	0	0	
Rank 40's ghost cells:	0	0	0	0	0	0	0	0	0	0	0	0	308	52	0	0	0	140	0	0	357	0	0	0	0	0	0	0	0	0	0	0	362	0	0	0	0	0	0	0	0	419	491	159	0	390	0	92	0	0	0	0	207	47	62	506	97	0	0	0	0	0	0	0	
Rank 41's ghost cells:	0	0	0	0	0	0	0	0	0	0	0	0	0	0	0	0	0	0	0	0	129	0	0	577	0	0	0	0	0	0	0	0	255	528	0	0	0	0	0	0	419	0	0	534	449	246	0	58	0	0	0	0	0	0	0	0	0	0	0	0	0	0	0	0	
Rank 42's ghost cells:	0	0	0	0	0	0	0	0	0	0	0	0	0	195	0	0	0	448	0	163	0	0	0	0	0	0	0	0	0	0	0	0	0	0	0	0	0	0	0	0	496	0	0	454	0	0	0	420	0	0	0	0	464	236	0	0	0	0	0	0	0	0	0	0	
Rank 43's ghost cells:	0	0	0	0	0	0	0	0	0	0	0	0	0	0	0	0	0	36	0	559	0	0	0	264	0	0	0	0	0	0	0	0	0	0	0	0	0	0	0	0	162	537	452	0	0	21	0	621	0	0	0	0	0	0	0	0	0	0	0	0	0	0	0	0	
Rank 44's ghost cells:	0	0	0	0	0	0	0	0	0	0	0	0	0	0	0	0	0	0	0	0	0	0	0	0	0	0	0	0	0	0	0	0	50	172	0	0	0	0	551	122	0	459	0	0	0	694	297	199	0	0	0	0	0	0	0	0	0	0	0	0	0	0	0	0	
Rank 45's ghost cells:	0	0	0	0	0	0	0	0	0	0	0	0	0	0	0	0	0	0	0	0	0	0	0	0	0	0	0	0	0	0	0	0	169	0	0	0	0	0	0	428	391	247	0	21	702	0	350	321	0	0	0	0	0	0	587	62	0	0	0	0	0	0	0	0	
Rank 46's ghost cells:	0	0	0	0	0	0	0	0	0	0	0	0	0	0	0	0	0	0	0	0	0	0	0	0	0	0	0	0	0	0	0	0	0	0	0	0	0	0	0	0	0	0	0	0	306	359	0	837	0	0	0	0	0	303	79	0	0	0	0	0	0	0	0	0	
Rank 47's ghost cells:	0	0	0	0	0	0	0	0	0	0	0	0	0	0	0	0	0	0	0	0	0	0	0	0	0	0	0	0	0	0	0	0	0	0	0	0	0	0	0	0	100	58	423	620	199	321	838	0	0	0	0	0	0	263	23	11	0	0	0	0	0	0	0	0	
Rank 48's ghost cells:	0	0	0	0	0	0	0	0	0	0	0	0	0	0	0	0	0	0	0	0	0	0	0	0	0	0	0	0	0	0	0	0	0	0	0	0	0	0	0	0	0	0	0	0	0	0	0	0	0	536	521	40	0	0	305	348	0	0	0	72	0	72	0	636	
Rank 49's ghost cells:	0	0	185	104	0	0	0	0	0	0	0	0	151	0	456	31	0	0	0	0	0	0	0	0	0	0	0	0	0	0	0	0	0	0	0	0	0	0	0	0	0	0	0	0	0	0	0	0	536	0	72	552	18	0	0	405	0	0	0	0	0	490	0	11	
Rank 50's ghost cells:	0	0	0	0	0	0	0	0	0	0	0	0	0	0	0	0	0	0	0	0	0	0	0	0	0	0	0	0	0	0	0	0	0	0	0	0	0	0	0	0	0	0	0	0	0	0	0	0	521	71	0	719	97	374	85	51	0	0	0	0	0	0	0	0	
Rank 51's ghost cells:	0	0	0	0	0	0	0	0	0	0	0	0	39	84	59	550	0	0	0	0	0	0	0	0	0	0	0	0	0	0	0	0	0	0	0	0	0	0	0	0	0	0	0	0	0	0	0	0	43	558	723	0	543	13	0	102	0	0	0	0	0	0	0	0	
Rank 52's ghost cells:	0	0	0	0	0	0	0	0	0	0	0	0	146	542	0	4	0	0	0	0	0	0	0	0	0	0	0	0	0	0	0	0	0	0	0	0	0	0	0	0	204	0	466	0	0	0	0	0	0	19	91	546	0	504	0	433	0	0	0	0	0	0	0	0	
Rank 53's ghost cells:	0	0	0	0	0	0	0	0	0	0	0	0	0	0	0	0	0	0	0	0	0	0	0	0	0	0	0	0	0	0	0	0	0	0	0	0	0	0	0	0	43	0	238	0	0	0	301	261	0	0	371	13	499	0	506	129	0	0	0	0	0	0	0	0	
Rank 54's ghost cells:	0	0	0	0	0	0	0	0	0	0	0	0	0	0	0	0	0	0	0	0	0	0	0	0	0	0	0	0	0	0	0	0	41	0	0	0	0	0	0	142	62	0	0	0	0	596	79	24	305	0	77	0	0	506	0	695	20	0	0	439	0	0	0	0	
Rank 55's ghost cells:	0	0	0	64	0	0	0	0	0	0	0	0	375	0	0	0	0	0	0	0	0	0	0	0	0	0	0	0	0	0	0	0	0	0	0	0	0	0	0	0	497	0	0	0	0	62	0	11	354	408	48	100	427	129	703	0	364	0	0	108	0	163	0	11	
Rank 56's ghost cells:	0	312	0	442	0	0	0	0	0	0	0	0	23	0	0	0	0	0	0	0	0	0	0	0	0	0	36	0	0	0	0	0	687	0	197	0	0	0	0	19	101	0	0	0	0	0	0	0	0	0	0	0	0	0	20	365	0	461	33	580	18	479	0	10	
Rank 57's ghost cells:	168	465	0	0	0	0	0	0	0	0	0	0	0	0	0	0	0	0	0	0	0	0	0	0	0	0	0	0	0	0	0	0	0	0	445	0	0	132	0	0	0	0	0	0	0	0	0	0	0	0	0	0	0	0	0	0	461	0	630	36	452	34	121	0	
Rank 58's ghost cells:	0	0	0	0	0	0	0	0	0	0	0	0	0	0	0	0	0	0	0	0	0	0	0	0	0	0	0	0	0	0	0	0	0	0	25	0	0	482	0	168	0	0	0	0	0	0	0	0	0	0	0	0	0	0	0	0	33	630	0	585	0	0	445	0	
Rank 59's ghost cells:	0	0	0	0	0	0	0	0	0	0	0	0	0	0	0	0	0	0	0	0	0	0	0	0	0	0	0	0	0	0	0	0	43	0	0	0	0	0	0	516	0	0	0	0	0	0	0	0	68	0	0	0	0	0	433	107	580	42	582	0	0	76	68	457	
Rank 60's ghost cells:	629	2	125	46	0	0	0	0	0	0	0	0	0	0	0	0	0	0	0	0	0	0	0	0	0	0	0	0	0	0	0	0	0	0	0	0	0	0	0	0	0	0	0	0	0	0	0	0	0	0	0	0	0	0	0	0	26	443	0	0	0	623	660	123	
Rank 61's ghost cells:	0	0	402	321	0	0	0	0	0	0	0	0	0	0	0	0	0	0	0	0	0	0	0	0	0	0	0	0	0	0	0	0	0	0	0	0	0	0	0	0	0	0	0	0	0	0	0	0	74	490	0	0	0	0	0	160	471	35	0	85	605	0	54	686	
Rank 62's ghost cells:	0	0	0	0	0	0	0	0	0	0	0	0	0	0	0	0	0	0	0	0	0	0	0	0	0	0	0	0	0	0	0	0	0	0	0	0	0	0	0	0	0	0	0	0	0	0	0	0	0	0	0	0	0	0	0	0	0	144	442	79	666	46	0	539	
Rank 63's ghost cells:	0	0	0	0	0	0	0	0	0	0	0	0	0	0	0	0	0	0	0	0	0	0	0	0	0	0	0	0	0	0	0	0	0	0	0	0	0	0	0	0	0	0	0	0	0	0	0	0	645	11	0	0	0	0	0	11	10	0	0	459	128	687	539	0	
=== CGSolver
 Iter          Defect            Rate
    0            249.8
    1          56.7187         0.227057
    2           33.277         0.586702
    3          23.8197         0.715801
    4          20.9866         0.881061
    5          18.1383         0.864278
    6          14.2837         0.787487
    7          12.6922          0.88858
    8          12.1098         0.954115
    9          10.0611         0.830824
   10          9.02027         0.896547
   11          8.98156         0.995709
   12          7.91233         0.880953
   13          6.96216         0.879912
   14          7.03869          1.01099
   15          6.53938         0.929063
   16          5.82926         0.891408
   17          5.80598         0.996006
   18           5.5302         0.952502
   19          4.98955         0.902236
   20           4.9549         0.993057
   21          4.62733         0.933889
   22           4.2764         0.924162
   23          4.26897         0.998261
   24          3.96016         0.927663
   25          3.72733         0.941207
   26            3.705         0.994008
   27          3.43638         0.927499
   28          3.18779          0.92766
   29          3.16162          0.99179
   30          2.93757         0.929133
   31          2.82763         0.962576
   32          2.86314          1.01256
   33          2.85988         0.998862
   34          2.97087          1.03881
   35          3.19445          1.07526
   36          3.08026         0.964256
   37          2.71529         0.881512
   38          2.17945         0.802658
   39          1.60773         0.737676
   40          1.27162         0.790944
   41          1.11691         0.878332
   42          1.02271         0.915664
   43         0.942832         0.921893
   44         0.825687         0.875753
   45         0.680854          0.82459
   46         0.587468         0.862841
   47         0.514091         0.875096
   48         0.420629         0.818199
   49           0.3414         0.811642
   50         0.283226         0.829601
   51         0.238015         0.840372
   52         0.205758         0.864476
   53         0.177201         0.861209
   54         0.147802         0.834092
   55         0.126935         0.858819
   56          0.10711         0.843816
   57        0.0879484         0.821105
   58        0.0740151         0.841575
   59        0.0601476         0.812639
   60        0.0480032         0.798091
   61        0.0385303          0.80266
   62        0.0303309         0.787197
   63        0.0234325         0.772561
=== rate=0.863112, T=2.94027, TIT=0.0466709, IT=63

 Elapsed time: 2.94027
Rank 0: Matrix-vector product took 0.0149651 seconds
Rank 1: Matrix-vector product took 0.0153051 seconds
Rank 2: Matrix-vector product took 0.0151451 seconds
Rank 3: Matrix-vector product took 0.0156558 seconds
Rank 4: Matrix-vector product took 0.0146816 seconds
Rank 5: Matrix-vector product took 0.0142198 seconds
Rank 6: Matrix-vector product took 0.0149474 seconds
Rank 7: Matrix-vector product took 0.0155191 seconds
Rank 8: Matrix-vector product took 0.0141671 seconds
Rank 9: Matrix-vector product took 0.0148347 seconds
Rank 10: Matrix-vector product took 0.0147165 seconds
Rank 11: Matrix-vector product took 0.0157075 seconds
Rank 12: Matrix-vector product took 0.0157459 seconds
Rank 13: Matrix-vector product took 0.0153307 seconds
Rank 14: Matrix-vector product took 0.0149829 seconds
Rank 15: Matrix-vector product took 0.0144592 seconds
Rank 16: Matrix-vector product took 0.0148349 seconds
Rank 17: Matrix-vector product took 0.0154527 seconds
Rank 18: Matrix-vector product took 0.0140724 seconds
Rank 19: Matrix-vector product took 0.0145272 seconds
Rank 20: Matrix-vector product took 0.0158872 seconds
Rank 21: Matrix-vector product took 0.0150939 seconds
Rank 22: Matrix-vector product took 0.0147377 seconds
Rank 23: Matrix-vector product took 0.0152104 seconds
Rank 24: Matrix-vector product took 0.0150995 seconds
Rank 25: Matrix-vector product took 0.0148009 seconds
Rank 26: Matrix-vector product took 0.0159287 seconds
Rank 27: Matrix-vector product took 0.0153977 seconds
Rank 28: Matrix-vector product took 0.0154173 seconds
Rank 29: Matrix-vector product took 0.0148044 seconds
Rank 30: Matrix-vector product took 0.0146343 seconds
Rank 31: Matrix-vector product took 0.0211987 seconds
Rank 32: Matrix-vector product took 0.015885 seconds
Rank 33: Matrix-vector product took 0.0156034 seconds
Rank 34: Matrix-vector product took 0.0153119 seconds
Rank 35: Matrix-vector product took 0.0148027 seconds
Rank 36: Matrix-vector product took 0.0139096 seconds
Rank 37: Matrix-vector product took 0.0147594 seconds
Rank 38: Matrix-vector product took 0.0151858 seconds
Rank 39: Matrix-vector product took 0.0150064 seconds
Rank 40: Matrix-vector product took 0.0157974 seconds
Rank 41: Matrix-vector product took 0.0154467 seconds
Rank 42: Matrix-vector product took 0.0148922 seconds
Rank 43: Matrix-vector product took 0.0151015 seconds
Rank 44: Matrix-vector product took 0.0148737 seconds
Rank 45: Matrix-vector product took 0.015459 seconds
Rank 46: Matrix-vector product took 0.0142309 seconds
Rank 47: Matrix-vector product took 0.0151908 seconds
Rank 48: Matrix-vector product took 0.0148487 seconds
Rank 49: Matrix-vector product took 0.0150112 seconds
Rank 50: Matrix-vector product took 0.0142285 seconds
Rank 51: Matrix-vector product took 0.0150449 seconds
Rank 52: Matrix-vector product took 0.0150775 seconds
Rank 53: Matrix-vector product took 0.0148563 seconds
Rank 54: Matrix-vector product took 0.0154129 seconds
Rank 55: Matrix-vector product took 0.0159813 seconds
Rank 56: Matrix-vector product took 0.0157821 seconds
Rank 57: Matrix-vector product took 0.0151803 seconds
Rank 58: Matrix-vector product took 0.0144526 seconds
Rank 59: Matrix-vector product took 0.0152307 seconds
Rank 60: Matrix-vector product took 0.0148925 seconds
Rank 61: Matrix-vector product took 0.0154127 seconds
Rank 62: Matrix-vector product took 0.0142181 seconds
Rank 63: Matrix-vector product took 0.0145811 seconds
Average time for Matrix-vector product is 0.015143 seconds

Rank 0: copyOwnerToAll took 0.000448379 seconds
Rank 1: copyOwnerToAll took 0.000694979 seconds
Rank 2: copyOwnerToAll took 0.000731969 seconds
Rank 3: copyOwnerToAll took 0.000743119 seconds
Rank 4: copyOwnerToAll took 0.000522609 seconds
Rank 5: copyOwnerToAll took 0.000288939 seconds
Rank 6: copyOwnerToAll took 0.000287029 seconds
Rank 7: copyOwnerToAll took 0.000522319 seconds
Rank 8: copyOwnerToAll took 0.00026087 seconds
Rank 9: copyOwnerToAll took 0.00026753 seconds
Rank 10: copyOwnerToAll took 0.000294499 seconds
Rank 11: copyOwnerToAll took 0.000416649 seconds
Rank 12: copyOwnerToAll took 0.000751099 seconds
Rank 13: copyOwnerToAll took 0.000419269 seconds
Rank 14: copyOwnerToAll took 0.000762429 seconds
Rank 15: copyOwnerToAll took 0.000764219 seconds
Rank 16: copyOwnerToAll took 0.000505599 seconds
Rank 17: copyOwnerToAll took 0.000520129 seconds
Rank 18: copyOwnerToAll took 0.000513079 seconds
Rank 19: copyOwnerToAll took 0.000528529 seconds
Rank 20: copyOwnerToAll took 0.000686629 seconds
Rank 21: copyOwnerToAll took 0.000537341 seconds
Rank 22: copyOwnerToAll took 0.000606871 seconds
Rank 23: copyOwnerToAll took 0.000581471 seconds
Rank 24: copyOwnerToAll took 0.000569251 seconds
Rank 25: copyOwnerToAll took 0.000625581 seconds
Rank 26: copyOwnerToAll took 0.000603521 seconds
Rank 27: copyOwnerToAll took 0.000613661 seconds
Rank 28: copyOwnerToAll took 0.000549171 seconds
Rank 29: copyOwnerToAll took 0.000395561 seconds
Rank 30: copyOwnerToAll took 0.00031738 seconds
Rank 31: copyOwnerToAll took 0.000406381 seconds
Rank 32: copyOwnerToAll took 0.000606691 seconds
Rank 33: copyOwnerToAll took 0.000562821 seconds
Rank 34: copyOwnerToAll took 0.000617311 seconds
Rank 35: copyOwnerToAll took 0.000361061 seconds
Rank 36: copyOwnerToAll took 0.00019832 seconds
Rank 37: copyOwnerToAll took 0.000388301 seconds
Rank 38: copyOwnerToAll took 0.00032045 seconds
Rank 39: copyOwnerToAll took 0.000619881 seconds
Rank 40: copyOwnerToAll took 0.000652541 seconds
Rank 41: copyOwnerToAll took 0.000722091 seconds
Rank 42: copyOwnerToAll took 0.00039135 seconds
Rank 43: copyOwnerToAll took 0.000613629 seconds
Rank 44: copyOwnerToAll took 0.000625459 seconds
Rank 45: copyOwnerToAll took 0.000746459 seconds
Rank 46: copyOwnerToAll took 0.00045213 seconds
Rank 47: copyOwnerToAll took 0.000604779 seconds
Rank 48: copyOwnerToAll took 0.0005118 seconds
Rank 49: copyOwnerToAll took 0.000827649 seconds
Rank 50: copyOwnerToAll took 0.00050617 seconds
Rank 51: copyOwnerToAll took 0.000597199 seconds
Rank 52: copyOwnerToAll took 0.000596859 seconds
Rank 53: copyOwnerToAll took 0.00037366 seconds
Rank 54: copyOwnerToAll took 0.00050138 seconds
Rank 55: copyOwnerToAll took 0.000640319 seconds
Rank 56: copyOwnerToAll took 0.000587229 seconds
Rank 57: copyOwnerToAll took 0.000629519 seconds
Rank 58: copyOwnerToAll took 0.00033011 seconds
Rank 59: copyOwnerToAll took 0.000601419 seconds
Rank 60: copyOwnerToAll took 0.000634109 seconds
Rank 61: copyOwnerToAll took 0.000749839 seconds
Rank 62: copyOwnerToAll took 0.000636789 seconds
Rank 63: copyOwnerToAll took 0.000781139 seconds
Average time for copyOwnertoAll is 0.000542571 seconds
Number of cores/ranks per node is: 21
Scotch partitioner
Cell on rank 0 before loadbalancing: 15641
Cell on rank 1 before loadbalancing: 15619
Cell on rank 2 before loadbalancing: 15657
Cell on rank 3 before loadbalancing: 15513
Cell on rank 4 before loadbalancing: 15481
Cell on rank 5 before loadbalancing: 15514
Cell on rank 6 before loadbalancing: 15781
Cell on rank 7 before loadbalancing: 15636
Cell on rank 8 before loadbalancing: 15558
Cell on rank 9 before loadbalancing: 15781
Cell on rank 10 before loadbalancing: 15578
Cell on rank 11 before loadbalancing: 15693
Cell on rank 12 before loadbalancing: 15647
Cell on rank 13 before loadbalancing: 15776
Cell on rank 14 before loadbalancing: 15472
Cell on rank 15 before loadbalancing: 15504
Cell on rank 16 before loadbalancing: 15781
Cell on rank 17 before loadbalancing: 15781
Cell on rank 18 before loadbalancing: 15496
Cell on rank 19 before loadbalancing: 15469
Cell on rank 20 before loadbalancing: 15746
Cell on rank 21 before loadbalancing: 15544
Cell on rank 22 before loadbalancing: 15583
Cell on rank 23 before loadbalancing: 15675
Cell on rank 24 before loadbalancing: 15492
Cell on rank 25 before loadbalancing: 15781
Cell on rank 26 before loadbalancing: 15781
Cell on rank 27 before loadbalancing: 15714
Cell on rank 28 before loadbalancing: 15708
Cell on rank 29 before loadbalancing: 15548
Cell on rank 30 before loadbalancing: 15469
Cell on rank 31 before loadbalancing: 15536
Cell on rank 32 before loadbalancing: 15551
Cell on rank 33 before loadbalancing: 15781
Cell on rank 34 before loadbalancing: 15504
Cell on rank 35 before loadbalancing: 15506
Cell on rank 36 before loadbalancing: 15470
Cell on rank 37 before loadbalancing: 15781
Cell on rank 38 before loadbalancing: 15773
Cell on rank 39 before loadbalancing: 15552
Cell on rank 40 before loadbalancing: 15772
Cell on rank 41 before loadbalancing: 15718
Cell on rank 42 before loadbalancing: 15573
Cell on rank 43 before loadbalancing: 15628
Cell on rank 44 before loadbalancing: 15671
Cell on rank 45 before loadbalancing: 15698
Cell on rank 46 before loadbalancing: 15611
Cell on rank 47 before loadbalancing: 15669
Cell on rank 48 before loadbalancing: 15622
Cell on rank 49 before loadbalancing: 15540
Cell on rank 50 before loadbalancing: 15469
Cell on rank 51 before loadbalancing: 15503
Cell on rank 52 before loadbalancing: 15469
Cell on rank 53 before loadbalancing: 15778
Cell on rank 54 before loadbalancing: 15781
Cell on rank 55 before loadbalancing: 15777
Cell on rank 56 before loadbalancing: 15625
Cell on rank 57 before loadbalancing: 15781
Cell on rank 58 before loadbalancing: 15475
Cell on rank 59 before loadbalancing: 15770
Cell on rank 60 before loadbalancing: 15672
Cell on rank 61 before loadbalancing: 15469
Cell on rank 62 before loadbalancing: 15587
Cell on rank 63 before loadbalancing: 15469
			Rank 0	Rank 1	Rank 2	Rank 3	Rank 4	Rank 5	Rank 6	Rank 7	Rank 8	Rank 9	Rank 10	Rank 11	Rank 12	Rank 13	Rank 14	Rank 15	Rank 16	Rank 17	Rank 18	Rank 19	Rank 20	Rank 21	Rank 22	Rank 23	Rank 24	Rank 25	Rank 26	Rank 27	Rank 28	Rank 29	Rank 30	Rank 31	Rank 32	Rank 33	Rank 34	Rank 35	Rank 36	Rank 37	Rank 38	Rank 39	Rank 40	Rank 41	Rank 42	Rank 43	Rank 44	Rank 45	Rank 46	Rank 47	Rank 48	Rank 49	Rank 50	Rank 51	Rank 52	Rank 53	Rank 54	Rank 55	Rank 56	Rank 57	Rank 58	Rank 59	Rank 60	Rank 61	Rank 62	Rank 63	
From rank 0 to: 	0	595	356	155	879	0	0	49	0	0	0	0	0	0	0	0	0	0	0	0	0	0	0	0	0	0	0	0	0	0	0	0	0	0	0	0	0	0	0	0	0	0	0	0	0	0	0	0	0	0	0	0	0	0	0	0	0	172	0	0	630	0	0	0	
From rank 1 to: 	589	0	0	375	237	0	0	186	0	0	0	0	0	0	0	0	0	0	0	0	0	0	0	0	0	18	394	548	0	0	0	0	28	0	262	0	0	0	0	0	0	0	0	0	0	0	0	0	0	0	0	0	0	0	0	0	316	467	0	0	2	0	0	0	
From rank 2 to: 	370	0	0	707	205	0	438	59	0	0	0	0	0	0	358	0	0	0	0	0	0	0	0	0	0	0	0	0	0	0	0	0	0	0	0	0	0	0	0	0	0	0	0	0	0	0	0	0	0	173	0	0	0	0	0	0	0	0	0	0	126	401	0	0	
From rank 3 to: 	156	355	708	0	0	0	100	424	0	0	8	29	663	0	165	0	0	0	0	0	101	0	0	0	0	0	156	0	0	0	0	0	52	0	0	0	0	0	0	0	0	0	0	0	0	0	0	0	0	101	0	0	0	0	0	68	445	0	0	0	42	321	0	0	
From rank 4 to: 	877	237	202	0	0	816	247	279	0	0	0	0	0	0	0	0	0	0	0	0	0	0	0	0	0	213	0	179	0	0	0	0	0	0	0	0	0	0	0	0	0	0	0	0	0	0	0	0	0	0	0	0	0	0	0	0	0	0	0	0	0	0	0	0	
From rank 5 to: 	0	0	0	0	817	0	378	266	0	0	0	0	0	0	0	0	0	0	0	0	0	0	0	0	0	368	0	0	0	0	0	0	0	0	0	0	0	0	0	0	0	0	0	0	0	0	0	0	0	0	0	0	0	0	0	0	0	0	0	0	0	0	0	0	
From rank 6 to: 	0	0	437	100	233	378	0	702	0	0	593	66	0	0	72	0	0	0	0	0	0	0	0	0	0	0	0	0	0	0	0	0	0	0	0	0	0	0	0	0	0	0	0	0	0	0	0	0	0	0	0	0	0	0	0	0	0	0	0	0	0	0	0	0	
From rank 7 to: 	51	192	59	428	284	284	699	0	0	0	0	384	68	0	0	0	0	0	0	0	63	14	0	0	595	207	223	0	0	0	0	0	0	0	0	0	0	0	0	0	0	0	0	0	0	0	0	0	0	0	0	0	0	0	0	0	0	0	0	0	0	0	0	0	
From rank 8 to: 	0	0	0	0	0	0	0	0	0	679	592	39	0	0	91	477	0	0	0	0	0	0	0	0	0	0	0	0	0	0	0	0	0	0	0	0	0	0	0	0	0	0	0	0	0	0	0	0	0	0	0	0	0	0	0	0	0	0	0	0	0	0	0	0	
From rank 9 to: 	0	0	0	0	0	0	0	0	681	0	35	553	0	424	2	97	463	188	0	0	0	0	0	0	0	0	0	0	0	0	0	0	0	0	0	0	0	0	0	0	0	0	0	0	0	0	0	0	0	0	0	0	0	0	0	0	0	0	0	0	0	0	0	0	
From rank 10 to: 	0	0	0	8	0	0	613	0	592	33	0	701	0	0	459	0	0	0	0	0	0	0	0	0	0	0	0	0	0	0	0	0	0	0	0	0	0	0	0	0	0	0	0	0	0	0	0	0	0	0	0	0	0	0	0	0	0	0	0	0	0	0	0	0	
From rank 11 to: 	0	0	0	29	0	0	62	384	35	560	701	0	409	183	100	0	123	92	0	0	84	531	0	0	176	0	0	0	0	0	0	0	0	0	0	0	0	0	0	0	0	0	0	0	0	0	0	0	0	0	0	0	0	0	0	0	0	0	0	0	0	0	0	0	
From rank 12 to: 	0	0	0	657	0	0	0	74	0	0	0	408	0	586	456	0	0	27	0	0	425	0	0	0	0	0	0	0	0	0	0	0	8	0	0	0	0	0	0	0	305	0	0	0	0	0	0	0	0	152	0	30	153	0	0	377	23	0	0	0	0	0	0	0	
From rank 13 to: 	0	0	0	0	0	0	0	0	0	424	0	169	586	0	156	593	0	407	0	0	0	0	0	0	0	0	0	0	0	0	0	0	0	0	0	0	0	0	0	0	52	0	194	0	0	0	0	0	0	0	0	85	523	0	0	0	0	0	0	0	0	0	0	0	
From rank 14 to: 	0	0	356	150	0	0	72	0	97	2	459	103	452	166	0	677	0	0	0	0	0	0	0	0	0	0	0	0	0	0	0	0	0	0	0	0	0	0	0	0	0	0	0	0	0	0	0	0	0	457	0	58	0	0	0	0	0	0	0	0	0	0	0	0	
From rank 15 to: 	0	0	0	0	0	0	0	0	475	94	0	0	0	591	677	0	0	0	0	0	0	0	0	0	0	0	0	0	0	0	0	0	0	0	0	0	0	0	0	0	0	0	0	0	0	0	0	0	0	31	0	549	4	0	0	0	0	0	0	0	0	0	0	0	
From rank 16 to: 	0	0	0	0	0	0	0	0	0	468	0	124	0	0	0	0	0	655	535	84	0	534	76	0	0	0	0	0	0	0	0	0	0	0	0	0	0	0	0	0	0	0	0	0	0	0	0	0	0	0	0	0	0	0	0	0	0	0	0	0	0	0	0	0	
From rank 17 to: 	0	0	0	0	0	0	0	0	0	188	0	82	27	405	0	0	655	0	3	567	433	85	39	81	0	0	0	0	0	0	0	0	0	0	0	0	0	0	0	0	142	0	449	37	0	0	0	0	0	0	0	0	0	0	0	0	0	0	0	0	0	0	0	0	
From rank 18 to: 	0	0	0	0	0	0	0	0	0	0	0	0	0	0	0	0	535	3	0	687	0	0	546	92	0	0	0	0	0	0	0	0	0	0	0	0	0	0	0	0	0	0	0	0	0	0	0	0	0	0	0	0	0	0	0	0	0	0	0	0	0	0	0	0	
From rank 19 to: 	0	0	0	0	0	0	0	0	0	0	0	0	0	0	0	0	86	566	682	0	0	0	56	452	0	0	0	0	0	0	0	0	0	0	0	0	0	0	0	0	0	0	163	551	0	0	0	0	0	0	0	0	0	0	0	0	0	0	0	0	0	0	0	0	
From rank 20 to: 	0	0	0	95	0	0	0	59	0	0	0	86	422	0	0	0	0	434	0	0	0	624	109	402	76	0	524	0	87	0	0	0	214	12	0	0	0	0	0	0	355	131	0	0	0	0	0	0	0	0	0	0	0	0	0	0	0	0	0	0	0	0	0	0	
From rank 21 to: 	0	0	0	0	0	0	0	14	0	0	0	563	0	0	0	0	534	85	0	0	630	0	496	0	697	0	14	0	8	0	0	0	0	0	0	0	0	0	0	0	0	0	0	0	0	0	0	0	0	0	0	0	0	0	0	0	0	0	0	0	0	0	0	0	
From rank 22 to: 	0	0	0	0	0	0	0	0	0	0	0	0	0	0	0	0	62	39	536	56	120	494	0	662	20	0	0	0	50	595	0	0	0	0	0	0	0	0	0	0	0	0	0	0	0	0	0	0	0	0	0	0	0	0	0	0	0	0	0	0	0	0	0	0	
From rank 23 to: 	0	0	0	0	0	0	0	0	0	0	0	0	0	0	0	0	0	81	93	455	403	0	654	0	0	0	0	0	427	56	0	0	0	55	0	0	0	0	0	0	0	578	0	262	0	0	0	0	0	0	0	0	0	0	0	0	0	0	0	0	0	0	0	0	
From rank 24 to: 	0	0	0	0	0	0	0	590	0	0	0	198	0	0	0	0	0	0	0	0	76	698	20	0	0	475	566	0	11	403	0	2	0	0	0	0	0	0	0	0	0	0	0	0	0	0	0	0	0	0	0	0	0	0	0	0	0	0	0	0	0	0	0	0	
From rank 25 to: 	0	18	0	0	200	368	0	201	0	0	0	0	0	0	0	0	0	0	0	0	0	0	0	0	475	0	159	626	0	11	0	367	0	0	0	0	0	0	0	0	0	0	0	0	0	0	0	0	0	0	0	0	0	0	0	0	0	0	0	0	0	0	0	0	
From rank 26 to: 	0	379	0	163	0	0	0	223	0	0	0	0	0	0	0	0	0	0	0	0	524	14	0	0	565	158	0	534	445	81	0	41	378	110	70	0	0	0	0	0	0	0	0	0	0	0	0	0	0	0	0	0	0	0	0	0	36	0	0	0	0	0	0	0	
From rank 27 to: 	0	545	0	0	179	0	0	0	0	0	0	0	0	0	0	0	0	0	0	0	0	0	0	0	0	628	534	0	53	0	484	230	0	24	442	0	0	0	0	0	0	0	0	0	0	0	0	0	0	0	0	0	0	0	0	0	0	0	0	0	0	0	0	0	
From rank 28 to: 	0	0	0	0	0	0	0	0	0	0	0	0	0	0	0	0	0	0	0	0	103	8	50	427	11	0	443	53	0	692	564	68	0	640	0	154	0	0	0	0	0	0	0	0	0	0	0	0	0	0	0	0	0	0	0	0	0	0	0	0	0	0	0	0	
From rank 29 to: 	0	0	0	0	0	0	0	0	0	0	0	0	0	0	0	0	0	0	0	0	0	0	596	67	402	11	88	0	682	0	24	626	0	0	0	0	0	0	0	0	0	0	0	0	0	0	0	0	0	0	0	0	0	0	0	0	0	0	0	0	0	0	0	0	
From rank 30 to: 	0	0	0	0	0	0	0	0	0	0	0	0	0	0	0	0	0	0	0	0	0	0	0	0	0	0	0	485	550	24	0	645	0	20	91	561	0	0	0	0	0	0	0	0	0	0	0	0	0	0	0	0	0	0	0	0	0	0	0	0	0	0	0	0	
From rank 31 to: 	0	0	0	0	0	0	0	0	0	0	0	0	0	0	0	0	0	0	0	0	0	0	0	0	2	368	52	230	67	637	645	0	0	0	0	0	0	0	0	0	0	0	0	0	0	0	0	0	0	0	0	0	0	0	0	0	0	0	0	0	0	0	0	0	
From rank 32 to: 	0	29	0	53	0	0	0	0	0	0	0	0	8	0	0	0	0	0	0	0	219	0	0	0	0	0	382	0	0	0	0	0	0	579	419	0	0	0	95	345	375	256	0	0	51	168	0	0	0	0	0	0	0	0	40	0	686	0	0	43	0	0	0	0	
From rank 33 to: 	0	0	0	0	0	0	0	0	0	0	0	0	0	0	0	0	0	0	0	0	11	0	0	44	0	0	118	20	643	0	20	0	590	0	142	551	0	0	454	0	0	527	0	0	180	0	0	0	0	0	0	0	0	0	0	0	0	0	0	0	0	0	0	0	
From rank 34 to: 	0	262	0	0	0	0	0	0	0	0	0	0	0	0	0	0	0	0	0	0	0	0	0	0	0	0	70	438	0	0	92	0	419	140	0	553	0	373	86	114	0	0	0	0	0	0	0	0	0	0	0	0	0	0	0	0	183	445	25	0	0	0	0	0	
From rank 35 to: 	0	0	0	0	0	0	0	0	0	0	0	0	0	0	0	0	0	0	0	0	0	0	0	0	0	0	0	0	161	0	555	0	0	555	557	0	502	149	105	0	0	0	0	0	0	0	0	0	0	0	0	0	0	0	0	0	0	0	0	0	0	0	0	0	
From rank 36 to: 	0	0	0	0	0	0	0	0	0	0	0	0	0	0	0	0	0	0	0	0	0	0	0	0	0	0	0	0	0	0	0	0	0	0	0	518	0	708	686	0	0	0	0	0	0	0	0	0	0	0	0	0	0	0	0	0	0	0	0	0	0	0	0	0	
From rank 37 to: 	0	0	0	0	0	0	0	0	0	0	0	0	0	0	0	0	0	0	0	0	0	0	0	0	0	0	0	0	0	0	0	0	0	0	374	140	709	0	134	420	0	0	0	0	0	0	0	0	0	0	0	0	0	0	0	0	0	123	480	0	0	0	0	0	
From rank 38 to: 	0	0	0	0	0	0	0	0	0	0	0	0	0	0	0	0	0	0	0	0	0	0	0	0	0	0	0	0	0	0	0	0	100	450	89	110	677	134	0	677	0	0	0	0	551	0	0	0	0	0	0	0	0	0	0	0	0	0	0	0	0	0	0	0	
From rank 39 to: 	0	0	0	0	0	0	0	0	0	0	0	0	0	0	0	0	0	0	0	0	0	0	0	0	0	0	0	0	0	0	0	0	343	0	114	0	0	420	676	0	0	0	0	0	130	428	0	0	0	0	0	0	0	0	142	0	15	0	144	516	0	0	0	0	
From rank 40 to: 	0	0	0	0	0	0	0	0	0	0	0	0	308	52	0	0	0	140	0	0	357	0	0	0	0	0	0	0	0	0	0	0	362	0	0	0	0	0	0	0	0	419	491	159	0	390	0	92	0	0	0	0	207	47	62	506	97	0	0	0	0	0	0	0	
From rank 41 to: 	0	0	0	0	0	0	0	0	0	0	0	0	0	0	0	0	0	0	0	0	129	0	0	577	0	0	0	0	0	0	0	0	255	528	0	0	0	0	0	0	419	0	0	534	449	246	0	58	0	0	0	0	0	0	0	0	0	0	0	0	0	0	0	0	
From rank 42 to: 	0	0	0	0	0	0	0	0	0	0	0	0	0	195	0	0	0	448	0	163	0	0	0	0	0	0	0	0	0	0	0	0	0	0	0	0	0	0	0	0	496	0	0	454	0	0	0	420	0	0	0	0	464	236	0	0	0	0	0	0	0	0	0	0	
From rank 43 to: 	0	0	0	0	0	0	0	0	0	0	0	0	0	0	0	0	0	36	0	559	0	0	0	264	0	0	0	0	0	0	0	0	0	0	0	0	0	0	0	0	162	537	452	0	0	21	0	621	0	0	0	0	0	0	0	0	0	0	0	0	0	0	0	0	
From rank 44 to: 	0	0	0	0	0	0	0	0	0	0	0	0	0	0	0	0	0	0	0	0	0	0	0	0	0	0	0	0	0	0	0	0	50	172	0	0	0	0	551	122	0	459	0	0	0	694	297	199	0	0	0	0	0	0	0	0	0	0	0	0	0	0	0	0	
From rank 45 to: 	0	0	0	0	0	0	0	0	0	0	0	0	0	0	0	0	0	0	0	0	0	0	0	0	0	0	0	0	0	0	0	0	169	0	0	0	0	0	0	428	391	247	0	21	702	0	350	321	0	0	0	0	0	0	587	62	0	0	0	0	0	0	0	0	
From rank 46 to: 	0	0	0	0	0	0	0	0	0	0	0	0	0	0	0	0	0	0	0	0	0	0	0	0	0	0	0	0	0	0	0	0	0	0	0	0	0	0	0	0	0	0	0	0	306	359	0	837	0	0	0	0	0	303	79	0	0	0	0	0	0	0	0	0	
From rank 47 to: 	0	0	0	0	0	0	0	0	0	0	0	0	0	0	0	0	0	0	0	0	0	0	0	0	0	0	0	0	0	0	0	0	0	0	0	0	0	0	0	0	100	58	423	620	199	321	838	0	0	0	0	0	0	263	23	11	0	0	0	0	0	0	0	0	
From rank 48 to: 	0	0	0	0	0	0	0	0	0	0	0	0	0	0	0	0	0	0	0	0	0	0	0	0	0	0	0	0	0	0	0	0	0	0	0	0	0	0	0	0	0	0	0	0	0	0	0	0	0	536	521	40	0	0	305	348	0	0	0	72	0	72	0	636	
From rank 49 to: 	0	0	185	104	0	0	0	0	0	0	0	0	151	0	456	31	0	0	0	0	0	0	0	0	0	0	0	0	0	0	0	0	0	0	0	0	0	0	0	0	0	0	0	0	0	0	0	0	536	0	72	552	18	0	0	405	0	0	0	0	0	490	0	11	
From rank 50 to: 	0	0	0	0	0	0	0	0	0	0	0	0	0	0	0	0	0	0	0	0	0	0	0	0	0	0	0	0	0	0	0	0	0	0	0	0	0	0	0	0	0	0	0	0	0	0	0	0	521	71	0	719	97	374	85	51	0	0	0	0	0	0	0	0	
From rank 51 to: 	0	0	0	0	0	0	0	0	0	0	0	0	39	84	59	550	0	0	0	0	0	0	0	0	0	0	0	0	0	0	0	0	0	0	0	0	0	0	0	0	0	0	0	0	0	0	0	0	43	558	723	0	543	13	0	102	0	0	0	0	0	0	0	0	
From rank 52 to: 	0	0	0	0	0	0	0	0	0	0	0	0	146	542	0	4	0	0	0	0	0	0	0	0	0	0	0	0	0	0	0	0	0	0	0	0	0	0	0	0	204	0	466	0	0	0	0	0	0	19	91	546	0	504	0	433	0	0	0	0	0	0	0	0	
From rank 53 to: 	0	0	0	0	0	0	0	0	0	0	0	0	0	0	0	0	0	0	0	0	0	0	0	0	0	0	0	0	0	0	0	0	0	0	0	0	0	0	0	0	43	0	238	0	0	0	301	261	0	0	371	13	499	0	506	129	0	0	0	0	0	0	0	0	
From rank 54 to: 	0	0	0	0	0	0	0	0	0	0	0	0	0	0	0	0	0	0	0	0	0	0	0	0	0	0	0	0	0	0	0	0	41	0	0	0	0	0	0	142	62	0	0	0	0	596	79	24	305	0	77	0	0	506	0	695	20	0	0	439	0	0	0	0	
From rank 55 to: 	0	0	0	64	0	0	0	0	0	0	0	0	375	0	0	0	0	0	0	0	0	0	0	0	0	0	0	0	0	0	0	0	0	0	0	0	0	0	0	0	497	0	0	0	0	62	0	11	354	408	48	100	427	129	703	0	364	0	0	108	0	163	0	11	
From rank 56 to: 	0	312	0	442	0	0	0	0	0	0	0	0	23	0	0	0	0	0	0	0	0	0	0	0	0	0	36	0	0	0	0	0	687	0	197	0	0	0	0	19	101	0	0	0	0	0	0	0	0	0	0	0	0	0	20	365	0	461	33	580	18	479	0	10	
From rank 57 to: 	168	465	0	0	0	0	0	0	0	0	0	0	0	0	0	0	0	0	0	0	0	0	0	0	0	0	0	0	0	0	0	0	0	0	445	0	0	132	0	0	0	0	0	0	0	0	0	0	0	0	0	0	0	0	0	0	461	0	630	36	452	34	121	0	
From rank 58 to: 	0	0	0	0	0	0	0	0	0	0	0	0	0	0	0	0	0	0	0	0	0	0	0	0	0	0	0	0	0	0	0	0	0	0	25	0	0	482	0	168	0	0	0	0	0	0	0	0	0	0	0	0	0	0	0	0	33	630	0	585	0	0	445	0	
From rank 59 to: 	0	0	0	0	0	0	0	0	0	0	0	0	0	0	0	0	0	0	0	0	0	0	0	0	0	0	0	0	0	0	0	0	43	0	0	0	0	0	0	516	0	0	0	0	0	0	0	0	68	0	0	0	0	0	433	107	580	42	582	0	0	76	68	457	
From rank 60 to: 	629	2	125	46	0	0	0	0	0	0	0	0	0	0	0	0	0	0	0	0	0	0	0	0	0	0	0	0	0	0	0	0	0	0	0	0	0	0	0	0	0	0	0	0	0	0	0	0	0	0	0	0	0	0	0	0	26	443	0	0	0	623	660	123	
From rank 61 to: 	0	0	402	321	0	0	0	0	0	0	0	0	0	0	0	0	0	0	0	0	0	0	0	0	0	0	0	0	0	0	0	0	0	0	0	0	0	0	0	0	0	0	0	0	0	0	0	0	74	490	0	0	0	0	0	160	471	35	0	85	605	0	54	686	
From rank 62 to: 	0	0	0	0	0	0	0	0	0	0	0	0	0	0	0	0	0	0	0	0	0	0	0	0	0	0	0	0	0	0	0	0	0	0	0	0	0	0	0	0	0	0	0	0	0	0	0	0	0	0	0	0	0	0	0	0	0	144	442	79	666	46	0	539	
From rank 63 to: 	0	0	0	0	0	0	0	0	0	0	0	0	0	0	0	0	0	0	0	0	0	0	0	0	0	0	0	0	0	0	0	0	0	0	0	0	0	0	0	0	0	0	0	0	0	0	0	0	645	11	0	0	0	0	0	11	10	0	0	459	128	687	539	0	
loadb
After loadbalancing process 36 has 17382 cells.
After loadbalancing process 8 has 17436 cells.
After loadbalancing process 35 has 18090 cells.
After loadbalancing process 29 has 18044 cells.
After loadbalancing process 9 has 18224 cells.
After loadbalancing process 6 has 18362 cells.
After loadbalancing process 46 has 17495 cells.
After loadbalancing process 31 has 17537 cells.
After loadbalancing process 10 has 17984 cells.
After loadbalancing process 0 has 18477 cells.
After loadbalancing process 14 has 18521 cells.
After loadbalancing process 62 has 17503 cells.
After loadbalancing process 16 has 18257 cells.
After loadbalancing process 5 has 17343 cells.
After loadbalancing process 50 has 17387 cells.
After loadbalancing process 4 has 18531 cells.
After loadbalancing process 47 has 18525 cells.
After loadbalancing process 57 has 18725 cells.
After loadbalancing process 2 has 18494 cells.
After loadbalancing process 53 has 18139 cells.
After loadbalancing process 60 has 18349 cells.
After loadbalancing process 38 has 18561 cells.
After loadbalancing process 52 has 18424 cells.
After loadbalancing process 59 has 18742 cells.
After loadbalancing process 11 has 19162 cells.
After loadbalancing process 7 has 19187 cells.
After loadbalancing process 49 has 18551 cells.
After loadbalancing process 51 has 18217 cells.
After loadbalancing process 63 has 17959 cells.
After loadbalancing process 30 has 17845 cells.
After loadbalancing process 22 has 18217 cells.
After loadbalancing process 44 has 18215 cells.
After loadbalancing process 1 has 19041 cells.
After loadbalancing process 26 has 19502 cells.
After loadbalancing process 54 has 18767 cells.
After loadbalancing process 3 has 19407 cells.
After loadbalancing process 19 has 18025 cells.
After loadbalancing process 34 has 18704 cells.
After loadbalancing process 39 has 18480 cells.
After loadbalancing process 37 has 18161 cells.
After loadbalancing process 32 has 19299 cells.
After loadbalancing process 15 has 17925 cells.
After loadbalancing process 18 has 17359 cells.
After loadbalancing process 40 has 19461 cells.
After loadbalancing process 41 has 18913 cells.
After loadbalancing process 25 has 18206 cells.
After loadbalancing process 27 has 18833 cells.
After loadbalancing process 21 has 18585 cells.After loadbalancing process 48 has 18152 cells.
After loadbalancing process 58 has 17843 cells.

After loadbalancing process 43 has 18280 cells.
After loadbalancing process 13 has 18965 cells.
After loadbalancing process 42 has 18449 cells.
After loadbalancing process 28 has 18921 cells.
After loadbalancing process 17 has 18974 cells.
After loadbalancing process 23 has 18739 cells.
After loadbalancing process 24 has 18531 cells.
After loadbalancing process 33 has 19081 cells.
After loadbalancing process 20 has 19376 cells.
After loadbalancing process 12 has 19328 cells.
After loadbalancing process 45 has 18976 cells.
After loadbalancing process 61 has 18852 cells.
After loadbalancing process 56 has 19408 cells.After loadbalancing process 55 has 19601 cells.

			Rank 0	Rank 1	Rank 2	Rank 3	Rank 4	Rank 5	Rank 6	Rank 7	Rank 8	Rank 9	Rank 10	Rank 11	Rank 12	Rank 13	Rank 14	Rank 15	Rank 16	Rank 17	Rank 18	Rank 19	Rank 20	Rank 21	Rank 22	Rank 23	Rank 24	Rank 25	Rank 26	Rank 27	Rank 28	Rank 29	Rank 30	Rank 31	Rank 32	Rank 33	Rank 34	Rank 35	Rank 36	Rank 37	Rank 38	Rank 39	Rank 40	Rank 41	Rank 42	Rank 43	Rank 44	Rank 45	Rank 46	Rank 47	Rank 48	Rank 49	Rank 50	Rank 51	Rank 52	Rank 53	Rank 54	Rank 55	Rank 56	Rank 57	Rank 58	Rank 59	Rank 60	Rank 61	Rank 62	Rank 63	
Rank 0's ghost cells:	0	595	356	155	879	0	0	49	0	0	0	0	0	0	0	0	0	0	0	0	0	0	0	0	0	0	0	0	0	0	0	0	0	0	0	0	0	0	0	0	0	0	0	0	0	0	0	0	0	0	0	0	0	0	0	0	0	172	0	0	630	0	0	0	
Rank 1's ghost cells:	589	0	0	375	237	0	0	186	0	0	0	0	0	0	0	0	0	0	0	0	0	0	0	0	0	18	394	548	0	0	0	0	28	0	262	0	0	0	0	0	0	0	0	0	0	0	0	0	0	0	0	0	0	0	0	0	316	467	0	0	2	0	0	0	
Rank 2's ghost cells:	370	0	0	707	205	0	438	59	0	0	0	0	0	0	358	0	0	0	0	0	0	0	0	0	0	0	0	0	0	0	0	0	0	0	0	0	0	0	0	0	0	0	0	0	0	0	0	0	0	173	0	0	0	0	0	0	0	0	0	0	126	401	0	0	
Rank 3's ghost cells:	156	355	708	0	0	0	100	424	0	0	8	29	663	0	165	0	0	0	0	0	101	0	0	0	0	0	156	0	0	0	0	0	52	0	0	0	0	0	0	0	0	0	0	0	0	0	0	0	0	101	0	0	0	0	0	68	445	0	0	0	42	321	0	0	
Rank 4's ghost cells:	877	237	202	0	0	816	247	279	0	0	0	0	0	0	0	0	0	0	0	0	0	0	0	0	0	213	0	179	0	0	0	0	0	0	0	0	0	0	0	0	0	0	0	0	0	0	0	0	0	0	0	0	0	0	0	0	0	0	0	0	0	0	0	0	
Rank 5's ghost cells:	0	0	0	0	817	0	378	266	0	0	0	0	0	0	0	0	0	0	0	0	0	0	0	0	0	368	0	0	0	0	0	0	0	0	0	0	0	0	0	0	0	0	0	0	0	0	0	0	0	0	0	0	0	0	0	0	0	0	0	0	0	0	0	0	
Rank 6's ghost cells:	0	0	437	100	233	378	0	702	0	0	593	66	0	0	72	0	0	0	0	0	0	0	0	0	0	0	0	0	0	0	0	0	0	0	0	0	0	0	0	0	0	0	0	0	0	0	0	0	0	0	0	0	0	0	0	0	0	0	0	0	0	0	0	0	
Rank 7's ghost cells:	51	192	59	428	284	284	699	0	0	0	0	384	68	0	0	0	0	0	0	0	63	14	0	0	595	207	223	0	0	0	0	0	0	0	0	0	0	0	0	0	0	0	0	0	0	0	0	0	0	0	0	0	0	0	0	0	0	0	0	0	0	0	0	0	
Rank 8's ghost cells:	0	0	0	0	0	0	0	0	0	679	592	39	0	0	91	477	0	0	0	0	0	0	0	0	0	0	0	0	0	0	0	0	0	0	0	0	0	0	0	0	0	0	0	0	0	0	0	0	0	0	0	0	0	0	0	0	0	0	0	0	0	0	0	0	
Rank 9's ghost cells:	0	0	0	0	0	0	0	0	681	0	35	553	0	424	2	97	463	188	0	0	0	0	0	0	0	0	0	0	0	0	0	0	0	0	0	0	0	0	0	0	0	0	0	0	0	0	0	0	0	0	0	0	0	0	0	0	0	0	0	0	0	0	0	0	
Rank 10's ghost cells:	0	0	0	8	0	0	613	0	592	33	0	701	0	0	459	0	0	0	0	0	0	0	0	0	0	0	0	0	0	0	0	0	0	0	0	0	0	0	0	0	0	0	0	0	0	0	0	0	0	0	0	0	0	0	0	0	0	0	0	0	0	0	0	0	
Rank 11's ghost cells:	0	0	0	29	0	0	62	384	35	560	701	0	409	183	100	0	123	92	0	0	84	531	0	0	176	0	0	0	0	0	0	0	0	0	0	0	0	0	0	0	0	0	0	0	0	0	0	0	0	0	0	0	0	0	0	0	0	0	0	0	0	0	0	0	
Rank 12's ghost cells:	0	0	0	657	0	0	0	74	0	0	0	408	0	586	456	0	0	27	0	0	425	0	0	0	0	0	0	0	0	0	0	0	8	0	0	0	0	0	0	0	305	0	0	0	0	0	0	0	0	152	0	30	153	0	0	377	23	0	0	0	0	0	0	0	
Rank 13's ghost cells:	0	0	0	0	0	0	0	0	0	424	0	169	586	0	156	593	0	407	0	0	0	0	0	0	0	0	0	0	0	0	0	0	0	0	0	0	0	0	0	0	52	0	194	0	0	0	0	0	0	0	0	85	523	0	0	0	0	0	0	0	0	0	0	0	
Rank 14's ghost cells:	0	0	356	150	0	0	72	0	97	2	459	103	452	166	0	677	0	0	0	0	0	0	0	0	0	0	0	0	0	0	0	0	0	0	0	0	0	0	0	0	0	0	0	0	0	0	0	0	0	457	0	58	0	0	0	0	0	0	0	0	0	0	0	0	
Rank 15's ghost cells:	0	0	0	0	0	0	0	0	475	94	0	0	0	591	677	0	0	0	0	0	0	0	0	0	0	0	0	0	0	0	0	0	0	0	0	0	0	0	0	0	0	0	0	0	0	0	0	0	0	31	0	549	4	0	0	0	0	0	0	0	0	0	0	0	
Rank 16's ghost cells:	0	0	0	0	0	0	0	0	0	468	0	124	0	0	0	0	0	655	535	84	0	534	76	0	0	0	0	0	0	0	0	0	0	0	0	0	0	0	0	0	0	0	0	0	0	0	0	0	0	0	0	0	0	0	0	0	0	0	0	0	0	0	0	0	
Rank 17's ghost cells:	0	0	0	0	0	0	0	0	0	188	0	82	27	405	0	0	655	0	3	567	433	85	39	81	0	0	0	0	0	0	0	0	0	0	0	0	0	0	0	0	142	0	449	37	0	0	0	0	0	0	0	0	0	0	0	0	0	0	0	0	0	0	0	0	
Rank 18's ghost cells:	0	0	0	0	0	0	0	0	0	0	0	0	0	0	0	0	535	3	0	687	0	0	546	92	0	0	0	0	0	0	0	0	0	0	0	0	0	0	0	0	0	0	0	0	0	0	0	0	0	0	0	0	0	0	0	0	0	0	0	0	0	0	0	0	
Rank 19's ghost cells:	0	0	0	0	0	0	0	0	0	0	0	0	0	0	0	0	86	566	682	0	0	0	56	452	0	0	0	0	0	0	0	0	0	0	0	0	0	0	0	0	0	0	163	551	0	0	0	0	0	0	0	0	0	0	0	0	0	0	0	0	0	0	0	0	
Rank 20's ghost cells:	0	0	0	95	0	0	0	59	0	0	0	86	422	0	0	0	0	434	0	0	0	624	109	402	76	0	524	0	87	0	0	0	214	12	0	0	0	0	0	0	355	131	0	0	0	0	0	0	0	0	0	0	0	0	0	0	0	0	0	0	0	0	0	0	
Rank 21's ghost cells:	0	0	0	0	0	0	0	14	0	0	0	563	0	0	0	0	534	85	0	0	630	0	496	0	697	0	14	0	8	0	0	0	0	0	0	0	0	0	0	0	0	0	0	0	0	0	0	0	0	0	0	0	0	0	0	0	0	0	0	0	0	0	0	0	
Rank 22's ghost cells:	0	0	0	0	0	0	0	0	0	0	0	0	0	0	0	0	62	39	536	56	120	494	0	662	20	0	0	0	50	595	0	0	0	0	0	0	0	0	0	0	0	0	0	0	0	0	0	0	0	0	0	0	0	0	0	0	0	0	0	0	0	0	0	0	
Rank 23's ghost cells:	0	0	0	0	0	0	0	0	0	0	0	0	0	0	0	0	0	81	93	455	403	0	654	0	0	0	0	0	427	56	0	0	0	55	0	0	0	0	0	0	0	578	0	262	0	0	0	0	0	0	0	0	0	0	0	0	0	0	0	0	0	0	0	0	
Rank 24's ghost cells:	0	0	0	0	0	0	0	590	0	0	0	198	0	0	0	0	0	0	0	0	76	698	20	0	0	475	566	0	11	403	0	2	0	0	0	0	0	0	0	0	0	0	0	0	0	0	0	0	0	0	0	0	0	0	0	0	0	0	0	0	0	0	0	0	
Rank 25's ghost cells:	0	18	0	0	200	368	0	201	0	0	0	0	0	0	0	0	0	0	0	0	0	0	0	0	475	0	159	626	0	11	0	367	0	0	0	0	0	0	0	0	0	0	0	0	0	0	0	0	0	0	0	0	0	0	0	0	0	0	0	0	0	0	0	0	
Rank 26's ghost cells:	0	379	0	163	0	0	0	223	0	0	0	0	0	0	0	0	0	0	0	0	524	14	0	0	565	158	0	534	445	81	0	41	378	110	70	0	0	0	0	0	0	0	0	0	0	0	0	0	0	0	0	0	0	0	0	0	36	0	0	0	0	0	0	0	
Rank 27's ghost cells:	0	545	0	0	179	0	0	0	0	0	0	0	0	0	0	0	0	0	0	0	0	0	0	0	0	628	534	0	53	0	484	230	0	24	442	0	0	0	0	0	0	0	0	0	0	0	0	0	0	0	0	0	0	0	0	0	0	0	0	0	0	0	0	0	
Rank 28's ghost cells:	0	0	0	0	0	0	0	0	0	0	0	0	0	0	0	0	0	0	0	0	103	8	50	427	11	0	443	53	0	692	564	68	0	640	0	154	0	0	0	0	0	0	0	0	0	0	0	0	0	0	0	0	0	0	0	0	0	0	0	0	0	0	0	0	
Rank 29's ghost cells:	0	0	0	0	0	0	0	0	0	0	0	0	0	0	0	0	0	0	0	0	0	0	596	67	402	11	88	0	682	0	24	626	0	0	0	0	0	0	0	0	0	0	0	0	0	0	0	0	0	0	0	0	0	0	0	0	0	0	0	0	0	0	0	0	
Rank 30's ghost cells:	0	0	0	0	0	0	0	0	0	0	0	0	0	0	0	0	0	0	0	0	0	0	0	0	0	0	0	485	550	24	0	645	0	20	91	561	0	0	0	0	0	0	0	0	0	0	0	0	0	0	0	0	0	0	0	0	0	0	0	0	0	0	0	0	
Rank 31's ghost cells:	0	0	0	0	0	0	0	0	0	0	0	0	0	0	0	0	0	0	0	0	0	0	0	0	2	368	52	230	67	637	645	0	0	0	0	0	0	0	0	0	0	0	0	0	0	0	0	0	0	0	0	0	0	0	0	0	0	0	0	0	0	0	0	0	
Rank 32's ghost cells:	0	29	0	53	0	0	0	0	0	0	0	0	8	0	0	0	0	0	0	0	219	0	0	0	0	0	382	0	0	0	0	0	0	579	419	0	0	0	95	345	375	256	0	0	51	168	0	0	0	0	0	0	0	0	40	0	686	0	0	43	0	0	0	0	
Rank 33's ghost cells:	0	0	0	0	0	0	0	0	0	0	0	0	0	0	0	0	0	0	0	0	11	0	0	44	0	0	118	20	643	0	20	0	590	0	142	551	0	0	454	0	0	527	0	0	180	0	0	0	0	0	0	0	0	0	0	0	0	0	0	0	0	0	0	0	
Rank 34's ghost cells:	0	262	0	0	0	0	0	0	0	0	0	0	0	0	0	0	0	0	0	0	0	0	0	0	0	0	70	438	0	0	92	0	419	140	0	553	0	373	86	114	0	0	0	0	0	0	0	0	0	0	0	0	0	0	0	0	183	445	25	0	0	0	0	0	
Rank 35's ghost cells:	0	0	0	0	0	0	0	0	0	0	0	0	0	0	0	0	0	0	0	0	0	0	0	0	0	0	0	0	161	0	555	0	0	555	557	0	502	149	105	0	0	0	0	0	0	0	0	0	0	0	0	0	0	0	0	0	0	0	0	0	0	0	0	0	
Rank 36's ghost cells:	0	0	0	0	0	0	0	0	0	0	0	0	0	0	0	0	0	0	0	0	0	0	0	0	0	0	0	0	0	0	0	0	0	0	0	518	0	708	686	0	0	0	0	0	0	0	0	0	0	0	0	0	0	0	0	0	0	0	0	0	0	0	0	0	
Rank 37's ghost cells:	0	0	0	0	0	0	0	0	0	0	0	0	0	0	0	0	0	0	0	0	0	0	0	0	0	0	0	0	0	0	0	0	0	0	374	140	709	0	134	420	0	0	0	0	0	0	0	0	0	0	0	0	0	0	0	0	0	123	480	0	0	0	0	0	
Rank 38's ghost cells:	0	0	0	0	0	0	0	0	0	0	0	0	0	0	0	0	0	0	0	0	0	0	0	0	0	0	0	0	0	0	0	0	100	450	89	110	677	134	0	677	0	0	0	0	551	0	0	0	0	0	0	0	0	0	0	0	0	0	0	0	0	0	0	0	
Rank 39's ghost cells:	0	0	0	0	0	0	0	0	0	0	0	0	0	0	0	0	0	0	0	0	0	0	0	0	0	0	0	0	0	0	0	0	343	0	114	0	0	420	676	0	0	0	0	0	130	428	0	0	0	0	0	0	0	0	142	0	15	0	144	516	0	0	0	0	
Rank 40's ghost cells:	0	0	0	0	0	0	0	0	0	0	0	0	308	52	0	0	0	140	0	0	357	0	0	0	0	0	0	0	0	0	0	0	362	0	0	0	0	0	0	0	0	419	491	159	0	390	0	92	0	0	0	0	207	47	62	506	97	0	0	0	0	0	0	0	
Rank 41's ghost cells:	0	0	0	0	0	0	0	0	0	0	0	0	0	0	0	0	0	0	0	0	129	0	0	577	0	0	0	0	0	0	0	0	255	528	0	0	0	0	0	0	419	0	0	534	449	246	0	58	0	0	0	0	0	0	0	0	0	0	0	0	0	0	0	0	
Rank 42's ghost cells:	0	0	0	0	0	0	0	0	0	0	0	0	0	195	0	0	0	448	0	163	0	0	0	0	0	0	0	0	0	0	0	0	0	0	0	0	0	0	0	0	496	0	0	454	0	0	0	420	0	0	0	0	464	236	0	0	0	0	0	0	0	0	0	0	
Rank 43's ghost cells:	0	0	0	0	0	0	0	0	0	0	0	0	0	0	0	0	0	36	0	559	0	0	0	264	0	0	0	0	0	0	0	0	0	0	0	0	0	0	0	0	162	537	452	0	0	21	0	621	0	0	0	0	0	0	0	0	0	0	0	0	0	0	0	0	
Rank 44's ghost cells:	0	0	0	0	0	0	0	0	0	0	0	0	0	0	0	0	0	0	0	0	0	0	0	0	0	0	0	0	0	0	0	0	50	172	0	0	0	0	551	122	0	459	0	0	0	694	297	199	0	0	0	0	0	0	0	0	0	0	0	0	0	0	0	0	
Rank 45's ghost cells:	0	0	0	0	0	0	0	0	0	0	0	0	0	0	0	0	0	0	0	0	0	0	0	0	0	0	0	0	0	0	0	0	169	0	0	0	0	0	0	428	391	247	0	21	702	0	350	321	0	0	0	0	0	0	587	62	0	0	0	0	0	0	0	0	
Rank 46's ghost cells:	0	0	0	0	0	0	0	0	0	0	0	0	0	0	0	0	0	0	0	0	0	0	0	0	0	0	0	0	0	0	0	0	0	0	0	0	0	0	0	0	0	0	0	0	306	359	0	837	0	0	0	0	0	303	79	0	0	0	0	0	0	0	0	0	
Rank 47's ghost cells:	0	0	0	0	0	0	0	0	0	0	0	0	0	0	0	0	0	0	0	0	0	0	0	0	0	0	0	0	0	0	0	0	0	0	0	0	0	0	0	0	100	58	423	620	199	321	838	0	0	0	0	0	0	263	23	11	0	0	0	0	0	0	0	0	
Rank 48's ghost cells:	0	0	0	0	0	0	0	0	0	0	0	0	0	0	0	0	0	0	0	0	0	0	0	0	0	0	0	0	0	0	0	0	0	0	0	0	0	0	0	0	0	0	0	0	0	0	0	0	0	536	521	40	0	0	305	348	0	0	0	72	0	72	0	636	
Rank 49's ghost cells:	0	0	185	104	0	0	0	0	0	0	0	0	151	0	456	31	0	0	0	0	0	0	0	0	0	0	0	0	0	0	0	0	0	0	0	0	0	0	0	0	0	0	0	0	0	0	0	0	536	0	72	552	18	0	0	405	0	0	0	0	0	490	0	11	
Rank 50's ghost cells:	0	0	0	0	0	0	0	0	0	0	0	0	0	0	0	0	0	0	0	0	0	0	0	0	0	0	0	0	0	0	0	0	0	0	0	0	0	0	0	0	0	0	0	0	0	0	0	0	521	71	0	719	97	374	85	51	0	0	0	0	0	0	0	0	
Rank 51's ghost cells:	0	0	0	0	0	0	0	0	0	0	0	0	39	84	59	550	0	0	0	0	0	0	0	0	0	0	0	0	0	0	0	0	0	0	0	0	0	0	0	0	0	0	0	0	0	0	0	0	43	558	723	0	543	13	0	102	0	0	0	0	0	0	0	0	
Rank 52's ghost cells:	0	0	0	0	0	0	0	0	0	0	0	0	146	542	0	4	0	0	0	0	0	0	0	0	0	0	0	0	0	0	0	0	0	0	0	0	0	0	0	0	204	0	466	0	0	0	0	0	0	19	91	546	0	504	0	433	0	0	0	0	0	0	0	0	
Rank 53's ghost cells:	0	0	0	0	0	0	0	0	0	0	0	0	0	0	0	0	0	0	0	0	0	0	0	0	0	0	0	0	0	0	0	0	0	0	0	0	0	0	0	0	43	0	238	0	0	0	301	261	0	0	371	13	499	0	506	129	0	0	0	0	0	0	0	0	
Rank 54's ghost cells:	0	0	0	0	0	0	0	0	0	0	0	0	0	0	0	0	0	0	0	0	0	0	0	0	0	0	0	0	0	0	0	0	41	0	0	0	0	0	0	142	62	0	0	0	0	596	79	24	305	0	77	0	0	506	0	695	20	0	0	439	0	0	0	0	
Rank 55's ghost cells:	0	0	0	64	0	0	0	0	0	0	0	0	375	0	0	0	0	0	0	0	0	0	0	0	0	0	0	0	0	0	0	0	0	0	0	0	0	0	0	0	497	0	0	0	0	62	0	11	354	408	48	100	427	129	703	0	364	0	0	108	0	163	0	11	
Rank 56's ghost cells:	0	312	0	442	0	0	0	0	0	0	0	0	23	0	0	0	0	0	0	0	0	0	0	0	0	0	36	0	0	0	0	0	687	0	197	0	0	0	0	19	101	0	0	0	0	0	0	0	0	0	0	0	0	0	20	365	0	461	33	580	18	479	0	10	
Rank 57's ghost cells:	168	465	0	0	0	0	0	0	0	0	0	0	0	0	0	0	0	0	0	0	0	0	0	0	0	0	0	0	0	0	0	0	0	0	445	0	0	132	0	0	0	0	0	0	0	0	0	0	0	0	0	0	0	0	0	0	461	0	630	36	452	34	121	0	
Rank 58's ghost cells:	0	0	0	0	0	0	0	0	0	0	0	0	0	0	0	0	0	0	0	0	0	0	0	0	0	0	0	0	0	0	0	0	0	0	25	0	0	482	0	168	0	0	0	0	0	0	0	0	0	0	0	0	0	0	0	0	33	630	0	585	0	0	445	0	
Rank 59's ghost cells:	0	0	0	0	0	0	0	0	0	0	0	0	0	0	0	0	0	0	0	0	0	0	0	0	0	0	0	0	0	0	0	0	43	0	0	0	0	0	0	516	0	0	0	0	0	0	0	0	68	0	0	0	0	0	433	107	580	42	582	0	0	76	68	457	
Rank 60's ghost cells:	629	2	125	46	0	0	0	0	0	0	0	0	0	0	0	0	0	0	0	0	0	0	0	0	0	0	0	0	0	0	0	0	0	0	0	0	0	0	0	0	0	0	0	0	0	0	0	0	0	0	0	0	0	0	0	0	26	443	0	0	0	623	660	123	
Rank 61's ghost cells:	0	0	402	321	0	0	0	0	0	0	0	0	0	0	0	0	0	0	0	0	0	0	0	0	0	0	0	0	0	0	0	0	0	0	0	0	0	0	0	0	0	0	0	0	0	0	0	0	74	490	0	0	0	0	0	160	471	35	0	85	605	0	54	686	
Rank 62's ghost cells:	0	0	0	0	0	0	0	0	0	0	0	0	0	0	0	0	0	0	0	0	0	0	0	0	0	0	0	0	0	0	0	0	0	0	0	0	0	0	0	0	0	0	0	0	0	0	0	0	0	0	0	0	0	0	0	0	0	144	442	79	666	46	0	539	
Rank 63's ghost cells:	0	0	0	0	0	0	0	0	0	0	0	0	0	0	0	0	0	0	0	0	0	0	0	0	0	0	0	0	0	0	0	0	0	0	0	0	0	0	0	0	0	0	0	0	0	0	0	0	645	11	0	0	0	0	0	11	10	0	0	459	128	687	539	0	
=== CGSolver
 Iter          Defect            Rate
    0            249.8
    1          56.7187         0.227057
    2           33.277         0.586702
    3          23.8197         0.715801
    4          20.9866         0.881061
    5          18.1383         0.864278
    6          14.2837         0.787487
    7          12.6922          0.88858
    8          12.1098         0.954115
    9          10.0611         0.830824
   10          9.02027         0.896547
   11          8.98156         0.995709
   12          7.91233         0.880953
   13          6.96216         0.879912
   14          7.03869          1.01099
   15          6.53938         0.929063
   16          5.82926         0.891408
   17          5.80598         0.996006
   18           5.5302         0.952502
   19          4.98955         0.902236
   20           4.9549         0.993057
   21          4.62733         0.933889
   22           4.2764         0.924162
   23          4.26897         0.998261
   24          3.96016         0.927663
   25          3.72733         0.941207
   26            3.705         0.994008
   27          3.43638         0.927499
   28          3.18779          0.92766
   29          3.16162          0.99179
   30          2.93757         0.929133
   31          2.82763         0.962576
   32          2.86314          1.01256
   33          2.85988         0.998862
   34          2.97087          1.03881
   35          3.19445          1.07526
   36          3.08026         0.964256
   37          2.71529         0.881512
   38          2.17945         0.802658
   39          1.60773         0.737676
   40          1.27162         0.790944
   41          1.11691         0.878332
   42          1.02271         0.915664
   43         0.942832         0.921893
   44         0.825687         0.875753
   45         0.680854          0.82459
   46         0.587468         0.862841
   47         0.514091         0.875096
   48         0.420629         0.818199
   49           0.3414         0.811642
   50         0.283226         0.829601
   51         0.238015         0.840372
   52         0.205758         0.864476
   53         0.177201         0.861209
   54         0.147802         0.834092
   55         0.126935         0.858819
   56          0.10711         0.843816
   57        0.0879484         0.821105
   58        0.0740151         0.841575
   59        0.0601476         0.812639
   60        0.0480032         0.798091
   61        0.0385303          0.80266
   62        0.0303309         0.787197
   63        0.0234325         0.772561
=== rate=0.863112, T=3.0888, TIT=0.0490285, IT=63

 Elapsed time: 3.0888
Rank 0: Matrix-vector product took 0.014978 seconds
Rank 1: Matrix-vector product took 0.0154354 seconds
Rank 2: Matrix-vector product took 0.014897 seconds
Rank 3: Matrix-vector product took 0.0157127 seconds
Rank 4: Matrix-vector product took 0.0149382 seconds
Rank 5: Matrix-vector product took 0.0142713 seconds
Rank 6: Matrix-vector product took 0.014917 seconds
Rank 7: Matrix-vector product took 0.0155841 seconds
Rank 8: Matrix-vector product took 0.0141897 seconds
Rank 9: Matrix-vector product took 0.0149045 seconds
Rank 10: Matrix-vector product took 0.0148058 seconds
Rank 11: Matrix-vector product took 0.0153682 seconds
Rank 12: Matrix-vector product took 0.0157185 seconds
Rank 13: Matrix-vector product took 0.0152565 seconds
Rank 14: Matrix-vector product took 0.0151392 seconds
Rank 15: Matrix-vector product took 0.0144841 seconds
Rank 16: Matrix-vector product took 0.0149653 seconds
Rank 17: Matrix-vector product took 0.0154142 seconds
Rank 18: Matrix-vector product took 0.014214 seconds
Rank 19: Matrix-vector product took 0.0146521 seconds
Rank 20: Matrix-vector product took 0.0157351 seconds
Rank 21: Matrix-vector product took 0.0150442 seconds
Rank 22: Matrix-vector product took 0.0146774 seconds
Rank 23: Matrix-vector product took 0.0151305 seconds
Rank 24: Matrix-vector product took 0.0150552 seconds
Rank 25: Matrix-vector product took 0.0146732 seconds
Rank 26: Matrix-vector product took 0.0157107 seconds
Rank 27: Matrix-vector product took 0.0152061 seconds
Rank 28: Matrix-vector product took 0.0152202 seconds
Rank 29: Matrix-vector product took 0.0146691 seconds
Rank 30: Matrix-vector product took 0.0145491 seconds
Rank 31: Matrix-vector product took 0.0141047 seconds
Rank 32: Matrix-vector product took 0.0155565 seconds
Rank 33: Matrix-vector product took 0.0153259 seconds
Rank 34: Matrix-vector product took 0.0152015 seconds
Rank 35: Matrix-vector product took 0.0146477 seconds
Rank 36: Matrix-vector product took 0.0140303 seconds
Rank 37: Matrix-vector product took 0.0146297 seconds
Rank 38: Matrix-vector product took 0.0149401 seconds
Rank 39: Matrix-vector product took 0.0148839 seconds
Rank 40: Matrix-vector product took 0.0157013 seconds
Rank 41: Matrix-vector product took 0.0151425 seconds
Rank 42: Matrix-vector product took 0.0150237 seconds
Rank 43: Matrix-vector product took 0.0149065 seconds
Rank 44: Matrix-vector product took 0.0148355 seconds
Rank 45: Matrix-vector product took 0.0154096 seconds
Rank 46: Matrix-vector product took 0.0141166 seconds
Rank 47: Matrix-vector product took 0.0151818 seconds
Rank 48: Matrix-vector product took 0.0145984 seconds
Rank 49: Matrix-vector product took 0.0151092 seconds
Rank 50: Matrix-vector product took 0.0139443 seconds
Rank 51: Matrix-vector product took 0.0149105 seconds
Rank 52: Matrix-vector product took 0.0148843 seconds
Rank 53: Matrix-vector product took 0.0145438 seconds
Rank 54: Matrix-vector product took 0.0150758 seconds
Rank 55: Matrix-vector product took 0.0158118 seconds
Rank 56: Matrix-vector product took 0.0157343 seconds
Rank 57: Matrix-vector product took 0.0151179 seconds
Rank 58: Matrix-vector product took 0.0146596 seconds
Rank 59: Matrix-vector product took 0.0153692 seconds
Rank 60: Matrix-vector product took 0.0149475 seconds
Rank 61: Matrix-vector product took 0.015291 seconds
Rank 62: Matrix-vector product took 0.0141637 seconds
Rank 63: Matrix-vector product took 0.0146415 seconds
Average time for Matrix-vector product is 0.0149681 seconds

Rank 0: copyOwnerToAll took 0.00056948 seconds
Rank 1: copyOwnerToAll took 0.00060981 seconds
Rank 2: copyOwnerToAll took 0.00031663 seconds
Rank 3: copyOwnerToAll took 0.00061863 seconds
Rank 4: copyOwnerToAll took 0.00039255 seconds
Rank 5: copyOwnerToAll took 0.00040694 seconds
Rank 6: copyOwnerToAll took 0.0002999 seconds
Rank 7: copyOwnerToAll took 0.0005907 seconds
Rank 8: copyOwnerToAll took 0.00022086 seconds
Rank 9: copyOwnerToAll took 0.00022687 seconds
Rank 10: copyOwnerToAll took 0.00034226 seconds
Rank 11: copyOwnerToAll took 0.00059993 seconds
Rank 12: copyOwnerToAll took 0.00062765 seconds
Rank 13: copyOwnerToAll took 0.00049704 seconds
Rank 14: copyOwnerToAll took 0.00037298 seconds
Rank 15: copyOwnerToAll took 0.00038321 seconds
Rank 16: copyOwnerToAll took 0.00032366 seconds
Rank 17: copyOwnerToAll took 0.00051696 seconds
Rank 18: copyOwnerToAll took 0.0003219 seconds
Rank 19: copyOwnerToAll took 0.00052509 seconds
Rank 20: copyOwnerToAll took 0.0006384 seconds
Rank 21: copyOwnerToAll took 0.00051233 seconds
Rank 22: copyOwnerToAll took 0.00050469 seconds
Rank 23: copyOwnerToAll took 0.00047418 seconds
Rank 24: copyOwnerToAll took 0.000704391 seconds
Rank 25: copyOwnerToAll took 0.00053167 seconds
Rank 26: copyOwnerToAll took 0.000532411 seconds
Rank 27: copyOwnerToAll took 0.00035696 seconds
Rank 28: copyOwnerToAll took 0.000565631 seconds
Rank 29: copyOwnerToAll took 0.000569221 seconds
Rank 30: copyOwnerToAll took 0.00025605 seconds
Rank 31: copyOwnerToAll took 0.000578551 seconds
Rank 32: copyOwnerToAll took 0.000785521 seconds
Rank 33: copyOwnerToAll took 0.00049517 seconds
Rank 34: copyOwnerToAll took 0.000535621 seconds
Rank 35: copyOwnerToAll took 0.00026748 seconds
Rank 36: copyOwnerToAll took 0.00021812 seconds
Rank 37: copyOwnerToAll took 0.00031852 seconds
Rank 38: copyOwnerToAll took 0.000538151 seconds
Rank 39: copyOwnerToAll took 0.000638571 seconds
Rank 40: copyOwnerToAll took 0.000639461 seconds
Rank 41: copyOwnerToAll took 0.000646611 seconds
Rank 42: copyOwnerToAll took 0.00062381 seconds
Rank 43: copyOwnerToAll took 0.00048458 seconds
Rank 44: copyOwnerToAll took 0.00066947 seconds
Rank 45: copyOwnerToAll took 0.00071047 seconds
Rank 46: copyOwnerToAll took 0.0005116 seconds
Rank 47: copyOwnerToAll took 0.00051342 seconds
Rank 48: copyOwnerToAll took 0.0002664 seconds
Rank 49: copyOwnerToAll took 0.00046751 seconds
Rank 50: copyOwnerToAll took 0.00026409 seconds
Rank 51: copyOwnerToAll took 0.00043943 seconds
Rank 52: copyOwnerToAll took 0.00042723 seconds
Rank 53: copyOwnerToAll took 0.00045992 seconds
Rank 54: copyOwnerToAll took 0.00068319 seconds
Rank 55: copyOwnerToAll took 0.00058858 seconds
Rank 56: copyOwnerToAll took 0.0006973 seconds
Rank 57: copyOwnerToAll took 0.00054458 seconds
Rank 58: copyOwnerToAll took 0.00040288 seconds
Rank 59: copyOwnerToAll took 0.00069449 seconds
Rank 60: copyOwnerToAll took 0.00054628 seconds
Rank 61: copyOwnerToAll took 0.00044468 seconds
Rank 62: copyOwnerToAll took 0.00030476 seconds
Rank 63: copyOwnerToAll took 0.00052556 seconds
Average time for copyOwnertoAll is 0.000489703 seconds
