Number of nodes is: 8
Number of cores/ranks per node is: 4
METIS partitioner
Cell on rank 0 before loadbalancing: 11079
Cell on rank 1 before loadbalancing: 11082
Cell on rank 2 before loadbalancing: 11095
Cell on rank 3 before loadbalancing: 11040
Cell on rank 4 before loadbalancing: 11162
Cell on rank 5 before loadbalancing: 11160
Cell on rank 6 before loadbalancing: 11082
Cell on rank 7 before loadbalancing: 11033
Cell on rank 8 before loadbalancing: 11090
Cell on rank 9 before loadbalancing: 11146
Cell on rank 10 before loadbalancing: 11104
Cell on rank 11 before loadbalancing: 11138
Cell on rank 12 before loadbalancing: 11139
Cell on rank 13 before loadbalancing: 11124
Cell on rank 14 before loadbalancing: 11125
Cell on rank 15 before loadbalancing: 11124
Cell on rank 16 before loadbalancing: 11122
Cell on rank 17 before loadbalancing: 11109
Cell on rank 18 before loadbalancing: 11120
Cell on rank 19 before loadbalancing: 11121
Cell on rank 20 before loadbalancing: 11098
Cell on rank 21 before loadbalancing: 11092
Cell on rank 22 before loadbalancing: 11038
Cell on rank 23 before loadbalancing: 11085
Cell on rank 24 before loadbalancing: 11100
Cell on rank 25 before loadbalancing: 11097
Cell on rank 26 before loadbalancing: 11119
Cell on rank 27 before loadbalancing: 11113
Cell on rank 28 before loadbalancing: 11117
Cell on rank 29 before loadbalancing: 11118
Cell on rank 30 before loadbalancing: 11119
Cell on rank 31 before loadbalancing: 11116
Edge-cut: 35585


			Rank 0	Rank 1	Rank 2	Rank 3	Rank 4	Rank 5	Rank 6	Rank 7	Rank 8	Rank 9	Rank 10	Rank 11	Rank 12	Rank 13	Rank 14	Rank 15	Rank 16	Rank 17	Rank 18	Rank 19	Rank 20	Rank 21	Rank 22	Rank 23	Rank 24	Rank 25	Rank 26	Rank 27	Rank 28	Rank 29	Rank 30	Rank 31	
From rank 0 to: 	0	574	316	60	0	0	19	135	50	0	62	0	0	0	0	0	0	0	0	0	0	397	0	13	0	0	0	0	0	0	0	0	
From rank 1 to: 	557	0	130	295	0	0	672	1	0	0	96	0	0	0	0	0	0	0	0	0	0	0	0	0	0	0	0	0	0	0	0	0	
From rank 2 to: 	320	131	0	637	0	0	0	0	16	0	0	0	0	0	0	0	0	0	0	0	0	240	500	14	0	0	0	0	0	0	0	0	
From rank 3 to: 	61	291	641	0	0	0	0	0	2	0	55	0	0	0	0	0	0	0	0	0	0	0	0	0	0	0	0	0	0	0	0	0	
From rank 4 to: 	0	0	0	0	0	588	0	721	0	0	0	0	0	0	0	0	0	0	0	0	0	0	0	0	0	0	0	0	0	0	0	0	
From rank 5 to: 	0	0	0	0	593	0	0	0	0	0	0	0	0	0	0	0	0	0	0	0	0	0	0	0	0	0	0	0	0	0	0	0	
From rank 6 to: 	19	661	0	0	0	0	0	692	0	0	0	0	0	0	0	0	0	0	0	0	0	0	0	0	0	0	0	0	0	0	0	0	
From rank 7 to: 	135	3	0	0	722	0	684	0	0	0	0	0	0	0	0	0	0	0	0	0	0	0	0	0	0	0	0	0	0	0	0	0	
From rank 8 to: 	44	0	16	2	0	0	0	0	0	342	638	0	0	0	0	0	0	0	0	0	72	42	22	848	0	0	0	0	0	0	0	0	
From rank 9 to: 	0	0	0	0	0	0	0	0	336	0	190	304	248	0	0	0	0	0	0	0	167	69	0	37	0	0	0	0	0	0	0	0	
From rank 10 to: 	59	96	0	40	0	0	0	0	637	189	0	755	0	0	0	0	0	0	0	0	0	0	0	0	0	0	0	0	0	0	0	0	
From rank 11 to: 	0	0	0	0	0	0	0	0	0	313	736	0	432	0	0	665	0	0	0	0	0	0	0	0	0	0	0	0	0	0	0	0	
From rank 12 to: 	0	0	0	0	0	0	0	0	0	248	0	435	0	164	267	171	0	0	0	0	0	0	0	0	0	0	0	0	0	0	0	0	
From rank 13 to: 	0	0	0	0	0	0	0	0	0	0	0	0	164	0	493	0	0	0	0	0	0	0	0	0	0	0	0	0	0	0	0	0	
From rank 14 to: 	0	0	0	0	0	0	0	0	0	0	0	0	286	493	0	611	0	0	0	0	0	0	0	0	0	0	0	0	0	0	0	0	
From rank 15 to: 	0	0	0	0	0	0	0	0	0	0	0	665	178	0	619	0	0	0	0	0	0	0	0	0	0	0	0	0	0	0	0	0	
From rank 16 to: 	0	0	0	0	0	0	0	0	0	0	0	0	0	0	0	0	0	815	459	156	14	0	0	0	253	33	696	18	0	0	0	0	
From rank 17 to: 	0	0	0	0	0	0	0	0	0	0	0	0	0	0	0	0	814	0	142	565	517	449	0	119	0	119	0	0	0	0	0	0	
From rank 18 to: 	0	0	0	0	0	0	0	0	0	0	0	0	0	0	0	0	446	146	0	847	0	0	0	0	0	0	85	778	0	0	0	0	
From rank 19 to: 	0	0	0	0	0	0	0	0	0	0	0	0	0	0	0	0	163	565	844	0	0	71	664	200	0	0	0	0	0	0	0	0	
From rank 20 to: 	0	0	0	0	0	0	0	0	72	172	0	0	0	0	0	0	14	553	0	0	0	442	0	47	0	186	0	0	0	0	0	0	
From rank 21 to: 	399	0	234	0	0	0	0	0	41	69	0	0	0	0	0	0	0	449	0	71	435	0	403	570	0	0	0	0	0	0	0	0	
From rank 22 to: 	0	0	505	0	0	0	0	0	22	0	0	0	0	0	0	0	0	0	0	679	0	410	0	605	0	0	0	0	0	0	0	0	
From rank 23 to: 	10	0	14	0	0	0	0	0	859	40	0	0	0	0	0	0	0	120	0	201	40	567	582	0	0	0	0	0	0	0	0	0	
From rank 24 to: 	0	0	0	0	0	0	0	0	0	0	0	0	0	0	0	0	253	0	0	0	0	0	0	0	0	600	647	0	0	0	0	539	
From rank 25 to: 	0	0	0	0	0	0	0	0	0	0	0	0	0	0	0	0	36	113	0	0	186	0	0	0	605	0	2	0	0	0	36	1	
From rank 26 to: 	0	0	0	0	0	0	0	0	0	0	0	0	0	0	0	0	713	0	89	0	0	0	0	0	627	2	0	694	103	0	0	490	
From rank 27 to: 	0	0	0	0	0	0	0	0	0	0	0	0	0	0	0	0	18	0	778	0	0	0	0	0	0	0	693	0	711	0	0	84	
From rank 28 to: 	0	0	0	0	0	0	0	0	0	0	0	0	0	0	0	0	0	0	0	0	0	0	0	0	0	0	101	721	0	748	2	582	
From rank 29 to: 	0	0	0	0	0	0	0	0	0	0	0	0	0	0	0	0	0	0	0	0	0	0	0	0	0	0	0	0	748	0	596	113	
From rank 30 to: 	0	0	0	0	0	0	0	0	0	0	0	0	0	0	0	0	0	0	0	0	0	0	0	0	0	32	0	0	2	594	0	899	
From rank 31 to: 	0	0	0	0	0	0	0	0	0	0	0	0	0	0	0	0	0	0	0	0	0	0	0	0	509	2	489	87	587	120	901	0	

Edge-cut for node partition: 11057


After loadbalancing process 0 has 13139 cells.
After loadbalancing process 1 has 12076 cells.
After loadbalancing process 2 has 13837 cells.
After loadbalancing process 3 has 13397 cells.
After loadbalancing process 4 has 13271 cells.
After loadbalancing process 5 has 12575 cells.
After loadbalancing process 6 has 12646 cells.
After loadbalancing process 7 has 13811 cells.
After loadbalancing process 8 has 13566 cells.
After loadbalancing process 9 has 13834 cells.
After loadbalancing process 10 has 13422 cells.
After loadbalancing process 11 has 13628 cells.
After loadbalancing process 12 has 12584 cells.
After loadbalancing process 13 has 13763 cells.
After loadbalancing process 14 has 13259 cells.
After loadbalancing process 15 has 13518 cells.
After loadbalancing process 16 has 12471 cells.
After loadbalancing process 17 has 11753 cells.
After loadbalancing process 18 has 12454 cells.
After loadbalancing process 19 has 12577 cells.
After loadbalancing process 20 has 12705 cells.
After loadbalancing process 21 has 12833 cells.
After loadbalancing process 22 has 12953 cells.
After loadbalancing process 23 has 12090 cells.
After loadbalancing process 24 has 12424 cells.
After loadbalancing process 25 has 11781 cells.
After loadbalancing process 26 has 12515 cells.
After loadbalancing process 27 has 12586 cells.
After loadbalancing process 28 has 13116 cells.
After loadbalancing process 29 has 12497 cells.
After loadbalancing process 30 has 12880 cells.
After loadbalancing process 31 has 13284 cells.


=== rate=0, T=0, TIT=0, IT=0

 Elapsed time: 0
Rank 0: Matrix-vector product took 0.00760724 seconds
Rank 1: Matrix-vector product took 0.00686184 seconds
Rank 2: Matrix-vector product took 0.00812627 seconds
Rank 3: Matrix-vector product took 0.00788292 seconds
Rank 4: Matrix-vector product took 0.00783992 seconds
Rank 5: Matrix-vector product took 0.00730462 seconds
Rank 6: Matrix-vector product took 0.00736473 seconds
Rank 7: Matrix-vector product took 0.00812074 seconds
Rank 8: Matrix-vector product took 0.00797776 seconds
Rank 9: Matrix-vector product took 0.00814335 seconds
Rank 10: Matrix-vector product took 0.00787506 seconds
Rank 11: Matrix-vector product took 0.00809473 seconds
Rank 12: Matrix-vector product took 0.00730376 seconds
Rank 13: Matrix-vector product took 0.0081918 seconds
Rank 14: Matrix-vector product took 0.00787359 seconds
Rank 15: Matrix-vector product took 0.00805207 seconds
Rank 16: Matrix-vector product took 0.00721252 seconds
Rank 17: Matrix-vector product took 0.0067954 seconds
Rank 18: Matrix-vector product took 0.0074332 seconds
Rank 19: Matrix-vector product took 0.00727939 seconds
Rank 20: Matrix-vector product took 0.00736682 seconds
Rank 21: Matrix-vector product took 0.00775726 seconds
Rank 22: Matrix-vector product took 0.00766159 seconds
Rank 23: Matrix-vector product took 0.00710967 seconds
Rank 24: Matrix-vector product took 0.00718153 seconds
Rank 25: Matrix-vector product took 0.00666177 seconds
Rank 26: Matrix-vector product took 0.00740423 seconds
Rank 27: Matrix-vector product took 0.00730418 seconds
Rank 28: Matrix-vector product took 0.00781547 seconds
Rank 29: Matrix-vector product took 0.00725647 seconds
Rank 30: Matrix-vector product took 0.00762991 seconds
Rank 31: Matrix-vector product took 0.00776182 seconds
Average time for Matrix-vector product is 0.00757036 seconds

Rank 0: copyOwnerToAll took 0.000508112 seconds
Rank 1: copyOwnerToAll took 0.000508112 seconds
Rank 2: copyOwnerToAll took 0.000508112 seconds
Rank 3: copyOwnerToAll took 0.000508112 seconds
Rank 4: copyOwnerToAll took 0.000508112 seconds
Rank 5: copyOwnerToAll took 0.000508112 seconds
Rank 6: copyOwnerToAll took 0.000508112 seconds
Rank 7: copyOwnerToAll took 0.000508112 seconds
Rank 8: copyOwnerToAll took 0.000508112 seconds
Rank 9: copyOwnerToAll took 0.000508112 seconds
Rank 10: copyOwnerToAll took 0.000508112 seconds
Rank 11: copyOwnerToAll took 0.000508112 seconds
Rank 12: copyOwnerToAll took 0.000508112 seconds
Rank 13: copyOwnerToAll took 0.000508112 seconds
Rank 14: copyOwnerToAll took 0.000508112 seconds
Rank 15: copyOwnerToAll took 0.000508112 seconds
Rank 16: copyOwnerToAll took 0.000508112 seconds
Rank 17: copyOwnerToAll took 0.000508112 seconds
Rank 18: copyOwnerToAll took 0.000508112 seconds
Rank 19: copyOwnerToAll took 0.000508112 seconds
Rank 20: copyOwnerToAll took 0.000508112 seconds
Rank 21: copyOwnerToAll took 0.000508112 seconds
Rank 22: copyOwnerToAll took 0.000508112 seconds
Rank 23: copyOwnerToAll took 0.000508112 seconds
Rank 24: copyOwnerToAll took 0.000508112 seconds
Rank 25: copyOwnerToAll took 0.000508112 seconds
Rank 26: copyOwnerToAll took 0.000508112 seconds
Rank 27: copyOwnerToAll took 0.000508112 seconds
Rank 28: copyOwnerToAll took 0.000508112 seconds
Rank 29: copyOwnerToAll took 0.000508112 seconds
Rank 30: copyOwnerToAll took 0.000508112 seconds
Rank 31: copyOwnerToAll took 0.000508112 seconds
Average time for copyOwnertoAll is 0.000591579 seconds



			Rank 0	Rank 1	Rank 2	Rank 3	Rank 4	Rank 5	Rank 6	Rank 7	Rank 8	Rank 9	Rank 10	Rank 11	Rank 12	Rank 13	Rank 14	Rank 15	Rank 16	Rank 17	Rank 18	Rank 19	Rank 20	Rank 21	Rank 22	Rank 23	Rank 24	Rank 25	Rank 26	Rank 27	Rank 28	Rank 29	Rank 30	Rank 31	
Rank 0's ghost cells:	0	600	647	0	0	0	0	539	253	0	0	0	0	0	0	0	0	0	0	0	0	0	0	0	0	0	0	0	0	0	0	0	
Rank 1's ghost cells:	605	0	2	0	0	0	36	1	36	113	0	0	186	0	0	0	0	0	0	0	0	0	0	0	0	0	0	0	0	0	0	0	
Rank 2's ghost cells:	627	2	0	694	103	0	0	490	713	0	89	0	0	0	0	0	0	0	0	0	0	0	0	0	0	0	0	0	0	0	0	0	
Rank 3's ghost cells:	0	0	693	0	711	0	0	84	18	0	778	0	0	0	0	0	0	0	0	0	0	0	0	0	0	0	0	0	0	0	0	0	
Rank 4's ghost cells:	0	0	101	721	0	748	2	582	0	0	0	0	0	0	0	0	0	0	0	0	0	0	0	0	0	0	0	0	0	0	0	0	
Rank 5's ghost cells:	0	0	0	0	748	0	596	113	0	0	0	0	0	0	0	0	0	0	0	0	0	0	0	0	0	0	0	0	0	0	0	0	
Rank 6's ghost cells:	0	32	0	0	2	594	0	899	0	0	0	0	0	0	0	0	0	0	0	0	0	0	0	0	0	0	0	0	0	0	0	0	
Rank 7's ghost cells:	509	2	489	87	587	120	901	0	0	0	0	0	0	0	0	0	0	0	0	0	0	0	0	0	0	0	0	0	0	0	0	0	
Rank 8's ghost cells:	253	33	696	18	0	0	0	0	0	815	459	156	14	0	0	0	0	0	0	0	0	0	0	0	0	0	0	0	0	0	0	0	
Rank 9's ghost cells:	0	119	0	0	0	0	0	0	814	0	142	565	517	449	0	119	0	0	0	0	0	0	0	0	0	0	0	0	0	0	0	0	
Rank 10's ghost cells:	0	0	85	778	0	0	0	0	446	146	0	847	0	0	0	0	0	0	0	0	0	0	0	0	0	0	0	0	0	0	0	0	
Rank 11's ghost cells:	0	0	0	0	0	0	0	0	163	565	844	0	0	71	664	200	0	0	0	0	0	0	0	0	0	0	0	0	0	0	0	0	
Rank 12's ghost cells:	0	186	0	0	0	0	0	0	14	553	0	0	0	442	0	47	0	0	0	0	0	0	0	0	0	0	0	0	72	172	0	0	
Rank 13's ghost cells:	0	0	0	0	0	0	0	0	0	449	0	71	435	0	403	570	0	0	0	0	399	0	234	0	0	0	0	0	41	69	0	0	
Rank 14's ghost cells:	0	0	0	0	0	0	0	0	0	0	0	679	0	410	0	605	0	0	0	0	0	0	505	0	0	0	0	0	22	0	0	0	
Rank 15's ghost cells:	0	0	0	0	0	0	0	0	0	120	0	201	40	567	582	0	0	0	0	0	10	0	14	0	0	0	0	0	859	40	0	0	
Rank 16's ghost cells:	0	0	0	0	0	0	0	0	0	0	0	0	0	0	0	0	0	588	0	721	0	0	0	0	0	0	0	0	0	0	0	0	
Rank 17's ghost cells:	0	0	0	0	0	0	0	0	0	0	0	0	0	0	0	0	593	0	0	0	0	0	0	0	0	0	0	0	0	0	0	0	
Rank 18's ghost cells:	0	0	0	0	0	0	0	0	0	0	0	0	0	0	0	0	0	0	0	692	19	661	0	0	0	0	0	0	0	0	0	0	
Rank 19's ghost cells:	0	0	0	0	0	0	0	0	0	0	0	0	0	0	0	0	722	0	684	0	135	3	0	0	0	0	0	0	0	0	0	0	
Rank 20's ghost cells:	0	0	0	0	0	0	0	0	0	0	0	0	0	397	0	13	0	0	19	135	0	574	316	60	0	0	0	0	50	0	62	0	
Rank 21's ghost cells:	0	0	0	0	0	0	0	0	0	0	0	0	0	0	0	0	0	0	672	1	557	0	130	295	0	0	0	0	0	0	96	0	
Rank 22's ghost cells:	0	0	0	0	0	0	0	0	0	0	0	0	0	240	500	14	0	0	0	0	320	131	0	637	0	0	0	0	16	0	0	0	
Rank 23's ghost cells:	0	0	0	0	0	0	0	0	0	0	0	0	0	0	0	0	0	0	0	0	61	291	641	0	0	0	0	0	2	0	55	0	
Rank 24's ghost cells:	0	0	0	0	0	0	0	0	0	0	0	0	0	0	0	0	0	0	0	0	0	0	0	0	0	164	267	171	0	248	0	435	
Rank 25's ghost cells:	0	0	0	0	0	0	0	0	0	0	0	0	0	0	0	0	0	0	0	0	0	0	0	0	164	0	493	0	0	0	0	0	
Rank 26's ghost cells:	0	0	0	0	0	0	0	0	0	0	0	0	0	0	0	0	0	0	0	0	0	0	0	0	286	493	0	611	0	0	0	0	
Rank 27's ghost cells:	0	0	0	0	0	0	0	0	0	0	0	0	0	0	0	0	0	0	0	0	0	0	0	0	178	0	619	0	0	0	0	665	
Rank 28's ghost cells:	0	0	0	0	0	0	0	0	0	0	0	0	72	42	22	848	0	0	0	0	44	0	16	2	0	0	0	0	0	342	638	0	
Rank 29's ghost cells:	0	0	0	0	0	0	0	0	0	0	0	0	167	69	0	37	0	0	0	0	0	0	0	0	248	0	0	0	336	0	190	304	
Rank 30's ghost cells:	0	0	0	0	0	0	0	0	0	0	0	0	0	0	0	0	0	0	0	0	59	96	0	40	0	0	0	0	637	189	0	755	
Rank 31's ghost cells:	0	0	0	0	0	0	0	0	0	0	0	0	0	0	0	0	0	0	0	0	0	0	0	0	432	0	0	665	0	313	736	0	
