Number of cores/ranks per node is: 16
METIS partitioner
Cell on rank 0 before loadbalancing: 2062
Cell on rank 1 before loadbalancing: 2089
Cell on rank 2 before loadbalancing: 2090
Cell on rank 3 before loadbalancing: 2089
Cell on rank 4 before loadbalancing: 2080
Cell on rank 5 before loadbalancing: 2100
Cell on rank 6 before loadbalancing: 2070
Cell on rank 7 before loadbalancing: 2075
Cell on rank 8 before loadbalancing: 2078
Cell on rank 9 before loadbalancing: 2100
Cell on rank 10 before loadbalancing: 2090
Cell on rank 11 before loadbalancing: 2080
Cell on rank 12 before loadbalancing: 2064
Cell on rank 13 before loadbalancing: 2080
Cell on rank 14 before loadbalancing: 2071
Cell on rank 15 before loadbalancing: 2074
Cell on rank 16 before loadbalancing: 2092
Cell on rank 17 before loadbalancing: 2104
Cell on rank 18 before loadbalancing: 2062
Cell on rank 19 before loadbalancing: 2090
Cell on rank 20 before loadbalancing: 2100
Cell on rank 21 before loadbalancing: 2080
Cell on rank 22 before loadbalancing: 2098
Cell on rank 23 before loadbalancing: 2070
Cell on rank 24 before loadbalancing: 2090
Cell on rank 25 before loadbalancing: 2080
Cell on rank 26 before loadbalancing: 2070
Cell on rank 27 before loadbalancing: 2104
Cell on rank 28 before loadbalancing: 2104
Cell on rank 29 before loadbalancing: 2092
Cell on rank 30 before loadbalancing: 2104
Cell on rank 31 before loadbalancing: 2076
Cell on rank 32 before loadbalancing: 2090
Cell on rank 33 before loadbalancing: 2104
Cell on rank 34 before loadbalancing: 2084
Cell on rank 35 before loadbalancing: 2062
Cell on rank 36 before loadbalancing: 2062
Cell on rank 37 before loadbalancing: 2078
Cell on rank 38 before loadbalancing: 2080
Cell on rank 39 before loadbalancing: 2092
Cell on rank 40 before loadbalancing: 2070
Cell on rank 41 before loadbalancing: 2070
Cell on rank 42 before loadbalancing: 2090
Cell on rank 43 before loadbalancing: 2080
Cell on rank 44 before loadbalancing: 2080
Cell on rank 45 before loadbalancing: 2090
Cell on rank 46 before loadbalancing: 2080
Cell on rank 47 before loadbalancing: 2080
Edge-cut: 14825


			Rank 0	Rank 1	Rank 2	Rank 3	Rank 4	Rank 5	Rank 6	Rank 7	Rank 8	Rank 9	Rank 10	Rank 11	Rank 12	Rank 13	Rank 14	Rank 15	Rank 16	Rank 17	Rank 18	Rank 19	Rank 20	Rank 21	Rank 22	Rank 23	Rank 24	Rank 25	Rank 26	Rank 27	Rank 28	Rank 29	Rank 30	Rank 31	Rank 32	Rank 33	Rank 34	Rank 35	Rank 36	Rank 37	Rank 38	Rank 39	Rank 40	Rank 41	Rank 42	Rank 43	Rank 44	Rank 45	Rank 46	Rank 47	
From rank 0 to: 	0	127	107	100	0	0	0	0	0	0	0	0	0	0	70	0	0	0	0	0	0	0	0	0	0	0	0	0	0	0	0	0	0	0	0	0	0	0	0	0	0	0	0	0	0	0	0	0	
From rank 1 to: 	127	0	153	43	120	50	0	30	0	70	0	0	0	0	0	0	0	0	0	0	0	0	0	0	0	0	0	0	0	0	0	0	0	0	0	0	0	0	0	0	0	0	0	0	0	0	0	0	
From rank 2 to: 	117	153	0	0	0	0	0	120	0	0	0	0	160	0	40	0	0	0	0	0	0	0	0	0	0	0	0	0	0	0	0	0	0	0	0	0	0	0	0	0	0	0	0	0	0	0	0	0	
From rank 3 to: 	100	33	0	0	150	0	0	0	0	0	0	0	0	0	0	0	0	0	0	0	0	0	0	0	0	0	0	0	0	0	0	0	0	0	0	0	0	0	0	0	0	0	0	0	0	0	0	0	
From rank 4 to: 	0	130	0	150	0	180	0	0	0	0	0	0	0	0	0	0	0	0	0	0	0	0	0	0	0	0	0	0	0	0	0	0	0	0	0	0	0	0	0	0	0	0	0	0	0	0	0	0	
From rank 5 to: 	0	50	0	0	180	0	0	0	0	150	70	0	0	0	0	0	0	0	0	0	0	0	0	0	0	0	0	0	0	0	0	0	0	0	0	0	0	0	0	0	0	0	0	0	0	0	0	0	
From rank 6 to: 	0	0	0	0	0	0	0	120	130	110	0	90	0	0	0	0	0	0	0	0	0	0	0	0	0	0	0	40	0	0	0	0	0	0	70	0	0	0	0	0	0	0	0	0	0	0	0	0	
From rank 7 to: 	0	30	120	0	0	0	110	0	110	70	0	0	60	0	0	0	0	90	0	0	0	0	0	0	0	0	0	0	0	0	0	0	0	0	0	0	0	0	0	0	0	0	0	0	0	0	0	0	
From rank 8 to: 	0	0	0	0	0	0	130	110	0	0	0	0	0	0	0	0	0	70	0	0	0	0	0	0	0	0	0	104	0	116	0	0	0	0	0	0	0	0	0	0	0	0	0	0	0	0	0	0	
From rank 9 to: 	0	70	0	0	0	150	100	70	0	0	110	100	0	0	0	0	0	0	0	0	0	0	0	0	0	0	0	0	0	0	0	0	0	0	0	0	0	0	0	0	0	0	0	0	0	0	0	0	
From rank 10 to: 	0	0	0	0	0	70	0	0	0	100	0	140	0	0	0	0	0	0	0	0	0	0	0	0	0	0	0	0	0	0	0	0	0	90	0	0	0	0	0	0	0	0	0	0	0	0	0	0	
From rank 11 to: 	0	0	0	0	0	0	100	0	0	110	140	0	0	0	0	0	0	0	0	0	0	0	0	0	0	0	0	0	0	0	0	0	0	60	110	50	0	0	0	0	0	0	0	0	0	0	0	0	
From rank 12 to: 	0	0	160	0	0	0	0	70	0	0	0	0	0	30	130	110	0	75	0	0	0	0	0	0	0	0	0	0	0	0	0	0	0	0	0	0	0	0	0	0	0	0	0	0	0	0	0	0	
From rank 13 to: 	0	0	0	0	0	0	0	0	0	0	0	0	30	0	130	160	0	0	0	0	0	0	160	0	0	0	0	0	0	0	0	0	0	0	0	0	0	0	0	0	0	0	0	0	0	0	0	0	
From rank 14 to: 	70	0	40	0	0	0	0	0	0	0	0	0	130	140	0	0	0	0	0	0	0	0	0	0	0	0	0	0	0	0	0	0	0	0	0	0	0	0	0	0	0	0	0	0	0	0	0	0	
From rank 15 to: 	0	0	0	0	0	0	0	0	0	0	0	0	110	160	0	0	163	27	70	0	0	0	60	0	0	0	0	0	0	0	0	0	0	0	0	0	0	0	0	0	0	0	0	0	0	0	0	0	
From rank 16 to: 	0	0	0	0	0	0	0	0	0	0	0	0	0	0	0	170	0	183	120	0	0	0	0	0	0	0	0	0	0	0	0	0	0	0	0	0	0	0	0	0	0	0	0	50	40	0	0	0	
From rank 17 to: 	0	0	0	0	0	0	0	85	70	0	0	0	85	0	0	27	183	0	0	0	0	0	0	0	0	0	0	0	0	80	0	0	0	0	0	0	0	0	0	0	0	0	0	50	0	0	0	0	
From rank 18 to: 	0	0	0	0	0	0	0	0	0	0	0	0	0	0	0	70	120	0	0	0	110	0	80	80	0	0	0	0	0	0	0	0	0	0	0	0	0	0	0	0	0	0	0	0	120	0	0	0	
From rank 19 to: 	0	0	0	0	0	0	0	0	0	0	0	0	0	0	0	0	0	0	0	0	190	120	0	70	0	0	0	0	0	0	0	0	0	0	0	0	0	0	0	0	0	0	0	0	0	0	0	0	
From rank 20 to: 	0	0	0	0	0	0	0	0	0	0	0	0	0	0	0	0	0	0	110	180	0	0	0	50	0	0	0	0	0	0	0	0	0	0	0	0	0	0	0	0	0	0	0	0	60	160	0	0	
From rank 21 to: 	0	0	0	0	0	0	0	0	0	0	0	0	0	0	0	0	0	0	0	120	0	0	0	190	0	0	0	0	0	0	0	0	0	0	0	0	0	0	0	0	0	0	0	0	0	0	0	0	
From rank 22 to: 	0	0	0	0	0	0	0	0	0	0	0	0	0	160	0	60	0	0	80	0	0	0	0	207	0	0	0	0	0	0	0	0	0	0	0	0	0	0	0	0	0	0	0	0	0	0	0	0	
From rank 23 to: 	0	0	0	0	0	0	0	0	0	0	0	0	0	0	0	0	0	0	73	70	50	190	207	0	0	0	0	0	0	0	0	0	0	0	0	0	0	0	0	0	0	0	0	0	0	0	0	0	
From rank 24 to: 	0	0	0	0	0	0	0	0	0	0	0	0	0	0	0	0	0	0	0	0	0	0	0	0	0	120	90	110	110	0	0	44	0	0	86	0	0	0	0	0	0	80	0	0	0	0	0	0	
From rank 25 to: 	0	0	0	0	0	0	0	0	0	0	0	0	0	0	0	0	0	0	0	0	0	0	0	0	120	0	190	0	0	0	0	0	0	0	0	0	0	0	0	0	70	80	0	0	0	0	0	0	
From rank 26 to: 	0	0	0	0	0	0	0	0	0	0	0	0	0	0	0	0	0	0	0	0	0	0	0	0	90	190	0	0	0	0	0	90	120	0	0	0	0	0	0	0	0	0	0	0	0	0	0	0	
From rank 27 to: 	0	0	0	0	0	0	30	0	104	0	0	0	0	0	0	0	0	0	0	0	0	0	0	0	110	0	0	0	92	94	0	0	0	0	130	0	0	0	0	0	0	0	0	0	0	0	0	0	
From rank 28 to: 	0	0	0	0	0	0	0	0	0	0	0	0	0	0	0	0	0	0	0	0	0	0	0	0	110	0	0	90	0	110	0	0	0	0	0	0	0	0	0	70	0	110	0	40	0	0	0	0	
From rank 29 to: 	0	0	0	0	0	0	0	0	114	0	0	0	0	0	0	0	0	80	0	0	0	0	0	0	0	0	0	94	110	0	0	0	0	0	0	0	0	0	0	0	0	0	0	190	0	0	0	0	
From rank 30 to: 	0	0	0	0	0	0	0	0	0	0	0	0	0	0	0	0	0	0	0	0	0	0	0	0	0	0	0	0	0	0	0	120	90	95	0	33	0	0	0	0	0	0	0	0	0	0	0	0	
From rank 31 to: 	0	0	0	0	0	0	0	0	0	0	0	0	0	0	0	0	0	0	0	0	0	0	0	0	47	0	90	0	0	0	120	0	200	0	46	184	0	0	0	0	0	0	0	0	0	0	0	0	
From rank 32 to: 	0	0	0	0	0	0	0	0	0	0	0	0	0	0	0	0	0	0	0	0	0	0	0	0	0	0	120	0	0	0	100	200	0	0	0	0	0	0	0	0	0	0	0	0	0	0	0	0	
From rank 33 to: 	0	0	0	0	0	0	0	0	0	0	90	60	0	0	0	0	0	0	0	0	0	0	0	0	0	0	0	0	0	0	95	0	0	0	0	145	0	0	0	0	0	0	0	0	0	0	0	0	
From rank 34 to: 	0	0	0	0	0	0	70	0	0	0	0	120	0	0	0	0	0	0	0	0	0	0	0	0	76	0	0	130	0	0	0	46	0	0	0	121	0	0	0	0	0	0	0	0	0	0	0	0	
From rank 35 to: 	0	0	0	0	0	0	0	0	0	0	0	50	0	0	0	0	0	0	0	0	0	0	0	0	0	0	0	0	0	0	38	191	0	145	116	0	0	0	0	0	0	0	0	0	0	0	0	0	
From rank 36 to: 	0	0	0	0	0	0	0	0	0	0	0	0	0	0	0	0	0	0	0	0	0	0	0	0	0	0	0	0	0	0	0	0	0	0	0	0	0	200	0	50	200	0	0	0	0	0	0	0	
From rank 37 to: 	0	0	0	0	0	0	0	0	0	0	0	0	0	0	0	0	0	0	0	0	0	0	0	0	0	0	0	0	0	0	0	0	0	0	0	0	200	0	210	70	0	0	0	0	0	0	60	0	
From rank 38 to: 	0	0	0	0	0	0	0	0	0	0	0	0	0	0	0	0	0	0	0	0	0	0	0	0	0	0	0	0	0	0	0	0	0	0	0	0	0	210	0	0	0	0	0	0	0	0	110	0	
From rank 39 to: 	0	0	0	0	0	0	0	0	0	0	0	0	0	0	0	0	0	0	0	0	0	0	0	0	0	0	0	0	70	0	0	0	0	0	0	0	50	60	0	0	100	80	120	72	0	0	110	0	
From rank 40 to: 	0	0	0	0	0	0	0	0	0	0	0	0	0	0	0	0	0	0	0	0	0	0	0	0	0	70	0	0	0	0	0	0	0	0	0	0	200	0	0	110	0	180	0	0	0	0	0	0	
From rank 41 to: 	0	0	0	0	0	0	0	0	0	0	0	0	0	0	0	0	0	0	0	0	0	0	0	0	80	80	0	0	100	0	0	0	0	0	0	0	0	0	0	90	190	0	0	0	0	0	0	0	
From rank 42 to: 	0	0	0	0	0	0	0	0	0	0	0	0	0	0	0	0	0	0	0	0	0	0	0	0	0	0	0	0	0	0	0	0	0	0	0	0	0	0	0	130	0	0	0	130	100	30	60	90	
From rank 43 to: 	0	0	0	0	0	0	0	0	0	0	0	0	0	0	0	0	50	50	0	0	0	0	0	0	0	0	0	0	48	180	0	0	0	0	0	0	0	0	0	72	0	0	130	0	110	0	0	0	
From rank 44 to: 	0	0	0	0	0	0	0	0	0	0	0	0	0	0	0	0	50	0	120	0	70	0	0	0	0	0	0	0	0	0	0	0	0	0	0	0	0	0	0	0	0	0	100	110	0	120	0	0	
From rank 45 to: 	0	0	0	0	0	0	0	0	0	0	0	0	0	0	0	0	0	0	0	0	160	0	0	0	0	0	0	0	0	0	0	0	0	0	0	0	0	0	0	0	0	0	40	0	130	0	0	190	
From rank 46 to: 	0	0	0	0	0	0	0	0	0	0	0	0	0	0	0	0	0	0	0	0	0	0	0	0	0	0	0	0	0	0	0	0	0	0	0	0	0	70	110	100	0	0	60	0	0	0	0	200	
From rank 47 to: 	0	0	0	0	0	0	0	0	0	0	0	0	0	0	0	0	0	0	0	0	0	0	0	0	0	0	0	0	0	0	0	0	0	0	0	0	0	0	0	0	0	0	90	0	0	190	200	0	




=== CGSolver
 Iter          Defect            Rate
    0           160.25
    1          39.3967         0.245846
    2          24.0582         0.610666
    3           21.943          0.91208
    4          20.9538         0.954918
    5          10.5294         0.502506
    6          5.37624         0.510593
    7          4.10151         0.762896
    8          2.49124         0.607394
    9          1.24753         0.500769
   10         0.942265         0.755302
   11         0.638429         0.677547
   12         0.338389         0.530033
   13         0.244988         0.723984
   14         0.161726          0.66014
   15        0.0951516          0.58835
   16        0.0600954         0.631575
   17        0.0407237         0.677652
   18        0.0251503         0.617583
   19        0.0165467         0.657914
   20          0.01045         0.631544
=== rate=0.617612, T=0.214183, TIT=0.0107092, IT=20

 Elapsed time: 0.214183
Rank 0: Matrix-vector product took 0.00189924 seconds
Rank 1: Matrix-vector product took 0.00208846 seconds
Rank 2: Matrix-vector product took 0.00210232 seconds
Rank 3: Matrix-vector product took 0.00184418 seconds
Rank 4: Matrix-vector product took 0.00196767 seconds
Rank 5: Matrix-vector product took 0.0019881 seconds
Rank 6: Matrix-vector product took 0.00205314 seconds
Rank 7: Matrix-vector product took 0.00206163 seconds
Rank 8: Matrix-vector product took 0.00202894 seconds
Rank 9: Matrix-vector product took 0.00210481 seconds
Rank 10: Matrix-vector product took 0.00192524 seconds
Rank 11: Matrix-vector product took 0.00208375 seconds
Rank 12: Matrix-vector product took 0.002044 seconds
Rank 13: Matrix-vector product took 0.00199723 seconds
Rank 14: Matrix-vector product took 0.00191046 seconds
Rank 15: Matrix-vector product took 0.00207928 seconds
Rank 16: Matrix-vector product took 0.00206511 seconds
Rank 17: Matrix-vector product took 0.00207171 seconds
Rank 18: Matrix-vector product took 0.00205612 seconds
Rank 19: Matrix-vector product took 0.00190508 seconds
Rank 20: Matrix-vector product took 0.00204542 seconds
Rank 21: Matrix-vector product took 0.00185978 seconds
Rank 22: Matrix-vector product took 0.00199507 seconds
Rank 23: Matrix-vector product took 0.00205117 seconds
Rank 24: Matrix-vector product took 0.00209948 seconds
Rank 25: Matrix-vector product took 0.00196678 seconds
Rank 26: Matrix-vector product took 0.00197734 seconds
Rank 27: Matrix-vector product took 0.00206321 seconds
Rank 28: Matrix-vector product took 0.002029 seconds
Rank 29: Matrix-vector product took 0.0020599 seconds
Rank 30: Matrix-vector product took 0.00189938 seconds
Rank 31: Matrix-vector product took 0.00214061 seconds
Rank 32: Matrix-vector product took 0.00193682 seconds
Rank 33: Matrix-vector product took 0.001914 seconds
Rank 34: Matrix-vector product took 0.00204139 seconds
Rank 35: Matrix-vector product took 0.00199903 seconds
Rank 36: Matrix-vector product took 0.00196919 seconds
Rank 37: Matrix-vector product took 0.00203834 seconds
Rank 38: Matrix-vector product took 0.00185209 seconds
Rank 39: Matrix-vector product took 0.00211686 seconds
Rank 40: Matrix-vector product took 0.00203407 seconds
Rank 41: Matrix-vector product took 0.00202314 seconds
Rank 42: Matrix-vector product took 0.0020639 seconds
Rank 43: Matrix-vector product took 0.00210296 seconds
Rank 44: Matrix-vector product took 0.00204741 seconds
Rank 45: Matrix-vector product took 0.00206466 seconds
Rank 46: Matrix-vector product took 0.00204268 seconds
Rank 47: Matrix-vector product took 0.00197535 seconds
Average time for Matrix-vector product is 0.00201428 seconds

Rank 0: copyOwnerToAll took 0.00025179 seconds
Rank 1: copyOwnerToAll took 0.00025179 seconds
Rank 2: copyOwnerToAll took 0.00025179 seconds
Rank 3: copyOwnerToAll took 0.00025179 seconds
Rank 4: copyOwnerToAll took 0.00025179 seconds
Rank 5: copyOwnerToAll took 0.00025179 seconds
Rank 6: copyOwnerToAll took 0.00025179 seconds
Rank 7: copyOwnerToAll took 0.00025179 seconds
Rank 8: copyOwnerToAll took 0.00025179 seconds
Rank 9: copyOwnerToAll took 0.00025179 seconds
Rank 10: copyOwnerToAll took 0.00025179 seconds
Rank 11: copyOwnerToAll took 0.00025179 seconds
Rank 12: copyOwnerToAll took 0.00025179 seconds
Rank 13: copyOwnerToAll took 0.00025179 seconds
Rank 14: copyOwnerToAll took 0.00025179 seconds
Rank 15: copyOwnerToAll took 0.00025179 seconds
Rank 16: copyOwnerToAll took 0.00025179 seconds
Rank 17: copyOwnerToAll took 0.00025179 seconds
Rank 18: copyOwnerToAll took 0.00025179 seconds
Rank 19: copyOwnerToAll took 0.00025179 seconds
Rank 20: copyOwnerToAll took 0.00025179 seconds
Rank 21: copyOwnerToAll took 0.00025179 seconds
Rank 22: copyOwnerToAll took 0.00025179 seconds
Rank 23: copyOwnerToAll took 0.00025179 seconds
Rank 24: copyOwnerToAll took 0.00025179 seconds
Rank 25: copyOwnerToAll took 0.00025179 seconds
Rank 26: copyOwnerToAll took 0.00025179 seconds
Rank 27: copyOwnerToAll took 0.00025179 seconds
Rank 28: copyOwnerToAll took 0.00025179 seconds
Rank 29: copyOwnerToAll took 0.00025179 seconds
Rank 30: copyOwnerToAll took 0.00025179 seconds
Rank 31: copyOwnerToAll took 0.00025179 seconds
Rank 32: copyOwnerToAll took 0.00025179 seconds
Rank 33: copyOwnerToAll took 0.00025179 seconds
Rank 34: copyOwnerToAll took 0.00025179 seconds
Rank 35: copyOwnerToAll took 0.00025179 seconds
Rank 36: copyOwnerToAll took 0.00025179 seconds
Rank 37: copyOwnerToAll took 0.00025179 seconds
Rank 38: copyOwnerToAll took 0.00025179 seconds
Rank 39: copyOwnerToAll took 0.00025179 seconds
Rank 40: copyOwnerToAll took 0.00025179 seconds
Rank 41: copyOwnerToAll took 0.00025179 seconds
Rank 42: copyOwnerToAll took 0.00025179 seconds
Rank 43: copyOwnerToAll took 0.00025179 seconds
Rank 44: copyOwnerToAll took 0.00025179 seconds
Rank 45: copyOwnerToAll took 0.00025179 seconds
Rank 46: copyOwnerToAll took 0.00025179 seconds
Rank 47: copyOwnerToAll took 0.00025179 seconds
Average time for copyOwnertoAll is 0.000299017 seconds



			Rank 0	Rank 1	Rank 2	Rank 3	Rank 4	Rank 5	Rank 6	Rank 7	Rank 8	Rank 9	Rank 10	Rank 11	Rank 12	Rank 13	Rank 14	Rank 15	Rank 16	Rank 17	Rank 18	Rank 19	Rank 20	Rank 21	Rank 22	Rank 23	Rank 24	Rank 25	Rank 26	Rank 27	Rank 28	Rank 29	Rank 30	Rank 31	Rank 32	Rank 33	Rank 34	Rank 35	Rank 36	Rank 37	Rank 38	Rank 39	Rank 40	Rank 41	Rank 42	Rank 43	Rank 44	Rank 45	Rank 46	Rank 47	
Rank 0's ghost cells:	0	127	107	100	0	0	0	0	0	0	0	0	0	0	70	0	0	0	0	0	0	0	0	0	0	0	0	0	0	0	0	0	0	0	0	0	0	0	0	0	0	0	0	0	0	0	0	0	
Rank 1's ghost cells:	127	0	153	43	120	50	0	30	0	70	0	0	0	0	0	0	0	0	0	0	0	0	0	0	0	0	0	0	0	0	0	0	0	0	0	0	0	0	0	0	0	0	0	0	0	0	0	0	
Rank 2's ghost cells:	117	153	0	0	0	0	0	120	0	0	0	0	160	0	40	0	0	0	0	0	0	0	0	0	0	0	0	0	0	0	0	0	0	0	0	0	0	0	0	0	0	0	0	0	0	0	0	0	
Rank 3's ghost cells:	100	33	0	0	150	0	0	0	0	0	0	0	0	0	0	0	0	0	0	0	0	0	0	0	0	0	0	0	0	0	0	0	0	0	0	0	0	0	0	0	0	0	0	0	0	0	0	0	
Rank 4's ghost cells:	0	130	0	150	0	180	0	0	0	0	0	0	0	0	0	0	0	0	0	0	0	0	0	0	0	0	0	0	0	0	0	0	0	0	0	0	0	0	0	0	0	0	0	0	0	0	0	0	
Rank 5's ghost cells:	0	50	0	0	180	0	0	0	0	150	70	0	0	0	0	0	0	0	0	0	0	0	0	0	0	0	0	0	0	0	0	0	0	0	0	0	0	0	0	0	0	0	0	0	0	0	0	0	
Rank 6's ghost cells:	0	0	0	0	0	0	0	120	130	110	0	90	0	0	0	0	0	0	0	0	0	0	0	0	0	0	0	40	0	0	0	0	0	0	70	0	0	0	0	0	0	0	0	0	0	0	0	0	
Rank 7's ghost cells:	0	30	120	0	0	0	110	0	110	70	0	0	60	0	0	0	0	90	0	0	0	0	0	0	0	0	0	0	0	0	0	0	0	0	0	0	0	0	0	0	0	0	0	0	0	0	0	0	
Rank 8's ghost cells:	0	0	0	0	0	0	130	110	0	0	0	0	0	0	0	0	0	70	0	0	0	0	0	0	0	0	0	104	0	116	0	0	0	0	0	0	0	0	0	0	0	0	0	0	0	0	0	0	
Rank 9's ghost cells:	0	70	0	0	0	150	100	70	0	0	110	100	0	0	0	0	0	0	0	0	0	0	0	0	0	0	0	0	0	0	0	0	0	0	0	0	0	0	0	0	0	0	0	0	0	0	0	0	
Rank 10's ghost cells:	0	0	0	0	0	70	0	0	0	100	0	140	0	0	0	0	0	0	0	0	0	0	0	0	0	0	0	0	0	0	0	0	0	90	0	0	0	0	0	0	0	0	0	0	0	0	0	0	
Rank 11's ghost cells:	0	0	0	0	0	0	100	0	0	110	140	0	0	0	0	0	0	0	0	0	0	0	0	0	0	0	0	0	0	0	0	0	0	60	110	50	0	0	0	0	0	0	0	0	0	0	0	0	
Rank 12's ghost cells:	0	0	160	0	0	0	0	70	0	0	0	0	0	30	130	110	0	75	0	0	0	0	0	0	0	0	0	0	0	0	0	0	0	0	0	0	0	0	0	0	0	0	0	0	0	0	0	0	
Rank 13's ghost cells:	0	0	0	0	0	0	0	0	0	0	0	0	30	0	130	160	0	0	0	0	0	0	160	0	0	0	0	0	0	0	0	0	0	0	0	0	0	0	0	0	0	0	0	0	0	0	0	0	
Rank 14's ghost cells:	70	0	40	0	0	0	0	0	0	0	0	0	130	140	0	0	0	0	0	0	0	0	0	0	0	0	0	0	0	0	0	0	0	0	0	0	0	0	0	0	0	0	0	0	0	0	0	0	
Rank 15's ghost cells:	0	0	0	0	0	0	0	0	0	0	0	0	110	160	0	0	163	27	70	0	0	0	60	0	0	0	0	0	0	0	0	0	0	0	0	0	0	0	0	0	0	0	0	0	0	0	0	0	
Rank 16's ghost cells:	0	0	0	0	0	0	0	0	0	0	0	0	0	0	0	170	0	183	120	0	0	0	0	0	0	0	0	0	0	0	0	0	0	0	0	0	0	0	0	0	0	0	0	50	40	0	0	0	
Rank 17's ghost cells:	0	0	0	0	0	0	0	85	70	0	0	0	85	0	0	27	183	0	0	0	0	0	0	0	0	0	0	0	0	80	0	0	0	0	0	0	0	0	0	0	0	0	0	50	0	0	0	0	
Rank 18's ghost cells:	0	0	0	0	0	0	0	0	0	0	0	0	0	0	0	70	120	0	0	0	110	0	80	80	0	0	0	0	0	0	0	0	0	0	0	0	0	0	0	0	0	0	0	0	120	0	0	0	
Rank 19's ghost cells:	0	0	0	0	0	0	0	0	0	0	0	0	0	0	0	0	0	0	0	0	190	120	0	70	0	0	0	0	0	0	0	0	0	0	0	0	0	0	0	0	0	0	0	0	0	0	0	0	
Rank 20's ghost cells:	0	0	0	0	0	0	0	0	0	0	0	0	0	0	0	0	0	0	110	180	0	0	0	50	0	0	0	0	0	0	0	0	0	0	0	0	0	0	0	0	0	0	0	0	60	160	0	0	
Rank 21's ghost cells:	0	0	0	0	0	0	0	0	0	0	0	0	0	0	0	0	0	0	0	120	0	0	0	190	0	0	0	0	0	0	0	0	0	0	0	0	0	0	0	0	0	0	0	0	0	0	0	0	
Rank 22's ghost cells:	0	0	0	0	0	0	0	0	0	0	0	0	0	160	0	60	0	0	80	0	0	0	0	207	0	0	0	0	0	0	0	0	0	0	0	0	0	0	0	0	0	0	0	0	0	0	0	0	
Rank 23's ghost cells:	0	0	0	0	0	0	0	0	0	0	0	0	0	0	0	0	0	0	73	70	50	190	207	0	0	0	0	0	0	0	0	0	0	0	0	0	0	0	0	0	0	0	0	0	0	0	0	0	
Rank 24's ghost cells:	0	0	0	0	0	0	0	0	0	0	0	0	0	0	0	0	0	0	0	0	0	0	0	0	0	120	90	110	110	0	0	44	0	0	86	0	0	0	0	0	0	80	0	0	0	0	0	0	
Rank 25's ghost cells:	0	0	0	0	0	0	0	0	0	0	0	0	0	0	0	0	0	0	0	0	0	0	0	0	120	0	190	0	0	0	0	0	0	0	0	0	0	0	0	0	70	80	0	0	0	0	0	0	
Rank 26's ghost cells:	0	0	0	0	0	0	0	0	0	0	0	0	0	0	0	0	0	0	0	0	0	0	0	0	90	190	0	0	0	0	0	90	120	0	0	0	0	0	0	0	0	0	0	0	0	0	0	0	
Rank 27's ghost cells:	0	0	0	0	0	0	30	0	104	0	0	0	0	0	0	0	0	0	0	0	0	0	0	0	110	0	0	0	92	94	0	0	0	0	130	0	0	0	0	0	0	0	0	0	0	0	0	0	
Rank 28's ghost cells:	0	0	0	0	0	0	0	0	0	0	0	0	0	0	0	0	0	0	0	0	0	0	0	0	110	0	0	90	0	110	0	0	0	0	0	0	0	0	0	70	0	110	0	40	0	0	0	0	
Rank 29's ghost cells:	0	0	0	0	0	0	0	0	114	0	0	0	0	0	0	0	0	80	0	0	0	0	0	0	0	0	0	94	110	0	0	0	0	0	0	0	0	0	0	0	0	0	0	190	0	0	0	0	
Rank 30's ghost cells:	0	0	0	0	0	0	0	0	0	0	0	0	0	0	0	0	0	0	0	0	0	0	0	0	0	0	0	0	0	0	0	120	90	95	0	33	0	0	0	0	0	0	0	0	0	0	0	0	
Rank 31's ghost cells:	0	0	0	0	0	0	0	0	0	0	0	0	0	0	0	0	0	0	0	0	0	0	0	0	47	0	90	0	0	0	120	0	200	0	46	184	0	0	0	0	0	0	0	0	0	0	0	0	
Rank 32's ghost cells:	0	0	0	0	0	0	0	0	0	0	0	0	0	0	0	0	0	0	0	0	0	0	0	0	0	0	120	0	0	0	100	200	0	0	0	0	0	0	0	0	0	0	0	0	0	0	0	0	
Rank 33's ghost cells:	0	0	0	0	0	0	0	0	0	0	90	60	0	0	0	0	0	0	0	0	0	0	0	0	0	0	0	0	0	0	95	0	0	0	0	145	0	0	0	0	0	0	0	0	0	0	0	0	
Rank 34's ghost cells:	0	0	0	0	0	0	70	0	0	0	0	120	0	0	0	0	0	0	0	0	0	0	0	0	76	0	0	130	0	0	0	46	0	0	0	121	0	0	0	0	0	0	0	0	0	0	0	0	
Rank 35's ghost cells:	0	0	0	0	0	0	0	0	0	0	0	50	0	0	0	0	0	0	0	0	0	0	0	0	0	0	0	0	0	0	38	191	0	145	116	0	0	0	0	0	0	0	0	0	0	0	0	0	
Rank 36's ghost cells:	0	0	0	0	0	0	0	0	0	0	0	0	0	0	0	0	0	0	0	0	0	0	0	0	0	0	0	0	0	0	0	0	0	0	0	0	0	200	0	50	200	0	0	0	0	0	0	0	
Rank 37's ghost cells:	0	0	0	0	0	0	0	0	0	0	0	0	0	0	0	0	0	0	0	0	0	0	0	0	0	0	0	0	0	0	0	0	0	0	0	0	200	0	210	70	0	0	0	0	0	0	60	0	
Rank 38's ghost cells:	0	0	0	0	0	0	0	0	0	0	0	0	0	0	0	0	0	0	0	0	0	0	0	0	0	0	0	0	0	0	0	0	0	0	0	0	0	210	0	0	0	0	0	0	0	0	110	0	
Rank 39's ghost cells:	0	0	0	0	0	0	0	0	0	0	0	0	0	0	0	0	0	0	0	0	0	0	0	0	0	0	0	0	70	0	0	0	0	0	0	0	50	60	0	0	100	80	120	72	0	0	110	0	
Rank 40's ghost cells:	0	0	0	0	0	0	0	0	0	0	0	0	0	0	0	0	0	0	0	0	0	0	0	0	0	70	0	0	0	0	0	0	0	0	0	0	200	0	0	110	0	180	0	0	0	0	0	0	
Rank 41's ghost cells:	0	0	0	0	0	0	0	0	0	0	0	0	0	0	0	0	0	0	0	0	0	0	0	0	80	80	0	0	100	0	0	0	0	0	0	0	0	0	0	90	190	0	0	0	0	0	0	0	
Rank 42's ghost cells:	0	0	0	0	0	0	0	0	0	0	0	0	0	0	0	0	0	0	0	0	0	0	0	0	0	0	0	0	0	0	0	0	0	0	0	0	0	0	0	130	0	0	0	130	100	30	60	90	
Rank 43's ghost cells:	0	0	0	0	0	0	0	0	0	0	0	0	0	0	0	0	50	50	0	0	0	0	0	0	0	0	0	0	48	180	0	0	0	0	0	0	0	0	0	72	0	0	130	0	110	0	0	0	
Rank 44's ghost cells:	0	0	0	0	0	0	0	0	0	0	0	0	0	0	0	0	50	0	120	0	70	0	0	0	0	0	0	0	0	0	0	0	0	0	0	0	0	0	0	0	0	0	100	110	0	120	0	0	
Rank 45's ghost cells:	0	0	0	0	0	0	0	0	0	0	0	0	0	0	0	0	0	0	0	0	160	0	0	0	0	0	0	0	0	0	0	0	0	0	0	0	0	0	0	0	0	0	40	0	130	0	0	190	
Rank 46's ghost cells:	0	0	0	0	0	0	0	0	0	0	0	0	0	0	0	0	0	0	0	0	0	0	0	0	0	0	0	0	0	0	0	0	0	0	0	0	0	70	110	100	0	0	60	0	0	0	0	200	
Rank 47's ghost cells:	0	0	0	0	0	0	0	0	0	0	0	0	0	0	0	0	0	0	0	0	0	0	0	0	0	0	0	0	0	0	0	0	0	0	0	0	0	0	0	0	0	0	90	0	0	190	200	0	
